test_run_dir/DSP_should_play/DSP.vcd
$date
2022-06-16T13:56+0000
$end
$version
0.2
$end
$comment

$end
$timescale 1ns  $end
$scope module DSP $end
 $var wire 1 ` clock $end
 $var wire 1 j io_Out $end
 $var wire 1 "5 io_In $end
 $var wire 1 "< reset $end
 $var wire 1 "S IOC $end
  $scope module IOC.Filter $end
  $upscope $end
  $scope module IOC.ADC $end
  $upscope $end
  $scope module IOC $end
   $var wire 18 $ DACHold $end
   $var wire 18 0 io_Out_ADC $end
   $var wire 1 4 reset $end
   $var wire 1 7 clock $end
   $var wire 1 < lastSampleType $end
   $var wire 18 > ADCReg $end
   $var wire 18 Q DACReg $end
   $var wire 1 R check2 $end
   $var wire 1 T check1 $end
   $var wire 1 U sampleType $end
   $var wire 1 ] beginSample $end
   $var wire 1 e io_In_ADC $end
   $var wire 1 f DACEn $end
   $var wire 1 l DAC $end
   $var wire 1 m Filter $end
   $var wire 1 y isLoading $end
   $var wire 1 ", ADC $end
   $var wire 18 "- ADCHold $end
   $var wire 18 "2 io_In_DAC $end
   $var wire 10 "6 cntReg $end
   $var wire 1 "H ADCEn $end
   $var wire 1 "I io_Out_DAC $end
    $scope module DAC $end
     $var wire 5 ! cntReg $end
     $var wire 18 " io_InFIR $end
     $var wire 18 * DDC $end
     $var wire 1 + reset $end
     $var wire 1 - clock $end
     $var wire 1 B tick $end
     $var wire 18 N ZReg $end
     $var wire 1 h io_OutPWM $end
     $var wire 18 p io_OutFIR $end
     $var wire 18 "1 io_In $end
     $var wire 18 "L Diff $end
     $var wire 18 "N ZIn $end
    $upscope $end
    $scope module Filter $end
     $var wire 1 # OutputSampleMemory_ReadOutputSample_MPORT_en_pipe_0 $end
     $var wire 11 / SampleCount $end
     $var wire 11 1 InputSamplePointer $end
     $var wire 18 3 io_WaveOut $end
     $var wire 7 8 maxcountwire $end
     $var wire 1 = InputSampleMemory_ReadInputSample_MPORT_en_pipe_0 $end
     $var wire 1 @ io_ADCEnable $end
     $var wire 11 C InputSampleMemory_ReadInputSample_MPORT_addr_pipe_0 $end
     $var wire 11 F OutputSampleMemory_ReadOutputSample_MPORT_addr_pipe_0 $end
     $var wire 11 J OutputSamplePointer $end
     $var wire 1 V io_SampleType $end
     $var wire 18 X CoeffWire $end
     $var wire 18 Y OutputSampleMemory $end
     $var wire 36 [ MAccReg $end
     $var wire 11 a SampleAddress $end
     $var wire 10 b CoeffMemory_CoeffWire_MPORT_addr_pipe_0 $end
     $var wire 36 n Fircomputation36 $end
     $var wire 18 o ReadInputSample $end
     $var wire 1 { clock $end
     $var wire 18 "% OutputReg $end
     $var wire 1 ") io_DACEnable $end
     $var wire 6 "; Halfcountwire $end
     $var wire 18 "= FIRInput $end
     $var wire 18 "? io_DACWaveIn $end
     $var wire 18 "G CoeffMemory $end
     $var wire 18 "K io_ADCWaveIn $end
     $var wire 1 "P CoeffMemory_CoeffWire_MPORT_en_pipe_0 $end
     $var wire 18 "R InputSampleMemory $end
     $var wire 18 "U ReadOutputSample $end
     $var wire 1 "X io_Completed $end
     $var wire 11 "Z CoeffCount $end
      $scope module OutputSampleMemory $end
       $var wire 18 "A MPORT_4 $end
       $var wire 18 "B MPORT_2 $end
       $var wire 18 "C MPORT_3 $end
        $scope module MPORT_3 $end
         $var wire 11 % pipeline_addr_0 $end
         $var wire 18 ? data $end
         $var wire 1 H pipeline_valid_0 $end
         $var wire 11 K addr $end
         $var wire 18 W pipeline_data_0 $end
         $var wire 1 ^ clk $end
         $var wire 1 u mask $end
         $var wire 1 "# valid $end
         $var wire 1 "Q en $end
        $upscope $end
        $scope module MPORT_2 $end
         $var wire 18 ' data $end
         $var wire 1 , valid $end
         $var wire 18 6 pipeline_data_0 $end
         $var wire 11 9 addr $end
         $var wire 1 i mask $end
         $var wire 1 q clk $end
         $var wire 1 z en $end
         $var wire 11 "@ pipeline_addr_0 $end
         $var wire 1 "V pipeline_valid_0 $end
        $upscope $end
        $scope module MPORT_4 $end
         $var wire 1 A valid $end
         $var wire 1 I mask $end
         $var wire 1 L pipeline_valid_0 $end
         $var wire 1 M clk $end
         $var wire 11 _ pipeline_addr_0 $end
         $var wire 11 s addr $end
         $var wire 18 t pipeline_data_0 $end
         $var wire 18 | data $end
         $var wire 1 "8 en $end
        $upscope $end
        $scope module ReadOutputSample_MPORT $end
         $var wire 18 w data $end
         $var wire 1 "" clk $end
         $var wire 1 "D en $end
         $var wire 11 "F addr $end
        $upscope $end
      $upscope $end
      $scope module InputSampleMemory $end
       $var wire 18 d MPORT $end
       $var wire 18 "& MPORT_1 $end
       $var wire 18 "' MPORT_5 $end
        $scope module MPORT $end
         $var wire 1 & pipeline_valid_0 $end
         $var wire 1 ) mask $end
         $var wire 18 ; data $end
         $var wire 1 Z valid $end
         $var wire 1 k en $end
         $var wire 1 "( clk $end
         $var wire 18 "3 pipeline_data_0 $end
         $var wire 11 "4 pipeline_addr_0 $end
         $var wire 11 "9 addr $end
        $upscope $end
        $scope module MPORT_1 $end
         $var wire 18 ( data $end
         $var wire 1 2 pipeline_valid_0 $end
         $var wire 1 5 valid $end
         $var wire 11 : addr $end
         $var wire 1 E mask $end
         $var wire 18 P pipeline_data_0 $end
         $var wire 1 r clk $end
         $var wire 1 ". en $end
         $var wire 11 "T pipeline_addr_0 $end
        $upscope $end
        $scope module MPORT_5 $end
         $var wire 11 . addr $end
         $var wire 1 O pipeline_valid_0 $end
         $var wire 1 S en $end
         $var wire 1 v valid $end
         $var wire 11 x pipeline_addr_0 $end
         $var wire 18 "* pipeline_data_0 $end
         $var wire 1 "> mask $end
         $var wire 18 "M data $end
         $var wire 1 "Y clk $end
        $upscope $end
        $scope module ReadInputSample_MPORT $end
         $var wire 1 "/ en $end
         $var wire 1 "0 clk $end
         $var wire 11 "O addr $end
         $var wire 18 "W data $end
        $upscope $end
      $upscope $end
      $scope module CoeffMemory $end
        $scope module CoeffWire_MPORT $end
         $var wire 18 c data $end
         $var wire 1 g en $end
         $var wire 10 } addr $end
         $var wire 1 "! clk $end
        $upscope $end
      $upscope $end
    $upscope $end
    $scope module ADC $end
     $var wire 1 D io_In $end
     $var wire 18 G io_OutFIR $end
     $var wire 1 \ clock $end
     $var wire 18 ~ sample $end
     $var wire 18 "$ io_Out $end
     $var wire 8 "+ cntReg $end
     $var wire 1 "7 tick $end
     $var wire 1 ": reset $end
     $var wire 18 "E inReg $end
     $var wire 18 "J io_InFIR $end
    $upscope $end
  $upscope $end
  $scope module IOC.DAC $end
  $upscope $end
$upscope $end
$enddefinitions $end
$dumpvars
b000000000000000000 >
02
b000000000000000000 ?
04
b00000000000 a
05
b00000000000 _
07
b000000000000000000 G
0<
0=
b000000000000000000 P
0@
b000000000000000000 Q
0A
b000000000000000000 N
0B
0D
b000000000000000000 X
1)
0H
b000000000000000000 Y
b000000000000000000 W
b0000000000 "6
0L
0M
0O
b000000000100110100 "G
0R
0S
b000000000000000000 d
0T
0U
0V
b000000000000000000 c
0Z
b00000000000 s
b00000000000 x
0\
0]
0^
b000000000000000000 p
0`
b000000000000000000 o
b000000000000000000 t
1E
0e
0f
0g
1I
0h
0j
b000000000000000000 w
0k
b000000000000000000 |
0l
0m
0q
b000000000000000000 ~
0r
b00000000 "+
b0000000000 }
0v
b00001100011 K
0y
0z
0{
1">
b00000000000 1
b00000000000 .
b00000000000 /
b00001100011 :
1i
b00000000000 %
b0000000000 b
1u
b00000000000 9
0"!
0""
0"#
b00000000000 J
0"(
0")
0",
b00000000000 C
0".
0"/
b00000000000 F
0"0
0"5
0"7
0"8
b000000000000000000 "?
0":
b000000000000000000 "=
0"<
b000000000000000000 "C
b000000000000000000 "B
b000000000000000000 "A
b00000 !
b000000000000000000 "'
b000000000000000000 "&
b000000000000000000 "%
0"D
b000000000000000000 "$
b000000000000000000 "*
0"H
0"I
b000000000000000000 "-
b000000000000000000 "3
b000000000000000000 "2
b000000000000000000 "1
0"P
0"Q
b000000000000000000 "W
0"S
b000000000000000000 "U
0"V
0"X
0"Y
b000000 ";
b000000000000000000 "E
b00000000000 "T
b000000000000000000 "K
b000000000000000000 "J
b000000000000000000 "N
b000000000000000000 "M
b000000000000000000 "L
b000000000000000000 "R
b00000000000 "Z
b00000000000 "F
b00000000000 "@
b00000000000 "O
b00000000000 "4
b000000000000000000000000000000000000 [
b00000000000 "9
b0000000 8
b000000000000000000 $
b000000000000000000 "
b000000000000000000 (
b000000000000000000 '
b000000000000000000 *
b000000000000000000 0
0#
0&
b000000000000000000000000000000000000 n
b000000000000000000 3
b000000000000000000 6
0+
0,
0-
b000000000000000000 ;
$end
#0
1B
b000000000100110100 c
1"I
1h
b111111111111111111 *
1j
b000000000000000001 "L
1+
b000000000000000001 "N
b11111111111 .
1S
b11111111111 s
14
1v
1"X
b11111111111 "9
b1100011 8
b000000000100110100 X
1":
b00000000001 "Z
b11111111111 9
b110001 ";
1"<
#1
1#
b00001100011 %
1-
b00000000001 /
b000000000000010000 0
17
1=
1"!
1""
1"#
b000000000000010000 "$
1"(
1")
1M
1"/
1"0
1O
b000000000000010000 "1
b000000000000010000 "2
b11111111111 "4
0S
1U
1V
b111111111111010111 X
1\
1^
b11111111111 "@
b11111111111 _
1`
b00000000001 a
b0000000001 b
1"D
b111111111111010111 c
1f
1g
1"P
1"Q
b000000000000010000 p
1q
1r
b00001100011 "T
0v
0"X
1"Y
b11111111111 x
b00000000010 "Z
1{
b0000000001 }
b000000000000010000 ~
#6
0`
0""
1D
1e
0"(
0+
0-
0M
0"0
0q
0r
1"5
04
07
0"Y
0":
0"<
0{
0\
0^
0"!
#11
1""
0"#
0B
b00000000001 C
b00000000001 F
1"(
b100000000000000000 G
1H
b00000001 "+
b00001100011 J
1M
b000000000000000001 N
1"0
0O
b000000000000010000 Q
b111111111111010011 X
1\
b000000000000010000 "?
1^
1`
b00001 !
b0000000010 b
b111111111111010011 c
b100000000000000000 "E
b00000000001 "F
b000000000000010000 '
1,
b000000000000000010 "N
1-
b00000000001 "O
b00000000010 /
0"Q
b000000000000000000 p
1q
1r
b00001100010 s
17
1"Y
b00000000011 "Z
b00001100010 9
1y
1z
1{
b000000000000010000 |
b0000000010 }
b000000000000010000 ?
1"!
#16
0`
0""
0"(
0-
0M
0"0
0q
0r
07
0"Y
0{
0\
0^
0"!
#21
1""
1"(
b010000000000000000 G
0H
b00000010 "+
b00001100010 J
1M
b000000000000000010 N
1"0
b000000000000000000 Q
b0000000001 "6
b000000000000010000 W
b111111111111001011 X
1\
b000000000000000000 "?
1^
b00001100010 "@
b00001100010 _
1`
b00010 !
b0000000011 b
b111111111111001011 c
b110000000000000000 "E
b000000000000000000 '
b100000000000000000 (
b100000000000000000 "K
b100000000000000000 "M
b000000000000000011 "N
1-
b00000000011 /
1q
1r
b00001100001 s
b000000000000010000 t
1"V
b000000000000010000 6
17
1"Y
b00000000100 "Z
b00001100001 9
b100000000000000000 ;
1{
b000000000000000000 |
b0000000011 }
b100000000000000000 >
b000000000000000000 ?
1"!
#26
0`
0""
0"(
0-
0M
0"0
0q
0r
07
0"Y
0{
0\
0^
0"!
#31
1""
1"(
b001000000000000000 G
b100000000000000000 "*
b00000011 "+
b00001100001 J
1M
b000000000000000011 N
1"0
b100000000000000000 P
b100000000000000000 "3
b0000000010 "6
b000000000000000000 W
b111111111110111111 X
1\
1^
b00001100001 "@
b00001100001 _
1`
b00011 !
b0000000100 b
b111111111110111111 c
b111000000000000000 "E
b010000000000000000 (
b010000000000000000 "K
b010000000000000000 "M
b000000000000000100 "N
1-
b00000000100 /
1q
1r
b00001100000 s
b000000000000000000 t
b000000000000000000 6
17
1"Y
b00000000101 "Z
b00001100000 9
b010000000000000000 ;
1{
b0000000100 }
b010000000000000000 >
1"!
#36
0`
0""
0"(
0-
0M
0"0
0q
0r
07
0"Y
0{
0\
0^
0"!
#41
1""
1"(
b000100000000000000 G
b010000000000000000 "*
b00000100 "+
b00001100000 J
1M
b000000000000000100 N
1"0
b010000000000000000 P
b010000000000000000 "3
b0000000011 "6
b111111111110110000 X
1\
1^
b00001100000 "@
b00001100000 _
1`
b00100 !
b0000000101 b
b111111111110110000 c
b111100000000000000 "E
b001000000000000000 (
b001000000000000000 "K
b001000000000000000 "M
b000000000000000101 "N
1-
b00000000101 /
1q
1r
b00001011111 s
17
1"Y
b00000000110 "Z
b00001011111 9
b001000000000000000 ;
1{
b0000000101 }
b001000000000000000 >
1"!
#46
0`
0""
0"(
0-
0M
0"0
0q
0r
07
0"Y
0{
0\
0^
0"!
#51
1""
1"(
b000010000000000000 G
b001000000000000000 "*
b00000101 "+
b00001011111 J
1M
b000000000000000101 N
1"0
b001000000000000000 P
b001000000000000000 "3
b0000000100 "6
b111111111110011111 X
1\
1^
b00001011111 "@
b00001011111 _
1`
b00101 !
b0000000110 b
b111111111110011111 c
b111110000000000000 "E
b000100000000000000 (
b000100000000000000 "K
b000100000000000000 "M
b000000000000000110 "N
1-
b00000000110 /
1q
1r
b00001011110 s
17
1"Y
b00000000111 "Z
b00001011110 9
b000100000000000000 ;
1{
b0000000110 }
b000100000000000000 >
1"!
#56
0`
0""
0"(
0-
0M
0"0
0q
0r
07
0"Y
0{
0\
0^
0"!
#61
1""
1"(
b000001000000000000 G
b000100000000000000 "*
b00000110 "+
b00001011110 J
1M
b000000000000000110 N
1"0
b000100000000000000 P
b000100000000000000 "3
b0000000101 "6
b111111111110001010 X
1\
1^
b00001011110 "@
b00001011110 _
1`
b00110 !
b0000000111 b
b111111111110001010 c
b111111000000000000 "E
b000010000000000000 (
b000010000000000000 "K
b000010000000000000 "M
b000000000000000111 "N
1-
b00000000111 /
1q
1r
b00001011101 s
17
1"Y
b00000001000 "Z
b00001011101 9
b000010000000000000 ;
1{
b0000000111 }
b000010000000000000 >
1"!
#66
0`
0""
0"(
0-
0M
0"0
0q
0r
07
0"Y
0{
0\
0^
0"!
#71
1""
1"(
b000000100000000000 G
b000010000000000000 "*
b00000111 "+
b00001011101 J
1M
b000000000000000111 N
1"0
b000010000000000000 P
b000010000000000000 "3
b0000000110 "6
b111111111101110100 X
1\
1^
b00001011101 "@
b00001011101 _
1`
b00111 !
b0000001000 b
b111111111101110100 c
b111111100000000000 "E
b000001000000000000 (
b000001000000000000 "K
b000001000000000000 "M
b000000000000001000 "N
1-
b00000001000 /
1q
1r
b00001011100 s
17
1"Y
b00000001001 "Z
b00001011100 9
b000001000000000000 ;
1{
b0000001000 }
b000001000000000000 >
1"!
#76
0`
0""
0"(
0-
0M
0"0
0q
0r
07
0"Y
0{
0\
0^
0"!
#81
1""
1"(
b000000010000000000 G
b000001000000000000 "*
b00001000 "+
b00001011100 J
1M
b000000000000001000 N
1"0
b000001000000000000 P
b000001000000000000 "3
b0000000111 "6
b111111111101011100 X
1\
1^
b00001011100 "@
b00001011100 _
1`
b01000 !
b0000001001 b
b111111111101011100 c
b111111110000000000 "E
b000000100000000000 (
b000000100000000000 "K
b000000100000000000 "M
b000000000000001001 "N
1-
b00000001001 /
1q
1r
b00001011011 s
17
1"Y
b00000001010 "Z
b00001011011 9
b000000100000000000 ;
1{
b0000001001 }
b000000100000000000 >
1"!
#86
0`
0""
0"(
0-
0M
0"0
0q
0r
07
0"Y
0{
0\
0^
0"!
#91
1""
1"(
b000000001000000000 G
b000000100000000000 "*
b00001001 "+
b00001011011 J
1M
b000000000000001001 N
1"0
b000000100000000000 P
b000000100000000000 "3
b0000001000 "6
b111111111101000010 X
1\
1^
b00001011011 "@
b00001011011 _
1`
b01001 !
b0000001010 b
b111111111101000010 c
b111111111000000000 "E
b000000010000000000 (
b000000010000000000 "K
b000000010000000000 "M
b000000000000001010 "N
1-
b00000001010 /
1q
1r
b00001011010 s
17
1"Y
b00000001011 "Z
b00001011010 9
b000000010000000000 ;
1{
b0000001010 }
b000000010000000000 >
1"!
#96
0`
0""
0"(
0-
0M
0"0
0q
0r
07
0"Y
0{
0\
0^
0"!
#101
1""
1"(
b000000000100000000 G
b000000010000000000 "*
b00001010 "+
b00001011010 J
1M
b000000000000001010 N
1"0
b000000010000000000 P
b000000010000000000 "3
b0000001001 "6
b111111111100101000 X
1\
1^
b00001011010 "@
b00001011010 _
1`
b01010 !
b0000001011 b
b111111111100101000 c
b111111111100000000 "E
b000000001000000000 (
b000000001000000000 "K
b000000001000000000 "M
b000000000000001011 "N
1-
b00000001011 /
1q
1r
b00001011001 s
17
1"Y
b00000001100 "Z
b00001011001 9
b000000001000000000 ;
1{
b0000001011 }
b000000001000000000 >
1"!
#106
0`
0""
0"(
0-
0M
0"0
0q
0r
07
0"Y
0{
0\
0^
0"!
#111
1""
1"(
b000000000010000000 G
b000000001000000000 "*
b00001011 "+
b00001011001 J
1M
b000000000000001011 N
1"0
b000000001000000000 P
b000000001000000000 "3
b0000001010 "6
b111111111100001101 X
1\
1^
b00001011001 "@
b00001011001 _
1`
b01011 !
b0000001100 b
b111111111100001101 c
b111111111110000000 "E
b000000000100000000 (
b000000000100000000 "K
b000000000100000000 "M
b000000000000001100 "N
1-
b00000001100 /
1q
1r
b00001011000 s
17
1"Y
b00000001101 "Z
b00001011000 9
b000000000100000000 ;
1{
b0000001100 }
b000000000100000000 >
1"!
#116
0`
0""
0"(
0-
0M
0"0
0q
0r
07
0"Y
0{
0\
0^
0"!
#121
1""
1"(
b000000000001000000 G
b000000000100000000 "*
b00001100 "+
b00001011000 J
1M
b000000000000001100 N
1"0
b000000000100000000 P
b000000000100000000 "3
b0000001011 "6
b111111111011110011 X
1\
1^
b00001011000 "@
b00001011000 _
1`
b01100 !
b0000001101 b
b111111111011110011 c
b111111111111000000 "E
b000000000010000000 (
b000000000010000000 "K
b000000000010000000 "M
b000000000000001101 "N
1-
b00000001101 /
1q
1r
b00001010111 s
17
1"Y
b00000001110 "Z
b00001010111 9
b000000000010000000 ;
1{
b0000001101 }
b000000000010000000 >
1"!
#126
0`
0""
0"(
0-
0M
0"0
0q
0r
07
0"Y
0{
0\
0^
0"!
#131
1""
1"(
b000000000000100000 G
b000000000010000000 "*
b00001101 "+
b00001010111 J
1M
b000000000000001101 N
1"0
b000000000010000000 P
b000000000010000000 "3
b0000001100 "6
b111111111011011001 X
1\
1^
b00001010111 "@
b00001010111 _
1`
b01101 !
b0000001110 b
b111111111011011001 c
b111111111111100000 "E
b000000000001000000 (
b000000000001000000 "K
b000000000001000000 "M
b000000000000001110 "N
1-
b00000001110 /
1q
1r
b00001010110 s
17
1"Y
b00000001111 "Z
b00001010110 9
b000000000001000000 ;
1{
b0000001110 }
b000000000001000000 >
1"!
#136
0`
0""
0"(
0-
0M
0"0
0q
0r
07
0"Y
0{
0\
0^
0"!
#141
1""
1"(
b000000000000010000 G
b000000000001000000 "*
b00001110 "+
b00001010110 J
1M
b000000000000001110 N
1"0
b000000000001000000 P
b000000000001000000 "3
b0000001101 "6
b111111111011000000 X
1\
1^
b00001010110 "@
b00001010110 _
1`
b01110 !
b0000001111 b
b111111111011000000 c
b111111111111110000 "E
b000000000000100000 (
b000000000000100000 "K
b000000000000100000 "M
b000000000000001111 "N
1-
b00000001111 /
1q
1r
b00001010101 s
17
1"Y
b00000010000 "Z
b00001010101 9
b000000000000100000 ;
1{
b0000001111 }
b000000000000100000 >
1"!
#146
0`
0""
0"(
0-
0M
0"0
0q
0r
07
0"Y
0{
0\
0^
0"!
#151
1""
1"(
b000000000000001000 G
b000000000000100000 "*
b00001111 "+
b00001010101 J
1M
b000000000000001111 N
1"0
b000000000000100000 P
b000000000000100000 "3
b0000001110 "6
b111111111010101001 X
1\
1^
b00001010101 "@
b00001010101 _
1`
b01111 !
b0000010000 b
b111111111010101001 c
b111111111111111000 "E
b000000000000010000 (
b000000000000010000 "K
b000000000000010000 "M
b000000000000010000 "N
1-
b00000010000 /
1q
1r
b00001010100 s
17
1"Y
b00000010001 "Z
b00001010100 9
b000000000000010000 ;
1{
b0000010000 }
b000000000000010000 >
1"!
#156
0`
0""
0"(
0-
0M
0"0
0q
0r
07
0"Y
0{
0\
0^
0"!
#161
1""
1"(
b000000000000000100 G
b000000000000010000 "*
b00010000 "+
b00001010100 J
1M
b000000000000010000 N
1"0
b000000000000010000 P
b000000000000010000 "3
b0000001111 "6
b111111111010010100 X
1\
1^
b00001010100 "@
b00001010100 _
1`
b10000 !
b0000010001 b
b111111111010010100 c
b111111111111111100 "E
b000000000000001000 (
b000000000000001000 "K
b000000000000001000 "M
b000000000000010001 "N
1-
b00000010001 /
1q
1r
b00001010011 s
17
1"Y
b00000010010 "Z
b00001010011 9
b000000000000001000 ;
1{
b0000010001 }
b000000000000001000 >
1"!
#166
0`
0""
0"(
0-
0M
0"0
0q
0r
07
0"Y
0{
0\
0^
0"!
#171
1""
1"(
b000000000000000010 G
b000000000000001000 "*
b00010001 "+
b00001010011 J
1M
b000000000000010001 N
1"0
b000000000000001000 P
b000000000000001000 "3
b0000010000 "6
b111111111010000001 X
1\
1^
b00001010011 "@
b00001010011 _
1`
b10001 !
b0000010010 b
b111111111010000001 c
b111111111111111110 "E
b000000000000000100 (
b000000000000000100 "K
b000000000000000100 "M
b000000000000010010 "N
1-
b00000010010 /
1q
1r
b00001010010 s
17
1"Y
b00000010011 "Z
b00001010010 9
b000000000000000100 ;
1{
b0000010010 }
b000000000000000100 >
1"!
#176
0`
0""
0"(
0-
0M
0"0
0q
0r
07
0"Y
0{
0\
0^
0"!
#181
1""
1"(
b000000000000000001 G
b000000000000000100 "*
b00010010 "+
b00001010010 J
1M
b000000000000010010 N
1"0
b000000000000000100 P
b000000000000000100 "3
b0000010001 "6
1"7
b111111111001110010 X
1\
1^
b00001010010 "@
b00001010010 _
1`
b10010 !
b0000010011 b
b111111111001110010 c
b111111111111111111 "E
b000000000000000010 (
b000000000000000010 "K
b000000000000000010 "M
b000000000000010011 "N
1-
b00000010011 /
1q
1r
b00001010001 s
17
1"Y
b00000010100 "Z
b00001010001 9
b000000000000000010 ;
1{
b0000010011 }
b000000000000000010 >
1"!
#186
0`
0""
0"(
0-
0M
0"0
0q
0r
07
0"Y
0{
0\
0^
0"!
#191
1""
1B
b000000000000000000 "$
1"(
b000000000000000010 "*
b00000000 "+
b00001010001 J
1M
b000000000000010011 N
1"0
b000000000000000000 "1
b000000000000000010 P
b000000000000000000 "2
b000000000000000010 "3
b0000010010 "6
0"7
b111111111001100101 X
1\
1^
b00001010001 "@
b00001010001 _
1`
b00000 !
b0000010100 b
b111111111001100101 c
b000000000000000001 (
b000000000000000001 "K
b000000000000000001 "M
b000000000000010100 "N
1-
b00000010100 /
b000000000000000000 0
1q
1r
b00001010000 s
17
1"Y
b00000010101 "Z
b00001010000 9
b000000000000000001 ;
1{
b0000010100 }
b000000000000000001 >
b000000000000000000 ~
1"!
#196
0`
0""
0"(
0-
0M
0"0
0q
0r
07
0"Y
0{
0\
0^
0"!
#201
1""
0B
1"(
b000000000000000001 "*
b00000001 "+
b00001010000 J
1M
b000000000000010100 N
1"0
b000000000000000001 P
b000000000000000001 "3
b0000010011 "6
b111111111001011101 X
1\
1^
b00001010000 "@
b00001010000 _
1`
b00001 !
b0000010101 b
b111111111001011101 c
b000000000000010101 "N
1-
b00000010101 /
1q
1r
b00001001111 s
17
1"Y
b00000010110 "Z
b00001001111 9
1{
b0000010101 }
1"!
#206
0`
0""
0"(
0-
0M
0"0
0q
0r
07
0"Y
0{
0\
0^
0"!
#211
1""
1"(
b00000010 "+
b00001001111 J
1M
b000000000000010101 N
1"0
b0000010100 "6
b111111111001011000 X
1\
1^
b00001001111 "@
b00001001111 _
1`
b00010 !
b0000010110 b
b111111111001011000 c
b000000000000010110 "N
1-
b00000010110 /
1q
1r
b00001001110 s
17
1"Y
b00000010111 "Z
b00001001110 9
1{
b0000010110 }
1"!
#216
0`
0""
0"(
0-
0M
0"0
0q
0r
07
0"Y
0{
0\
0^
0"!
#221
1""
1"(
b00000011 "+
b00001001110 J
1M
b000000000000010110 N
1"0
b0000010101 "6
1\
1^
b00001001110 "@
b00001001110 _
1`
b00011 !
b0000010111 b
b000000000000010111 "N
1-
b00000010111 /
1q
1r
b00001001101 s
17
1"Y
b00000011000 "Z
b00001001101 9
1{
b0000010111 }
1"!
#226
0`
0""
0"(
0-
0M
0"0
0q
0r
07
0"Y
0{
0\
0^
0"!
#231
1""
1"(
b00000100 "+
b00001001101 J
1M
b000000000000010111 N
1"0
b0000010110 "6
b111111111001011100 X
1\
1^
b00001001101 "@
b00001001101 _
1`
b00100 !
b0000011000 b
b111111111001011100 c
b000000000000011000 "N
1-
b00000011000 /
1q
1r
b00001001100 s
17
1"Y
b00000011001 "Z
b00001001100 9
1{
b0000011000 }
1"!
#236
0`
0""
0"(
0-
0M
0"0
0q
0r
07
0"Y
0{
0\
0^
0"!
#241
1""
1"(
b00000101 "+
b00001001100 J
1M
b000000000000011000 N
1"0
b0000010111 "6
b111111111001100101 X
1\
1^
b00001001100 "@
b00001001100 _
1`
b00101 !
b0000011001 b
b111111111001100101 c
b000000000000011001 "N
1-
b00000011001 /
1q
1r
b00001001011 s
17
1"Y
b00000011010 "Z
b00001001011 9
1{
b0000011001 }
1"!
#246
0`
0""
0"(
0-
0M
0"0
0q
0r
07
0"Y
0{
0\
0^
0"!
#251
1""
1"(
b00000110 "+
b00001001011 J
1M
b000000000000011001 N
1"0
b0000011000 "6
b111111111001110010 X
1\
1^
b00001001011 "@
b00001001011 _
1`
b00110 !
b0000011010 b
b111111111001110010 c
b000000000000011010 "N
1-
b00000011010 /
1q
1r
b00001001010 s
17
1"Y
b00000011011 "Z
b00001001010 9
1{
b0000011010 }
1"!
#256
0`
0""
0"(
0-
0M
0"0
0q
0r
07
0"Y
0{
0\
0^
0"!
#261
1""
1"(
b00000111 "+
b00001001010 J
1M
b000000000000011010 N
1"0
b0000011001 "6
b111111111010000011 X
1\
1^
b00001001010 "@
b00001001010 _
1`
b00111 !
b0000011011 b
b111111111010000011 c
b000000000000011011 "N
1-
b00000011011 /
1q
1r
b00001001001 s
17
1"Y
b00000011100 "Z
b00001001001 9
1{
b0000011011 }
1"!
#266
0`
0""
0"(
0-
0M
0"0
0q
0r
07
0"Y
0{
0\
0^
0"!
#271
1""
1"(
b00001000 "+
b00001001001 J
1M
b000000000000011011 N
1"0
b0000011010 "6
b111111111010011001 X
1\
1^
b00001001001 "@
b00001001001 _
1`
b01000 !
b0000011100 b
b111111111010011001 c
b000000000000011100 "N
1-
b00000011100 /
1q
1r
b00001001000 s
17
1"Y
b00000011101 "Z
b00001001000 9
1{
b0000011100 }
1"!
#276
0`
0""
0"(
0-
0M
0"0
0q
0r
07
0"Y
0{
0\
0^
0"!
#281
1""
1"(
b00001001 "+
b00001001000 J
1M
b000000000000011100 N
1"0
b0000011011 "6
b111111111010110010 X
1\
1^
b00001001000 "@
b00001001000 _
1`
b01001 !
b0000011101 b
b111111111010110010 c
b000000000000011101 "N
1-
b00000011101 /
1q
1r
b00001000111 s
17
1"Y
b00000011110 "Z
b00001000111 9
1{
b0000011101 }
1"!
#286
0`
0""
0"(
0-
0M
0"0
0q
0r
07
0"Y
0{
0\
0^
0"!
#291
1""
1"(
b00001010 "+
b00001000111 J
1M
b000000000000011101 N
1"0
b0000011100 "6
b111111111011001110 X
1\
1^
b00001000111 "@
b00001000111 _
1`
b01010 !
b0000011110 b
b111111111011001110 c
b000000000000011110 "N
1-
b00000011110 /
1q
1r
b00001000110 s
17
1"Y
b00000011111 "Z
b00001000110 9
1{
b0000011110 }
1"!
#296
0`
0""
0"(
0-
0M
0"0
0q
0r
07
0"Y
0{
0\
0^
0"!
#301
1""
1"(
b00001011 "+
b00001000110 J
1M
b000000000000011110 N
1"0
b0000011101 "6
b111111111011101110 X
1\
1^
b00001000110 "@
b00001000110 _
1`
b01011 !
b0000011111 b
b111111111011101110 c
b000000000000011111 "N
1-
b00000011111 /
1q
1r
b00001000101 s
17
1"Y
b00000100000 "Z
b00001000101 9
1{
b0000011111 }
1"!
#306
0`
0""
0"(
0-
0M
0"0
0q
0r
07
0"Y
0{
0\
0^
0"!
#311
1""
1"(
b00001100 "+
b00001000101 J
1M
b000000000000011111 N
1"0
b0000011110 "6
b111111111100010000 X
1\
1^
b00001000101 "@
b00001000101 _
1`
b01100 !
b0000100000 b
b111111111100010000 c
b000000000000100000 "N
1-
b00000100000 /
1q
1r
b00001000100 s
17
1"Y
b00000100001 "Z
b00001000100 9
1{
b0000100000 }
1"!
#316
0`
0""
0"(
0-
0M
0"0
0q
0r
07
0"Y
0{
0\
0^
0"!
#321
1""
1"(
b00001101 "+
b00001000100 J
1M
b000000000000100000 N
1"0
b0000011111 "6
b111111111100110100 X
1\
1^
b00001000100 "@
b00001000100 _
1`
b01101 !
b0000100001 b
b111111111100110100 c
b000000000000100001 "N
1-
b00000100001 /
1q
1r
b00001000011 s
17
1"Y
b00000100010 "Z
b00001000011 9
1{
b0000100001 }
1"!
#326
0`
0""
0"(
0-
0M
0"0
0q
0r
07
0"Y
0{
0\
0^
0"!
#331
1""
1"(
b00001110 "+
b00001000011 J
1M
b000000000000100001 N
1"0
b0000100000 "6
b111111111101011001 X
1\
1^
b00001000011 "@
b00001000011 _
1`
b01110 !
b0000100010 b
b111111111101011001 c
b000000000000100010 "N
1-
b00000100010 /
1q
1r
b00001000010 s
17
1"Y
b00000100011 "Z
b00001000010 9
1{
b0000100010 }
1"!
#336
0`
0""
0"(
0-
0M
0"0
0q
0r
07
0"Y
0{
0\
0^
0"!
