test_run_dir/test_should_pass/DSP.vcd
$date
2022-06-10T11:39+0000
$end
$version
0.2
$end
$comment

$end
$timescale 1ns  $end
$scope module DSP $end
 $var wire 1 O clock $end
 $var wire 1 Z io_Out $end
 $var wire 1 "& io_In $end
 $var wire 1 "+ reset $end
 $var wire 1 "? IOC $end
  $scope module IOC.Filter $end
  $upscope $end
  $scope module IOC.ADC $end
  $upscope $end
  $scope module IOC $end
   $var wire 16 . io_Out_ADC $end
   $var wire 1 3 reset $end
   $var wire 1 5 clock $end
   $var wire 1 9 lastSampleType $end
   $var wire 18 ; ADCReg $end
   $var wire 18 F DACReg $end
   $var wire 1 G sampleType $end
   $var wire 1 T io_In_ADC $end
   $var wire 1 Y cond $end
   $var wire 1 \ DAC $end
   $var wire 1 ^ Filter $end
   $var wire 1 } ADC $end
   $var wire 16 "$ io_In_DAC $end
   $var wire 1 "4 io_Out_DAC $end
    $scope module Filter $end
     $var wire 1 $ OutputSampleMemory_ReadOutputSample_MPORT_en_pipe_0 $end
     $var wire 11 - SampleCount $end
     $var wire 11 1 InputSamplePointer $end
     $var wire 18 2 io_WaveOut $end
     $var wire 7 6 maxcountwire $end
     $var wire 1 : InputSampleMemory_ReadInputSample_MPORT_en_pipe_0 $end
     $var wire 11 = InputSampleMemory_ReadInputSample_MPORT_addr_pipe_0 $end
     $var wire 11 ? OutputSampleMemory_ReadOutputSample_MPORT_addr_pipe_0 $end
     $var wire 11 B OutputSamplePointer $end
     $var wire 1 H io_SampleType $end
     $var wire 18 I CoeffWire $end
     $var wire 18 J OutputSampleMemory $end
     $var wire 18 K MAccReg $end
     $var wire 10 R CoeffMemory_CoeffWire_MPORT_addr_pipe_0 $end
     $var wire 36 _ Fircomputation36 $end
     $var wire 18 ` ReadInputSample $end
     $var wire 18 e Fircomputation18 $end
     $var wire 11 i SampleAdress $end
     $var wire 1 j clock $end
     $var wire 1 p io_Enable $end
     $var wire 18 v OutputReg $end
     $var wire 6 "* Halfcountwire $end
     $var wire 18 ", FIRInput $end
     $var wire 18 "2 CoeffMemory $end
     $var wire 1 "< CoeffMemory_CoeffWire_MPORT_en_pipe_0 $end
     $var wire 18 "> InputSampleMemory $end
     $var wire 18 "A ReadOutputSample $end
     $var wire 18 "B io_WaveIn $end
     $var wire 1 "E io_Completed $end
     $var wire 11 "F CoeffCount $end
      $scope module OutputSampleMemory $end
       $var wire 18 "! MPORT $end
       $var wire 18 ". MPORT_2 $end
       $var wire 18 "/ MPORT_1 $end
        $scope module MPORT $end
         $var wire 11 ! pipeline_addr_0 $end
         $var wire 18 / pipeline_data_0 $end
         $var wire 1 C en $end
         $var wire 1 Q pipeline_valid_0 $end
         $var wire 1 g valid $end
         $var wire 1 q clk $end
         $var wire 11 y addr $end
         $var wire 18 "% data $end
         $var wire 1 ": mask $end
        $upscope $end
        $scope module MPORT_1 $end
         $var wire 1 ' pipeline_valid_0 $end
         $var wire 11 M pipeline_addr_0 $end
         $var wire 1 ] en $end
         $var wire 18 c pipeline_data_0 $end
         $var wire 1 m valid $end
         $var wire 1 o clk $end
         $var wire 11 z addr $end
         $var wire 18 "3 data $end
         $var wire 1 "; mask $end
        $upscope $end
        $scope module MPORT_2 $end
         $var wire 18 ( data $end
         $var wire 1 + valid $end
         $var wire 18 4 pipeline_data_0 $end
         $var wire 11 7 addr $end
         $var wire 1 X mask $end
         $var wire 1 b clk $end
         $var wire 1 h en $end
         $var wire 11 "- pipeline_addr_0 $end
         $var wire 1 "C pipeline_valid_0 $end
        $upscope $end
        $scope module ReadOutputSample_MPORT $end
         $var wire 18 f data $end
         $var wire 1 t clk $end
         $var wire 1 "0 en $end
         $var wire 11 "1 addr $end
        $upscope $end
      $upscope $end
      $scope module InputSampleMemory $end
       $var wire 18 w MPORT_3 $end
       $var wire 18 x MPORT_4 $end
        $scope module MPORT_3 $end
         $var wire 18 % pipeline_data_0 $end
         $var wire 11 0 pipeline_addr_0 $end
         $var wire 1 A mask $end
         $var wire 1 P en $end
         $var wire 11 d addr $end
         $var wire 18 k data $end
         $var wire 1 n valid $end
         $var wire 1 "' clk $end
         $var wire 1 "= pipeline_valid_0 $end
        $upscope $end
        $scope module MPORT_4 $end
         $var wire 1 & valid $end
         $var wire 1 8 mask $end
         $var wire 18 E pipeline_data_0 $end
         $var wire 18 N data $end
         $var wire 1 V en $end
         $var wire 11 [ addr $end
         $var wire 1 { pipeline_valid_0 $end
         $var wire 1 "5 clk $end
         $var wire 11 "@ pipeline_addr_0 $end
        $upscope $end
        $scope module ReadInputSample_MPORT $end
         $var wire 1 ~ en $end
         $var wire 1 "" clk $end
         $var wire 11 "9 addr $end
         $var wire 18 "D data $end
        $upscope $end
      $upscope $end
      $scope module CoeffMemory $end
        $scope module CoeffWire_MPORT $end
         $var wire 18 S data $end
         $var wire 1 U en $end
         $var wire 10 l addr $end
         $var wire 1 s clk $end
        $upscope $end
      $upscope $end
    $upscope $end
    $scope module DAC $end
     $var wire 3 " cntReg $end
     $var wire 16 # io_InFIR $end
     $var wire 18 ) DDC $end
     $var wire 1 * reset $end
     $var wire 1 , clock $end
     $var wire 1 < tick $end
     $var wire 18 D ZReg $end
     $var wire 1 W io_OutPWM $end
     $var wire 16 a io_OutFIR $end
     $var wire 16 "# io_In $end
     $var wire 16 "7 Diff $end
     $var wire 16 "8 ZIn $end
    $upscope $end
    $scope module ADC $end
     $var wire 1 > io_In $end
     $var wire 18 @ io_OutFIR $end
     $var wire 1 L clock $end
     $var wire 18 r sample $end
     $var wire 18 u io_Out $end
     $var wire 3 | cntReg $end
     $var wire 18 "( outReg $end
     $var wire 1 ") reset $end
     $var wire 18 "6 io_InFIR $end
    $upscope $end
  $upscope $end
  $scope module IOC.DAC $end
  $upscope $end
$upscope $end
$enddefinitions $end
$dumpvars
b000000000000000000 @
03
b000000000000000000 D
b000000000000000000 E
05
b0000000000000000 #
b000000000000000000 I
09
b000000000000000000 F
0:
0<
b000000000000000000 J
0>
b000000000000000000 K
b000000000000000000 N
b0000000000000000 .
0C
b000000000000000000 S
0G
b00000000000 d
0H
0L
b00000000000 i
0O
b000000000000000000 `
0P
0Q
b00000000000 z
0T
b000000000000000000 e
0U
0V
b000000000000000000 c
18
0W
0Y
b000000000000000000 f
0Z
0\
b00000000000 y
0]
0^
b000000000000000000 k
b0000000000000000 "#
1A
0b
b000000000000000000 u
b000000000000000000 r
0g
b000000000000000000 x
0h
b00001100011 [
b000000000000000000 v
0j
b000000000000000000 w
0m
0n
0o
0p
0q
0s
b0000000000000000 "7
0t
b0000000000000000 "8
b00000000000 !
1X
1":
1";
0{
b000000000100110100 "2
0}
0~
b0000000000000000 "$
b00000000000 -
b00000000000 0
b0000000000 l
b00001100011 7
b00000000000 1
b00000000000 =
b00000000000 ?
b0000000000 R
0""
b00000000000 M
0"&
0"'
0")
0"+
b00000000000 B
0"0
b000000000000000000 "6
0"4
0"5
b000000000000000000 ">
0"<
0"=
b000000000000000000 "B
0"?
b000000000000000000 "A
0"C
b000000000000000000 "%
0"E
b000000000000000000 "(
b000000000000000000 "/
b000000000000000000 ".
b000000000000000000 ",
b000000000000000000 "3
b000 |
b000000000000000000 "D
b000000 "*
b0000000000000000 a
b00000000000 "F
b00000000000 "@
b00000000000 "1
b0000000 6
b00000000000 "9
b000 "
b000000000000000000 %
b000000000000000000000000000000000000 _
b000000000000000000 (
b000000000000000000 )
b00000000000 "-
b000000000000000000 "!
b000000000000000000 /
b000000000000000000 4
0$
b000000000000000000 2
0&
0'
0*
0+
0,
b000000000000000000 ;
$end
#0
1")
b110001 "*
b000000000100110100 I
1"+
1"4
b000000000100110100 S
b0000000000000001 "7
1V
b0000000000000001 "8
1W
1Y
1Z
1"E
b11111111111 d
b00000000001 "F
1&
b111111111111111111 )
1*
1p
13
b1100011 6
b11111111111 y
b11111111111 z
1<
#1
1""
1"'
b111111111111010111 I
b00001100011 "-
1L
b11111111111 M
1"0
1O
b0000000001 R
b111111111111010111 S
1"5
1U
0V
1"<
b00001100011 "@
b11111111111 !
1b
0"E
1$
b00000000010 "F
0&
b00000000001 i
1j
1,
b0000000001 l
b00000000001 -
1o
b11111111111 0
0p
1q
1s
1t
15
1:
1{
1~
#6
0""
0b
0"'
0")
0"+
0*
0j
0,
0L
0O
0o
0q
03
0s
0"5
0t
05
#11
1""
b000000000000000001 D
1"'
b111111111111010011 I
1L
1O
b00000000001 "1
b0000000010 R
b111111111111010011 S
1"5
b0000000000000010 "8
b00000000001 "9
b001 "
1b
b00000000011 "F
b00000000010 i
1j
1,
b0000000010 l
b00000000010 -
1o
1q
1s
1t
15
0{
0<
b001 |
b00000000001 =
b00000000001 ?
#16
0""
0b
1"&
0"'
0j
0,
0L
0O
0o
0q
0s
0"5
1T
0t
05
1>
#21
1""
b000000000000000010 D
1"'
b100000000000000000 "(
b111111111111001011 I
1L
1O
b00000000010 "1
b0000000011 R
b111111111111001011 S
1"5
b0000000000000011 "8
b00000000010 "9
b010 "
1b
b00000000100 "F
b00000000011 i
1j
1,
b0000000011 l
b00000000011 -
1o
1q
1s
1t
15
b010 |
b00000000010 =
b00000000010 ?
#26
0""
0b
0"&
0"'
0j
0,
0L
0O
0o
0q
0s
0"5
0T
0t
05
0>
#31
1""
b000000000000000011 D
1"'
b010000000000000000 "(
b111111111110111111 I
1L
1O
b00000000011 "1
b0000000100 R
b111111111110111111 S
1"5
b0000000000000100 "8
b00000000011 "9
b011 "
1b
b00000000101 "F
b00000000100 i
1j
1,
b0000000100 l
b00000000100 -
1o
1q
1s
1t
15
b011 |
b00000000011 =
b00000000011 ?
#36
0""
0b
1"&
0"'
0j
0,
0L
0O
0o
0q
0s
0"5
1T
0t
05
1>
#41
1""
b000000000000000100 D
1"'
b101000000000000000 "(
b111111111110110000 I
1L
1O
b00000000100 "1
b0000000101 R
b111111111110110000 S
1"5
b0000000000000101 "8
b00000000100 "9
b100 "
1b
b00000000110 "F
b00000000101 i
1j
1,
b0000000101 l
b00000000101 -
1o
1q
1s
1t
15
b100 |
b00000000100 =
b00000000100 ?
#46
0""
0b
0"&
0"'
0j
0,
0L
0O
0o
0q
0s
0"5
0T
0t
05
0>
#51
b011000000000000000 @
1""
b000000000000000101 D
1"'
b010100000000000000 "(
b111111111110011111 I
1L
1O
b00000000101 "1
b0000000110 R
b111111111110011111 S
1"5
b0000000000000110 "8
b00000000101 "9
b101 "
1b
b00000000111 "F
b00000000110 i
1j
1,
b0000000110 l
b00000000110 -
1o
1q
b011000000000000000 r
1s
1t
15
b000 |
b00000000101 =
b00000000101 ?
#56
0""
0b
0"'
0j
0,
0L
0O
0o
0q
0s
0"5
0t
05
#61
1""
b011000000000000000 "%
b000000000000000110 D
1"'
b001010000000000000 "(
b111111111110001010 I
1L
b011000000000000000 N
1O
b00000000110 "1
b011000000000000000 "3
b0000000111 R
b111111111110001010 S
1"5
b0000000000000111 "8
b00000000110 "9
b011000000000000000 "B
b000 "
1b
b00000001000 "F
b011000000000000000 (
b00000000111 i
1j
b011000000000000000 k
1,
b0000000111 l
b00000000111 -
1o
1q
1s
1t
15
b011000000000000000 ;
1<
b001 |
b00000000110 =
b00000000110 ?
#66
0""
0b
0"'
0j
0,
0L
0O
0o
0q
0s
0"5
0t
05
#71
1""
b000000000000000111 D
b011000000000000000 E
1"'
b000101000000000000 "(
b111111111101110100 I
1L
1O
b00000000111 "1
b0000001000 R
b111111111101110100 S
1"5
b0000000000001000 "8
b00000000111 "9
b001 "
1b
b011000000000000000 c
b00000001001 "F
b011000000000000000 %
b00000001000 i
1j
1,
b0000001000 l
b00000001000 -
b011000000000000000 /
1o
1q
1s
b011000000000000000 4
1t
15
0<
b010 |
b00000000111 =
b00000000111 ?
#76
0""
0b
1"&
0"'
0j
0,
0L
0O
0o
0q
0s
0"5
1T
0t
05
1>
#81
1""
b000000000000001000 D
1"'
b100010100000000000 "(
b111111111101011100 I
1L
1O
b00000001000 "1
b0000001001 R
b111111111101011100 S
1"5
b0000000000001001 "8
b00000001000 "9
b010 "
1b
b00000001010 "F
b00000001001 i
1j
1,
b0000001001 l
b00000001001 -
1o
1q
1s
1t
15
b011 |
b00000001000 =
b00000001000 ?
#86
0""
0b
0"'
0j
0,
0L
0O
0o
0q
0s
0"5
0t
05
#91
1""
b000000000000001001 D
1"'
b110001010000000000 "(
b111111111101000010 I
1L
1O
b00000001001 "1
b0000001010 R
b111111111101000010 S
1"5
b0000000000001010 "8
b00000001001 "9
b011 "
1b
b00000001011 "F
b00000001010 i
1j
1,
b0000001010 l
b00000001010 -
1o
1q
1s
1t
15
b100 |
b00000001001 =
b00000001001 ?
#96
0""
0b
0"&
0"'
0j
0,
0L
0O
0o
0q
0s
0"5
0T
0t
05
0>
#101
b001110110000000000 @
1""
b000000000000001010 D
1"'
b011000101000000000 "(
b111111111100101000 I
1L
1O
b00000001010 "1
b0000001011 R
b111111111100101000 S
1"5
b0000000000001011 "8
b00000001010 "9
b100 "
1b
b00000001100 "F
b00000001011 i
1j
1,
b0000001011 l
b00000001011 -
1o
1q
b001110110000000000 r
1s
1t
15
b000 |
b00000001010 =
b00000001010 ?
#106
0""
0b
0"'
0j
0,
0L
0O
0o
0q
0s
0"5
0t
05
#111
1""
b001110110000000000 "%
b000000000000001011 D
1"'
b001100010100000000 "(
b111111111100001101 I
1L
b001110110000000000 N
1O
b00000001011 "1
b001110110000000000 "3
b0000001100 R
b111111111100001101 S
1"5
b0000000000001100 "8
b00000001011 "9
b001110110000000000 "B
b101 "
1b
b00000001101 "F
b001110110000000000 (
b00000001100 i
1j
b001110110000000000 k
1,
b0000001100 l
b00000001100 -
1o
1q
1s
1t
15
b001110110000000000 ;
b001 |
b00000001011 =
b00000001011 ?
#116
0""
0b
0"'
0j
0,
0L
0O
0o
0q
0s
0"5
0t
05
#121
1""
b000000000000001100 D
b001110110000000000 E
1"'
b000110001010000000 "(
b111111111011110011 I
1L
1O
b00000001100 "1
b0000001101 R
b111111111011110011 S
1"5
b0000000000001101 "8
b00000001100 "9
b000 "
1b
b001110110000000000 c
b00000001110 "F
b001110110000000000 %
b00000001101 i
1j
1,
b0000001101 l
b00000001101 -
b001110110000000000 /
1o
1q
1s
b001110110000000000 4
1t
15
1<
b010 |
b00000001100 =
b00000001100 ?
#126
0""
0b
0"'
0j
0,
0L
0O
0o
0q
0s
0"5
0t
05
#131
1""
b000000000000001101 D
1"'
b000011000101000000 "(
b111111111011011001 I
1L
1O
b00000001101 "1
b0000001110 R
b111111111011011001 S
1"5
b0000000000001110 "8
b00000001101 "9
b001 "
1b
b00000001111 "F
b00000001110 i
1j
1,
b0000001110 l
b00000001110 -
1o
1q
1s
1t
15
0<
b011 |
b00000001101 =
b00000001101 ?
#136
0""
0b
0"'
0j
0,
0L
0O
0o
0q
0s
0"5
0t
05
#141
1""
b000000000000001110 D
1"'
b000001100010100000 "(
b111111111011000000 I
1L
1O
b00000001110 "1
b0000001111 R
b111111111011000000 S
1"5
b0000000000001111 "8
b00000001110 "9
b010 "
1b
b00000010000 "F
b00000001111 i
1j
1,
b0000001111 l
b00000001111 -
1o
1q
1s
1t
15
b100 |
b00000001110 =
b00000001110 ?
#146
0""
0b
1"&
0"'
0j
0,
0L
0O
0o
0q
0s
0"5
1T
0t
05
1>
#151
b111110011101100000 @
1""
b000000000000001111 D
1"'
b100000110001010000 "(
b111111111010101001 I
1L
1O
b00000001111 "1
b0000010000 R
b111111111010101001 S
1"5
b0000000000010000 "8
b00000001111 "9
b011 "
1b
b00000010001 "F
b00000010000 i
1j
1,
b0000010000 l
b00000010000 -
1o
1q
b111110011101100000 r
1s
1t
15
b000 |
b00000001111 =
b00000001111 ?
#156
0""
0b
0"'
0j
0,
0L
0O
0o
0q
0s
0"5
0t
05
#161
1""
b111110011101100000 "%
b000000000000010000 D
1"'
b110000011000101000 "(
b111111111010010100 I
1L
b111110011101100000 N
1O
b00000010000 "1
b111110011101100000 "3
b0000010001 R
b111111111010010100 S
1"5
b0000000000010001 "8
b00000010000 "9
b111110011101100000 "B
b100 "
1b
b00000010010 "F
b111110011101100000 (
b00000010001 i
1j
b111110011101100000 k
1,
b0000010001 l
b00000010001 -
1o
1q
1s
1t
15
b111110011101100000 ;
b001 |
b00000010000 =
b00000010000 ?
#166
0""
0b
0"'
0j
0,
0L
0O
0o
0q
0s
0"5
0t
05
#171
1""
b000000000000010001 D
b111110011101100000 E
1"'
b111000001100010100 "(
b111111111010000001 I
1L
1O
b00000010001 "1
b0000010010 R
b111111111010000001 S
1"5
b0000000000010010 "8
b00000010001 "9
b101 "
1b
b111110011101100000 c
b00000010011 "F
b111110011101100000 %
b00000010010 i
1j
1,
b0000010010 l
b00000010010 -
b111110011101100000 /
1o
1q
1s
b111110011101100000 4
1t
15
b010 |
b00000010001 =
b00000010001 ?
#176
0""
0b
0"&
0"'
0j
0,
0L
0O
0o
0q
0s
0"5
0T
0t
05
0>
#181
1""
b000000000000010010 D
1"'
b011100000110001010 "(
b111111111001110010 I
1L
1O
b00000010010 "1
b0000010011 R
b111111111001110010 S
1"5
b0000000000010011 "8
b00000010010 "9
b000 "
1b
b00000010100 "F
b00000010011 i
1j
1,
b0000010011 l
b00000010011 -
1o
1q
1s
1t
15
1<
b011 |
b00000010010 =
b00000010010 ?
#186
0""
0b
0"'
0j
0,
0L
0O
0o
0q
0s
0"5
0t
05
#191
1""
b000000000000010011 D
1"'
b001110000011000101 "(
b111111111001100101 I
1L
1O
b00000010011 "1
b0000010100 R
b111111111001100101 S
1"5
b0000000000010100 "8
b00000010011 "9
b001 "
1b
b00000010101 "F
b00000010100 i
1j
1,
b0000010100 l
b00000010100 -
1o
1q
1s
1t
15
0<
b100 |
b00000010011 =
b00000010011 ?
#196
0""
0b
0"'
0j
0,
0L
0O
0o
0q
0s
0"5
0t
05
#201
b110001111100111011 @
1""
b000000000000010100 D
1"'
b000111000001100010 "(
b111111111001011101 I
1L
1O
b00000010100 "1
b0000010101 R
b111111111001011101 S
1"5
b0000000000010101 "8
b00000010100 "9
b010 "
1b
b00000010110 "F
b00000010101 i
1j
1,
b0000010101 l
b00000010101 -
1o
1q
b110001111100111011 r
1s
1t
15
b000 |
b00000010100 =
b00000010100 ?
#206
0""
0b
0"'
0j
0,
0L
0O
0o
0q
0s
0"5
0t
05
#211
1""
b110001111100111011 "%
b000000000000010101 D
1"'
b000011100000110001 "(
b111111111001011000 I
1L
b110001111100111011 N
1O
b00000010101 "1
b110001111100111011 "3
b0000010110 R
b111111111001011000 S
1"5
b0000000000010110 "8
b00000010101 "9
b110001111100111011 "B
b011 "
1b
b00000010111 "F
b110001111100111011 (
b00000010110 i
1j
b110001111100111011 k
1,
b0000010110 l
b00000010110 -
1o
1q
1s
1t
15
b110001111100111011 ;
b001 |
b00000010101 =
b00000010101 ?
#216
0""
0b
0"'
0j
0,
0L
0O
0o
0q
0s
0"5
0t
05
#221
1""
b000000000000010110 D
b110001111100111011 E
1"'
b000001110000011000 "(
1L
1O
b00000010110 "1
b0000010111 R
1"5
b0000000000010111 "8
b00000010110 "9
b100 "
1b
b110001111100111011 c
b00000011000 "F
b110001111100111011 %
b00000010111 i
1j
1,
b0000010111 l
b00000010111 -
b110001111100111011 /
1o
1q
1s
b110001111100111011 4
1t
15
b010 |
b00000010110 =
b00000010110 ?
#226
0""
0b
0"'
0j
0,
0L
0O
0o
0q
0s
0"5
0t
05
#231
1""
b000000000000010111 D
1"'
b000000111000001100 "(
b111111111001011100 I
1L
1O
b00000010111 "1
b0000011000 R
b111111111001011100 S
1"5
b0000000000011000 "8
b00000010111 "9
b101 "
1b
b00000011001 "F
b00000011000 i
1j
1,
b0000011000 l
b00000011000 -
1o
1q
1s
1t
15
b011 |
b00000010111 =
b00000010111 ?
#236
0""
0b
1"&
0"'
0j
0,
0L
0O
0o
0q
0s
0"5
1T
0t
05
1>
#241
1""
b000000000000011000 D
1"'
b100000011100000110 "(
b111111111001100101 I
1L
1O
b00000011000 "1
b0000011001 R
b111111111001100101 S
1"5
b0000000000011001 "8
b00000011000 "9
b000 "
1b
b00000011010 "F
b00000011001 i
1j
1,
b0000011001 l
b00000011001 -
1o
1q
1s
1t
15
1<
b100 |
b00000011000 =
b00000011000 ?
#246
0""
0b
0"'
0j
0,
0L
0O
0o
0q
0s
0"5
0t
05
#251
b011111100011111010 @
1""
b000000000000011001 D
1"'
b110000001110000011 "(
b111111111001110010 I
1L
1O
b00000011001 "1
b0000011010 R
b111111111001110010 S
1"5
b0000000000011010 "8
b00000011001 "9
b001 "
1b
b00000011011 "F
b00000011010 i
1j
1,
b0000011010 l
b00000011010 -
1o
1q
b011111100011111010 r
1s
1t
15
0<
b000 |
b00000011001 =
b00000011001 ?
#256
0""
0b
0"'
0j
0,
0L
0O
0o
0q
0s
0"5
0t
05
#261
1""
b011111100011111010 "%
b000000000000011010 D
1"'
b111000000111000001 "(
b111111111010000011 I
1L
b011111100011111010 N
1O
b00000011010 "1
b011111100011111010 "3
b0000011011 R
b111111111010000011 S
1"5
b0000000000011011 "8
b00000011010 "9
b011111100011111010 "B
b010 "
1b
b00000011100 "F
b011111100011111010 (
b00000011011 i
1j
b011111100011111010 k
1,
b0000011011 l
b00000011011 -
1o
1q
1s
1t
15
b011111100011111010 ;
b001 |
b00000011010 =
b00000011010 ?
#266
0""
0b
0"'
0j
0,
0L
0O
0o
0q
0s
0"5
0t
05
#271
1""
b000000000000011011 D
b011111100011111010 E
1"'
b111100000011100000 "(
b111111111010011001 I
1L
1O
b00000011011 "1
b0000011100 R
b111111111010011001 S
1"5
b0000000000011100 "8
b00000011011 "9
b011 "
1b
b011111100011111010 c
b00000011101 "F
b011111100011111010 %
b00000011100 i
1j
1,
b0000011100 l
b00000011100 -
b011111100011111010 /
1o
1q
1s
b011111100011111010 4
1t
15
b010 |
b00000011011 =
b00000011011 ?
#276
0""
0b
0"'
0j
0,
0L
0O
0o
0q
0s
0"5
0t
05
#281
1""
b000000000000011100 D
1"'
b111110000001110000 "(
b111111111010110010 I
1L
1O
b00000011100 "1
b0000011101 R
b111111111010110010 S
1"5
b0000000000011101 "8
b00000011100 "9
b100 "
1b
b00000011110 "F
b00000011101 i
1j
1,
b0000011101 l
b00000011101 -
1o
1q
1s
1t
15
b011 |
b00000011100 =
b00000011100 ?
#286
0""
0b
0"&
0"'
0j
0,
0L
0O
0o
0q
0s
0"5
0T
0t
05
0>
#291
1""
b000000000000011101 D
1"'
b011111000000111000 "(
b111111111011001110 I
1L
1O
b00000011101 "1
b0000011110 R
b111111111011001110 S
1"5
b0000000000011110 "8
b00000011101 "9
b101 "
1b
b00000011111 "F
b00000011110 i
1j
1,
b0000011110 l
b00000011110 -
1o
1q
1s
1t
15
b100 |
b00000011101 =
b00000011101 ?
#296
0""
0b
1"&
0"'
0j
0,
0L
0O
0o
0q
0s
0"5
1T
0t
05
1>
#301
b100000111111001000 @
1""
b000000000000011110 D
1"'
b101111100000011100 "(
b111111111011101110 I
1L
1O
b00000011110 "1
b0000011111 R
b111111111011101110 S
1"5
b0000000000011111 "8
b00000011110 "9
b000 "
1b
b00000100000 "F
b00000011111 i
1j
1,
b0000011111 l
b00000011111 -
1o
1q
b100000111111001000 r
1s
1t
15
1<
b000 |
b00000011110 =
b00000011110 ?
#306
0""
0b
0"&
0"'
0j
0,
0L
0O
0o
0q
0s
0"5
0T
0t
05
0>
#311
1""
b100000111111001000 "%
b000000000000011111 D
1"'
b010111110000001110 "(
b111111111100010000 I
1L
b100000111111001000 N
1O
b00000011111 "1
b100000111111001000 "3
b0000100000 R
b111111111100010000 S
1"5
b0000000000100000 "8
b00000011111 "9
b100000111111001000 "B
b001 "
1b
b00000100001 "F
b100000111111001000 (
b00000100000 i
1j
b100000111111001000 k
1,
b0000100000 l
b00000100000 -
1o
1q
1s
1t
15
b100000111111001000 ;
0<
b001 |
b00000011111 =
b00000011111 ?
#316
0""
0b
1"&
0"'
0j
0,
0L
0O
0o
0q
0s
0"5
1T
0t
05
1>
#321
1""
b000000000000100000 D
b100000111111001000 E
1"'
b101011111000000111 "(
b111111111100110100 I
1L
1O
b00000100000 "1
b0000100001 R
b111111111100110100 S
1"5
b0000000000100001 "8
b00000100000 "9
b010 "
1b
b100000111111001000 c
b00000100010 "F
b100000111111001000 %
b00000100001 i
1j
1,
b0000100001 l
b00000100001 -
b100000111111001000 /
1o
1q
1s
b100000111111001000 4
1t
15
b010 |
b00000100000 =
b00000100000 ?
#326
0""
0b
0"&
0"'
0j
0,
0L
0O
0o
0q
0s
0"5
0T
0t
05
0>
#331
1""
b000000000000100001 D
1"'
b010101111100000011 "(
b111111111101011001 I
1L
1O
b00000100001 "1
b0000100010 R
b111111111101011001 S
1"5
b0000000000100010 "8
b00000100001 "9
b011 "
1b
b00000100011 "F
b00000100010 i
1j
1,
b0000100010 l
b00000100010 -
1o
1q
1s
1t
15
b011 |
b00000100001 =
b00000100001 ?
#336
0""
0b
0"'
0j
0,
0L
0O
0o
0q
0s
0"5
0t
05
#341
1""
b000000000000100010 D
1"'
b001010111110000001 "(
b111111111101111111 I
1L
1O
b00000100010 "1
b0000100011 R
b111111111101111111 S
1"5
b0000000000100011 "8
b00000100010 "9
b100 "
1b
b00000100100 "F
b00000100011 i
1j
1,
b0000100011 l
b00000100011 -
1o
1q
1s
1t
15
b100 |
b00000100010 =
b00000100010 ?
#346
0""
0b
0"'
0j
0,
0L
0O
0o
0q
0s
0"5
0t
05
#351
b110101000001111111 @
1""
b000000000000100011 D
1"'
b000101011111000000 "(
b111111111110100101 I
1L
1O
b00000100011 "1
b0000100100 R
b111111111110100101 S
1"5
b0000000000100100 "8
b00000100011 "9
b101 "
1b
b00000100101 "F
b00000100100 i
1j
1,
b0000100100 l
b00000100100 -
1o
1q
b110101000001111111 r
1s
1t
15
b000 |
b00000100011 =
b00000100011 ?
#356
0""
0b
0"'
0j
0,
0L
0O
0o
0q
0s
0"5
0t
05
#361
1""
b110101000001111111 "%
b000000000000100100 D
1"'
b000010101111100000 "(
b111111111111001010 I
1L
b110101000001111111 N
1O
b00000100100 "1
b110101000001111111 "3
b0000100101 R
b111111111111001010 S
1"5
b0000000000100101 "8
b00000100100 "9
b110101000001111111 "B
b000 "
1b
b00000100110 "F
b110101000001111111 (
b00000100101 i
1j
b110101000001111111 k
1,
b0000100101 l
b00000100101 -
1o
1q
1s
1t
15
b110101000001111111 ;
1<
b001 |
b00000100100 =
b00000100100 ?
#366
0""
0b
0"'
0j
0,
0L
0O
0o
0q
0s
0"5
0t
05
#371
1""
b000000000000100101 D
b110101000001111111 E
1"'
b000001010111110000 "(
b111111111111101110 I
1L
1O
b00000100101 "1
b0000100110 R
b111111111111101110 S
1"5
b0000000000100110 "8
b00000100101 "9
b001 "
1b
b110101000001111111 c
b00000100111 "F
b110101000001111111 %
b00000100110 i
1j
1,
b0000100110 l
b00000100110 -
b110101000001111111 /
1o
1q
1s
b110101000001111111 4
1t
15
0<
b010 |
b00000100101 =
b00000100101 ?
#376
0""
0b
0"'
0j
0,
0L
0O
0o
0q
0s
0"5
0t
05
#381
1""
b000000000000100110 D
1"'
b000000101011111000 "(
b000000000000010000 I
1L
1O
b00000100110 "1
b0000100111 R
b000000000000010000 S
1"5
b0000000000100111 "8
b00000100110 "9
b010 "
1b
b00000101000 "F
b00000100111 i
1j
1,
b0000100111 l
b00000100111 -
1o
1q
1s
1t
15
b011 |
b00000100110 =
b00000100110 ?
#386
0""
0b
0"'
0j
0,
0L
0O
0o
0q
0s
0"5
0t
05
#391
1""
b000000000000100111 D
1"'
b000000010101111100 "(
b000000000000110000 I
1L
1O
b00000100111 "1
b0000101000 R
b000000000000110000 S
1"5
b0000000000101000 "8
b00000100111 "9
b011 "
1b
b00000101001 "F
b00000101000 i
1j
1,
b0000101000 l
b00000101000 -
1o
1q
1s
1t
15
b100 |
b00000100111 =
b00000100111 ?
#396
0""
0b
0"'
0j
0,
0L
0O
0o
0q
0s
0"5
0t
05
#401
b111111101010000100 @
1""
b000000000000101000 D
1"'
b000000001010111110 "(
b000000000001001101 I
1L
1O
b00000101000 "1
b0000101001 R
b000000000001001101 S
1"5
b0000000000101001 "8
b00000101000 "9
b100 "
1b
b00000101010 "F
b00000101001 i
1j
1,
b0000101001 l
b00000101001 -
1o
1q
b111111101010000100 r
1s
1t
15
b000 |
b00000101000 =
b00000101000 ?
#406
0""
0b
0"'
0j
0,
0L
0O
0o
0q
0s
0"5
0t
05
#411
1""
b111111101010000100 "%
b000000000000101001 D
1"'
b000000000101011111 "(
b000000000001100110 I
1L
b111111101010000100 N
1O
b00000101001 "1
b111111101010000100 "3
b0000101010 R
b000000000001100110 S
1"5
b0000000000101010 "8
b00000101001 "9
b111111101010000100 "B
b101 "
1b
b00000101011 "F
b111111101010000100 (
b00000101010 i
1j
b111111101010000100 k
1,
b0000101010 l
b00000101010 -
1o
1q
1s
1t
15
b111111101010000100 ;
b001 |
b00000101001 =
b00000101001 ?
#416
0""
0b
0"'
0j
0,
0L
0O
0o
0q
0s
0"5
0t
05
#421
1""
b000000000000101010 D
b111111101010000100 E
1"'
b000000000010101111 "(
b000000000001111011 I
1L
1O
b00000101010 "1
b0000101011 R
b000000000001111011 S
1"5
b0000000000101011 "8
b00000101010 "9
b000 "
1b
b111111101010000100 c
b00000101100 "F
b111111101010000100 %
b00000101011 i
1j
1,
b0000101011 l
b00000101011 -
b111111101010000100 /
1o
1q
1s
b111111101010000100 4
1t
15
1<
b010 |
b00000101010 =
b00000101010 ?
#426
0""
0b
0"'
0j
0,
0L
0O
0o
0q
0s
0"5
0t
05
