test_run_dir/test_should_pass/DSP.vcd
$date
2022-06-16T10:23+0000
$end
$version
0.2
$end
$comment

$end
$timescale 1ns  $end
$scope module DSP $end
 $var wire 1 a clock $end
 $var wire 1 k io_Out $end
 $var wire 1 "6 io_In $end
 $var wire 1 "= reset $end
 $var wire 1 "T IOC $end
  $scope module IOC.Filter $end
  $upscope $end
  $scope module IOC.ADC $end
  $upscope $end
  $scope module IOC $end
   $var wire 18 $ DACHold $end
   $var wire 18 1 io_Out_ADC $end
   $var wire 1 5 reset $end
   $var wire 1 8 clock $end
   $var wire 1 = lastSampleType $end
   $var wire 18 ? ADCReg $end
   $var wire 18 R DACReg $end
   $var wire 1 S check2 $end
   $var wire 1 U check1 $end
   $var wire 1 V sampleType $end
   $var wire 1 ^ beginSample $end
   $var wire 1 f io_In_ADC $end
   $var wire 1 g DACEn $end
   $var wire 1 m DAC $end
   $var wire 1 n Filter $end
   $var wire 1 z isLoading $end
   $var wire 1 "- ADC $end
   $var wire 18 ". ADCHold $end
   $var wire 18 "3 io_In_DAC $end
   $var wire 10 "7 cntReg $end
   $var wire 1 "I ADCEn $end
   $var wire 1 "J io_Out_DAC $end
    $scope module DAC $end
     $var wire 5 ! cntReg $end
     $var wire 18 " io_InFIR $end
     $var wire 18 * DDC $end
     $var wire 1 + reset $end
     $var wire 1 - clock $end
     $var wire 7 . cntReg2 $end
     $var wire 1 C tick $end
     $var wire 18 O ZReg $end
     $var wire 1 i io_OutPWM $end
     $var wire 18 q io_OutFIR $end
     $var wire 18 "2 io_In $end
     $var wire 18 "M Diff $end
     $var wire 18 "O ZIn $end
    $upscope $end
    $scope module Filter $end
     $var wire 1 # OutputSampleMemory_ReadOutputSample_MPORT_en_pipe_0 $end
     $var wire 11 0 SampleCount $end
     $var wire 11 2 InputSamplePointer $end
     $var wire 18 4 io_WaveOut $end
     $var wire 7 9 maxcountwire $end
     $var wire 1 > InputSampleMemory_ReadInputSample_MPORT_en_pipe_0 $end
     $var wire 1 A io_ADCEnable $end
     $var wire 11 D InputSampleMemory_ReadInputSample_MPORT_addr_pipe_0 $end
     $var wire 11 G OutputSampleMemory_ReadOutputSample_MPORT_addr_pipe_0 $end
     $var wire 11 K OutputSamplePointer $end
     $var wire 1 W io_SampleType $end
     $var wire 18 Y CoeffWire $end
     $var wire 18 Z OutputSampleMemory $end
     $var wire 36 \ MAccReg $end
     $var wire 11 b SampleAddress $end
     $var wire 10 c CoeffMemory_CoeffWire_MPORT_addr_pipe_0 $end
     $var wire 36 o Fircomputation36 $end
     $var wire 18 p ReadInputSample $end
     $var wire 1 | clock $end
     $var wire 18 "& OutputReg $end
     $var wire 1 "* io_DACEnable $end
     $var wire 6 "< Halfcountwire $end
     $var wire 18 "> FIRInput $end
     $var wire 18 "@ io_DACWaveIn $end
     $var wire 18 "H CoeffMemory $end
     $var wire 18 "L io_ADCWaveIn $end
     $var wire 1 "Q CoeffMemory_CoeffWire_MPORT_en_pipe_0 $end
     $var wire 18 "S InputSampleMemory $end
     $var wire 18 "V ReadOutputSample $end
     $var wire 1 "Y io_Completed $end
     $var wire 11 "[ CoeffCount $end
      $scope module OutputSampleMemory $end
       $var wire 18 "B MPORT_4 $end
       $var wire 18 "C MPORT_2 $end
       $var wire 18 "D MPORT_3 $end
        $scope module MPORT_3 $end
         $var wire 11 % pipeline_addr_0 $end
         $var wire 18 @ data $end
         $var wire 1 I pipeline_valid_0 $end
         $var wire 11 L addr $end
         $var wire 18 X pipeline_data_0 $end
         $var wire 1 _ clk $end
         $var wire 1 v mask $end
         $var wire 1 "$ valid $end
         $var wire 1 "R en $end
        $upscope $end
        $scope module MPORT_2 $end
         $var wire 18 ' data $end
         $var wire 1 , valid $end
         $var wire 18 7 pipeline_data_0 $end
         $var wire 11 : addr $end
         $var wire 1 j mask $end
         $var wire 1 r clk $end
         $var wire 1 { en $end
         $var wire 11 "A pipeline_addr_0 $end
         $var wire 1 "W pipeline_valid_0 $end
        $upscope $end
        $scope module MPORT_4 $end
         $var wire 1 B valid $end
         $var wire 1 J mask $end
         $var wire 1 M pipeline_valid_0 $end
         $var wire 1 N clk $end
         $var wire 11 ` pipeline_addr_0 $end
         $var wire 11 t addr $end
         $var wire 18 u pipeline_data_0 $end
         $var wire 18 } data $end
         $var wire 1 "9 en $end
        $upscope $end
        $scope module ReadOutputSample_MPORT $end
         $var wire 18 x data $end
         $var wire 1 "# clk $end
         $var wire 1 "E en $end
         $var wire 11 "G addr $end
        $upscope $end
      $upscope $end
      $scope module InputSampleMemory $end
       $var wire 18 e MPORT $end
       $var wire 18 "' MPORT_1 $end
       $var wire 18 "( MPORT_5 $end
        $scope module MPORT $end
         $var wire 1 & pipeline_valid_0 $end
         $var wire 1 ) mask $end
         $var wire 18 < data $end
         $var wire 1 [ valid $end
         $var wire 1 l en $end
         $var wire 1 ") clk $end
         $var wire 18 "4 pipeline_data_0 $end
         $var wire 11 "5 pipeline_addr_0 $end
         $var wire 11 ": addr $end
        $upscope $end
        $scope module MPORT_1 $end
         $var wire 18 ( data $end
         $var wire 1 3 pipeline_valid_0 $end
         $var wire 1 6 valid $end
         $var wire 11 ; addr $end
         $var wire 1 F mask $end
         $var wire 18 Q pipeline_data_0 $end
         $var wire 1 s clk $end
         $var wire 1 "/ en $end
         $var wire 11 "U pipeline_addr_0 $end
        $upscope $end
        $scope module MPORT_5 $end
         $var wire 11 / addr $end
         $var wire 1 P pipeline_valid_0 $end
         $var wire 1 T en $end
         $var wire 1 w valid $end
         $var wire 11 y pipeline_addr_0 $end
         $var wire 18 "+ pipeline_data_0 $end
         $var wire 1 "? mask $end
         $var wire 18 "N data $end
         $var wire 1 "Z clk $end
        $upscope $end
        $scope module ReadInputSample_MPORT $end
         $var wire 1 "0 en $end
         $var wire 1 "1 clk $end
         $var wire 11 "P addr $end
         $var wire 18 "X data $end
        $upscope $end
      $upscope $end
      $scope module CoeffMemory $end
        $scope module CoeffWire_MPORT $end
         $var wire 18 d data $end
         $var wire 1 h en $end
         $var wire 10 ~ addr $end
         $var wire 1 "" clk $end
        $upscope $end
      $upscope $end
    $upscope $end
    $scope module ADC $end
     $var wire 1 E io_In $end
     $var wire 18 H io_OutFIR $end
     $var wire 1 ] clock $end
     $var wire 18 "! sample $end
     $var wire 18 "% io_Out $end
     $var wire 8 ", cntReg $end
     $var wire 1 "8 tick $end
     $var wire 1 "; reset $end
     $var wire 18 "F inReg $end
     $var wire 18 "K io_InFIR $end
    $upscope $end
  $upscope $end
  $scope module IOC.DAC $end
  $upscope $end
$upscope $end
$enddefinitions $end
$dumpvars
b000000000000000000 @
b000000000000000000 ?
03
b00000000000 `
05
06
b000000000000000000 H
08
0=
0>
b000000000000000000 Q
0A
0B
b000000000000000000 O
0C
0E
b000000000000000000 R
b000000000000000000 X
1)
b000000000000000000 Y
0I
b0000000000 "7
b00000000000 b
0M
b000000000000000000 Z
0N
0P
b000000000100110100 "H
0S
b000000000000000000 d
0T
b000000000000000000 e
0U
0V
0W
b00000000000 t
0[
b00000000000 y
0]
0^
0_
b000000000000000000 p
b000000000000000000 q
0a
b000000000000000000 u
1F
0f
0g
b000000000000000000 x
0h
1J
0i
b0000000000 ~
0k
0l
b000000000000000000 }
0m
0n
0r
0s
0w
b00001100011 L
0z
0{
b00000000 ",
0|
1"?
b00000000000 0
b00000000000 /
b00001100011 ;
b00000000000 %
1j
b0000000000 c
b00000000000 :
1v
b00000000000 2
0""
0"#
0"$
b00000000000 K
0")
b00000000000 D
0"*
0"-
0"/
0"0
b00000000000 G
0"1
b000000000000000000 "4
0"6
0"8
0"9
b000000000000000000 ">
0";
0"=
b000000000000000000 "C
b000000000000000000 "B
b00000 !
b000000000000000000 "@
b000000000000000000 "'
b000000000000000000 "&
b000000000000000000 "%
0"E
b000000000000000000 "+
b000000000000000000 "(
0"I
0"J
b000000000000000000 ".
b000000000000000000 "3
b000000000000000000 "2
0"Q
0"R
b000000 "<
b000000000000000000 "V
0"T
0"W
b000000000000000000 "X
0"Y
0"Z
b000000000000000000 "F
b00000000000 "U
b000000000000000000 "D
b000000000000000000 "K
b00000000000 "P
b000000000000000000 "O
b000000000000000000 "N
b000000000000000000 "M
b000000000000000000 "L
b000000000000000000 "S
b00000000000 "[
b00000000000 "G
b00000000000 "A
b00000000000 "5
b000000000000000000000000000000000000 \
b00000000000 ":
b0000000 9
b000000000000000000 $
b0000000 .
b000000000000000000 "
b000000000000000000 (
b000000000000000000 '
b000000000000000000 *
b000000000000000000 "!
b000000000000000000 1
0#
b000000000000000000 4
0&
b000000000000000000000000000000000000 o
b000000000000000000 7
0+
b000000000000000000 <
0,
0-
$end
#0
1C
b000000000100110100 d
1"J
1i
b111111111111111111 *
1+
1k
b000000000000000001 "M
b000000000000000001 "O
b11111111111 /
1T
b11111111111 t
15
1w
1"Y
b11111111111 ":
b1100011 9
b000000000100110100 Y
1";
b00000000001 "[
b11111111111 :
b110001 "<
1"=
#1
1#
b00001100011 %
1-
b00000000001 0
b000000000000010000 1
18
1>
b000000000000010000 "!
1""
1"#
1"$
b000000000000010000 "%
1")
1"*
1N
1"0
1"1
1P
b000000000000010000 "2
b000000000000010000 "3
b11111111111 "5
0T
1V
1W
b111111111111010111 Y
1]
1_
b11111111111 "A
b11111111111 `
1a
b00000000001 b
b0000000001 c
1"E
b111111111111010111 d
1g
1h
1"Q
1"R
b000000000000010000 q
1r
1s
b00001100011 "U
0w
0"Y
1"Z
b11111111111 y
b00000000010 "[
1|
b0000000001 ~
#6
0""
0a
0"#
0")
0+
0-
0N
0"1
0r
0s
05
08
0"Z
0";
0"=
0|
0]
0_
#11
b000000000000010000 @
1""
1"#
0"$
b00000000001 D
b00000000001 G
1")
1I
b00000001 ",
b00001100011 K
1N
b000000000000000001 O
1"1
0P
b000000000000010000 R
b111111111111010011 Y
1]
b000000000000010000 "@
1_
1a
b0000000010 c
b111111111111010011 d
b00000000001 "G
b000000000000010000 '
1,
1-
b000000000000000010 "O
b0000001 .
b00000000001 "P
b00000000010 0
0"R
1r
1s
b00001100010 t
18
1"Z
b00000000011 "[
b00001100010 :
1z
1{
1|
b000000000000010000 }
b0000000010 ~
#16
0""
0a
0"#
1E
1f
0")
0-
0N
0"1
0r
0s
1"6
08
0"Z
0|
0]
0_
#21
1""
1"#
1")
b100000000000000000 H
0I
b00000010 ",
b00001100010 K
1N
b000000000000000010 O
1"1
b0000000001 "7
b000000000000010000 X
b111111111111001011 Y
1]
1_
b00001100010 "A
b00001100010 `
1a
b0000000011 c
b111111111111001011 d
b100000000000000000 "F
1-
b000000000000000011 "O
b0000010 .
b00000000011 0
1r
1s
b00001100001 t
b000000000000010000 u
1"W
b000000000000010000 7
18
1"Z
b00000000100 "[
b00001100001 :
1|
b0000000011 ~
#26
0""
0a
0"#
0")
0-
0N
0"1
0r
0s
08
0"Z
0|
0]
0_
#31
1""
1"#
1")
b010000000000000000 H
b00000011 ",
b00001100001 K
1N
b000000000000000011 O
1"1
b0000000010 "7
b111111111110111111 Y
1]
1_
b00001100001 "A
b00001100001 `
1a
b0000000100 c
b111111111110111111 d
b110000000000000000 "F
b100000000000000000 (
b100000000000000000 "L
b100000000000000000 "N
1-
b000000000000000100 "O
b0000011 .
b00000000100 0
1r
1s
b00001100000 t
18
1"Z
b00000000101 "[
b00001100000 :
b100000000000000000 <
1|
b0000000100 ~
b100000000000000000 ?
#36
0""
0a
0"#
0")
0-
0N
0"1
0r
0s
08
0"Z
0|
0]
0_
#41
1""
1"#
1")
b001000000000000000 H
b100000000000000000 "+
b00000100 ",
b00001100000 K
1N
b000000000000000100 O
1"1
b100000000000000000 Q
b100000000000000000 "4
b0000000011 "7
b111111111110110000 Y
1]
1_
b00001100000 "A
b00001100000 `
1a
b0000000101 c
b111111111110110000 d
b111000000000000000 "F
b010000000000000000 (
b010000000000000000 "L
b010000000000000000 "N
1-
b000000000000000101 "O
b0000100 .
b00000000101 0
1r
1s
b00001011111 t
18
1"Z
b00000000110 "[
b00001011111 :
b010000000000000000 <
1|
b0000000101 ~
b010000000000000000 ?
#46
0""
0a
0"#
0")
0-
0N
0"1
0r
0s
08
0"Z
0|
0]
0_
#51
1""
1"#
1")
b000100000000000000 H
b010000000000000000 "+
b00000101 ",
b00001011111 K
1N
b000000000000000101 O
1"1
b010000000000000000 Q
b010000000000000000 "4
b0000000100 "7
b111111111110011111 Y
1]
1_
b00001011111 "A
b00001011111 `
1a
b0000000110 c
b111111111110011111 d
b111100000000000000 "F
b001000000000000000 (
b001000000000000000 "L
b001000000000000000 "N
1-
b000000000000000110 "O
b0000101 .
b00000000110 0
1r
1s
b00001011110 t
18
1"Z
b00000000111 "[
b00001011110 :
b001000000000000000 <
1|
b0000000110 ~
b001000000000000000 ?
#56
0""
0a
0"#
0")
0-
0N
0"1
0r
0s
08
0"Z
0|
0]
0_
#61
1""
1"#
1")
b000010000000000000 H
b001000000000000000 "+
b00000110 ",
b00001011110 K
1N
b000000000000000110 O
1"1
b001000000000000000 Q
b001000000000000000 "4
b0000000101 "7
b111111111110001010 Y
1]
1_
b00001011110 "A
b00001011110 `
1a
b0000000111 c
b111111111110001010 d
b111110000000000000 "F
b000100000000000000 (
b000100000000000000 "L
b000100000000000000 "N
1-
b000000000000000111 "O
b0000110 .
b00000000111 0
1r
1s
b00001011101 t
18
1"Z
b00000001000 "[
b00001011101 :
b000100000000000000 <
1|
b0000000111 ~
b000100000000000000 ?
#66
0""
0a
0"#
0")
0-
0N
0"1
0r
0s
08
0"Z
0|
0]
0_
#71
1""
1"#
1")
b000001000000000000 H
b000100000000000000 "+
b00000111 ",
b00001011101 K
1N
b000000000000000111 O
1"1
b000100000000000000 Q
b000100000000000000 "4
b0000000110 "7
b111111111101110100 Y
1]
1_
b00001011101 "A
b00001011101 `
1a
b0000001000 c
b111111111101110100 d
b111111000000000000 "F
b000010000000000000 (
b000010000000000000 "L
b000010000000000000 "N
1-
b000000000000001000 "O
b0000111 .
b00000001000 0
1r
1s
b00001011100 t
18
1"Z
b00000001001 "[
b00001011100 :
b000010000000000000 <
1|
b0000001000 ~
b000010000000000000 ?
#76
0""
0a
0"#
0")
0-
0N
0"1
0r
0s
08
0"Z
0|
0]
0_
#81
1""
1"#
1")
b000000100000000000 H
b000010000000000000 "+
b00001000 ",
b00001011100 K
1N
b000000000000001000 O
1"1
b000010000000000000 Q
b000010000000000000 "4
b0000000111 "7
b111111111101011100 Y
1]
1_
b00001011100 "A
b00001011100 `
1a
b0000001001 c
b111111111101011100 d
b111111100000000000 "F
b000001000000000000 (
b000001000000000000 "L
b000001000000000000 "N
1-
b000000000000001001 "O
b0001000 .
b00000001001 0
1r
1s
b00001011011 t
18
1"Z
b00000001010 "[
b00001011011 :
b000001000000000000 <
1|
b0000001001 ~
b000001000000000000 ?
#86
0""
0a
0"#
0")
0-
0N
0"1
0r
0s
08
0"Z
0|
0]
0_
#91
1""
1"#
1")
b000000010000000000 H
b000001000000000000 "+
b00001001 ",
b00001011011 K
1N
b000000000000001001 O
1"1
b000001000000000000 Q
b000001000000000000 "4
b0000001000 "7
b111111111101000010 Y
1]
1_
b00001011011 "A
b00001011011 `
1a
b0000001010 c
b111111111101000010 d
b111111110000000000 "F
b000000100000000000 (
b000000100000000000 "L
b000000100000000000 "N
1-
b000000000000001010 "O
b0001001 .
b00000001010 0
1r
1s
b00001011010 t
18
1"Z
b00000001011 "[
b00001011010 :
b000000100000000000 <
1|
b0000001010 ~
b000000100000000000 ?
#96
0""
0a
0"#
0")
0-
0N
0"1
0r
0s
08
0"Z
0|
0]
0_
#101
1""
1"#
1")
b000000001000000000 H
b000000100000000000 "+
b00001010 ",
b00001011010 K
1N
b000000000000001010 O
1"1
b000000100000000000 Q
b000000100000000000 "4
b0000001001 "7
b111111111100101000 Y
1]
1_
b00001011010 "A
b00001011010 `
1a
b0000001011 c
b111111111100101000 d
b111111111000000000 "F
b000000010000000000 (
b000000010000000000 "L
b000000010000000000 "N
1-
b000000000000001011 "O
b0001010 .
b00000001011 0
1r
1s
b00001011001 t
18
1"Z
b00000001100 "[
b00001011001 :
b000000010000000000 <
1|
b0000001011 ~
b000000010000000000 ?
#106
0""
0a
0"#
0")
0-
0N
0"1
0r
0s
08
0"Z
0|
0]
0_
#111
1""
1"#
1")
b000000000100000000 H
b000000010000000000 "+
b00001011 ",
b00001011001 K
1N
b000000000000001011 O
1"1
b000000010000000000 Q
b000000010000000000 "4
b0000001010 "7
b111111111100001101 Y
1]
1_
b00001011001 "A
b00001011001 `
1a
b0000001100 c
b111111111100001101 d
b111111111100000000 "F
b000000001000000000 (
b000000001000000000 "L
b000000001000000000 "N
1-
b000000000000001100 "O
b0001011 .
b00000001100 0
1r
1s
b00001011000 t
18
1"Z
b00000001101 "[
b00001011000 :
b000000001000000000 <
1|
b0000001100 ~
b000000001000000000 ?
#116
0""
0a
0"#
0")
0-
0N
0"1
0r
0s
08
0"Z
0|
0]
0_
#121
1""
1"#
1")
b000000000010000000 H
b000000001000000000 "+
b00001100 ",
b00001011000 K
1N
b000000000000001100 O
1"1
b000000001000000000 Q
b000000001000000000 "4
b0000001011 "7
b111111111011110011 Y
1]
1_
b00001011000 "A
b00001011000 `
1a
b0000001101 c
b111111111011110011 d
b111111111110000000 "F
b000000000100000000 (
b000000000100000000 "L
b000000000100000000 "N
1-
b000000000000001101 "O
b0001100 .
b00000001101 0
1r
1s
b00001010111 t
18
1"Z
b00000001110 "[
b00001010111 :
b000000000100000000 <
1|
b0000001101 ~
b000000000100000000 ?
#126
0""
0a
0"#
0")
0-
0N
0"1
0r
0s
08
0"Z
0|
0]
0_
#131
1""
1"#
1")
b000000000001000000 H
b000000000100000000 "+
b00001101 ",
b00001010111 K
1N
b000000000000001101 O
1"1
b000000000100000000 Q
b000000000100000000 "4
b0000001100 "7
b111111111011011001 Y
1]
1_
b00001010111 "A
b00001010111 `
1a
b0000001110 c
b111111111011011001 d
b111111111111000000 "F
b000000000010000000 (
b000000000010000000 "L
b000000000010000000 "N
1-
b000000000000001110 "O
b0001101 .
b00000001110 0
1r
1s
b00001010110 t
18
1"Z
b00000001111 "[
b00001010110 :
b000000000010000000 <
1|
b0000001110 ~
b000000000010000000 ?
#136
0""
0a
0"#
0")
0-
0N
0"1
0r
0s
08
0"Z
0|
0]
0_
#141
1""
1"#
1")
b000000000000100000 H
b000000000010000000 "+
b00001110 ",
b00001010110 K
1N
b000000000000001110 O
1"1
b000000000010000000 Q
b000000000010000000 "4
b0000001101 "7
b111111111011000000 Y
1]
1_
b00001010110 "A
b00001010110 `
1a
b0000001111 c
b111111111011000000 d
b111111111111100000 "F
b000000000001000000 (
b000000000001000000 "L
b000000000001000000 "N
1-
b000000000000001111 "O
b0001110 .
b00000001111 0
1r
1s
b00001010101 t
18
1"Z
b00000010000 "[
b00001010101 :
b000000000001000000 <
1|
b0000001111 ~
b000000000001000000 ?
#146
0""
0a
0"#
0")
0-
0N
0"1
0r
0s
08
0"Z
0|
0]
0_
#151
1""
1"#
1")
b000000000000010000 H
b000000000001000000 "+
b00001111 ",
b00001010101 K
1N
b000000000000001111 O
1"1
b000000000001000000 Q
b000000000001000000 "4
b0000001110 "7
b111111111010101001 Y
1]
1_
b00001010101 "A
b00001010101 `
1a
b0000010000 c
b111111111010101001 d
b111111111111110000 "F
b000000000000100000 (
b000000000000100000 "L
b000000000000100000 "N
1-
b000000000000010000 "O
b0001111 .
b00000010000 0
1r
1s
b00001010100 t
18
1"Z
b00000010001 "[
b00001010100 :
b000000000000100000 <
1|
b0000010000 ~
b000000000000100000 ?
#156
0""
0a
0"#
0")
0-
0N
0"1
0r
0s
08
0"Z
0|
0]
0_
#161
1""
1"#
1")
b000000000000001000 H
b000000000000100000 "+
b00010000 ",
b00001010100 K
1N
b000000000000010000 O
1"1
b000000000000100000 Q
b000000000000100000 "4
b0000001111 "7
b111111111010010100 Y
1]
1_
b00001010100 "A
b00001010100 `
1a
b0000010001 c
b111111111010010100 d
b111111111111111000 "F
b000000000000010000 (
b000000000000010000 "L
b000000000000010000 "N
1-
b000000000000010001 "O
b0010000 .
b00000010001 0
1r
1s
b00001010011 t
18
1"Z
b00000010010 "[
b00001010011 :
b000000000000010000 <
1|
b0000010001 ~
b000000000000010000 ?
#166
0""
0a
0"#
0")
0-
0N
0"1
0r
0s
08
0"Z
0|
0]
0_
#171
1""
1"#
1")
b000000000000000100 H
b000000000000010000 "+
b00010001 ",
b00001010011 K
1N
b000000000000010001 O
1"1
b000000000000010000 Q
b000000000000010000 "4
b0000010000 "7
b111111111010000001 Y
1]
1_
b00001010011 "A
b00001010011 `
1a
b0000010010 c
b111111111010000001 d
b111111111111111100 "F
b000000000000001000 (
b000000000000001000 "L
b000000000000001000 "N
1-
b000000000000010010 "O
b0010001 .
b00000010010 0
1r
1s
b00001010010 t
18
1"Z
b00000010011 "[
b00001010010 :
b000000000000001000 <
1|
b0000010010 ~
b000000000000001000 ?
#176
0""
0a
0"#
0")
0-
0N
0"1
0r
0s
08
0"Z
0|
0]
0_
#181
1""
1"#
1")
b000000000000000010 H
b000000000000001000 "+
b00010010 ",
b00001010010 K
1N
b000000000000010010 O
1"1
b000000000000001000 Q
b000000000000001000 "4
b0000010001 "7
1"8
b111111111001110010 Y
1]
1_
b00001010010 "A
b00001010010 `
1a
b0000010011 c
b111111111001110010 d
b111111111111111110 "F
b000000000000000100 (
b000000000000000100 "L
b000000000000000100 "N
1-
b000000000000010011 "O
b0010010 .
b00000010011 0
1r
1s
b00001010001 t
18
1"Z
b00000010100 "[
b00001010001 :
b000000000000000100 <
1|
b0000010011 ~
b000000000000000100 ?
#186
0""
0a
0"#
0")
0-
0N
0"1
0r
0s
08
0"Z
0|
0]
0_
#191
1""
1"#
b000000000000000000 "%
1")
b000000000000000001 H
b000000000000000100 "+
b00000000 ",
b00001010001 K
1N
b000000000000010011 O
1"1
b000000000000000000 "2
b000000000000000100 Q
b000000000000000000 "3
b000000000000000100 "4
b0000010010 "7
0"8
b111111111001100101 Y
1]
1_
b00001010001 "A
b00001010001 `
1a
b0000010100 c
b111111111001100101 d
b111111111111111111 "F
b000000000000000010 (
b000000000000000010 "L
b000000000000000010 "N
1-
b000000000000010100 "O
b0010011 .
b00000010100 0
b000000000000000000 1
b000000000000000000 q
1r
1s
b00001010000 t
18
1"Z
b00000010101 "[
b00001010000 :
b000000000000000010 <
1|
b0000010100 ~
b000000000000000010 ?
b000000000000000000 "!
#196
0""
0a
0"#
0")
0-
0N
0"1
0r
0s
08
0"Z
0|
0]
0_
#201
b000000000000000000 @
1""
1"#
1")
b000000000000000010 "+
b00000001 ",
b00001010000 K
1N
b000000000000010100 O
1"1
b000000000000000010 Q
b000000000000000000 R
b000000000000000010 "4
b0000010011 "7
b111111111001011101 Y
1]
b000000000000000000 "@
1_
b00001010000 "A
b00001010000 `
1a
b0000010101 c
b111111111001011101 d
b000000000000000000 '
b000000000000000001 (
b000000000000000001 "L
b000000000000000001 "N
1-
b000000000000010101 "O
b0010100 .
b00000010101 0
1r
1s
b00001001111 t
18
1"Z
b00000010110 "[
b00001001111 :
b000000000000000001 <
1|
b000000000000000000 }
b0000010101 ~
b000000000000000001 ?
#206
0""
0a
0"#
0")
0-
0N
0"1
0r
0s
08
0"Z
0|
0]
0_
#211
1""
1"#
1")
b000000000000000001 "+
b00000010 ",
b00001001111 K
1N
b000000000000010101 O
1"1
b000000000000000001 Q
b000000000000000001 "4
b0000010100 "7
b000000000000000000 X
b111111111001011000 Y
1]
1_
b00001001111 "A
b00001001111 `
1a
b0000010110 c
b111111111001011000 d
1-
b000000000000010110 "O
b0010101 .
b00000010110 0
1r
1s
b00001001110 t
b000000000000000000 u
b000000000000000000 7
18
1"Z
b00000010111 "[
b00001001110 :
1|
b0000010110 ~
#216
0""
0a
0"#
0")
0-
0N
0"1
0r
0s
08
0"Z
0|
0]
0_
#221
1""
1"#
1")
b00000011 ",
b00001001110 K
1N
b000000000000010110 O
1"1
b0000010101 "7
1]
1_
b00001001110 "A
b00001001110 `
1a
b0000010111 c
1-
b000000000000010111 "O
b0010110 .
b00000010111 0
1r
1s
b00001001101 t
18
1"Z
b00000011000 "[
b00001001101 :
1|
b0000010111 ~
#226
0""
0a
0"#
0")
0-
0N
0"1
0r
0s
08
0"Z
0|
0]
0_
#231
1""
1"#
1")
b00000100 ",
b00001001101 K
1N
b000000000000010111 O
1"1
b0000010110 "7
b111111111001011100 Y
1]
1_
b00001001101 "A
b00001001101 `
1a
b0000011000 c
b111111111001011100 d
1-
b000000000000011000 "O
b0010111 .
b00000011000 0
1r
1s
b00001001100 t
18
1"Z
b00000011001 "[
b00001001100 :
1|
b0000011000 ~
#236
0""
0a
0"#
0")
0-
0N
0"1
0r
0s
08
0"Z
0|
0]
0_
#241
1""
1"#
1")
b00000101 ",
b00001001100 K
1N
b000000000000011000 O
1"1
b0000010111 "7
b111111111001100101 Y
1]
1_
b00001001100 "A
b00001001100 `
1a
b0000011001 c
b111111111001100101 d
1-
b000000000000011001 "O
b0011000 .
b00000011001 0
1r
1s
b00001001011 t
18
1"Z
b00000011010 "[
b00001001011 :
1|
b0000011001 ~
#246
0""
0a
0"#
0")
0-
0N
0"1
0r
0s
08
0"Z
0|
0]
0_
#251
1""
1"#
1")
b00000110 ",
b00001001011 K
1N
b000000000000011001 O
1"1
b0000011000 "7
b111111111001110010 Y
1]
1_
b00001001011 "A
b00001001011 `
1a
b0000011010 c
b111111111001110010 d
1-
b000000000000011010 "O
b0011001 .
b00000011010 0
1r
1s
b00001001010 t
18
1"Z
b00000011011 "[
b00001001010 :
1|
b0000011010 ~
#256
0""
0a
0"#
0")
0-
0N
0"1
0r
0s
08
0"Z
0|
0]
0_
#261
1""
1"#
1")
b00000111 ",
b00001001010 K
1N
b000000000000011010 O
1"1
b0000011001 "7
b111111111010000011 Y
1]
1_
b00001001010 "A
b00001001010 `
1a
b0000011011 c
b111111111010000011 d
1-
b000000000000011011 "O
b0011010 .
b00000011011 0
1r
1s
b00001001001 t
18
1"Z
b00000011100 "[
b00001001001 :
1|
b0000011011 ~
#266
0""
0a
0"#
0")
0-
0N
0"1
0r
0s
08
0"Z
0|
0]
0_
#271
1""
1"#
1")
b00001000 ",
b00001001001 K
1N
b000000000000011011 O
1"1
b0000011010 "7
b111111111010011001 Y
1]
1_
b00001001001 "A
b00001001001 `
1a
b0000011100 c
b111111111010011001 d
1-
b000000000000011100 "O
b0011011 .
b00000011100 0
1r
1s
b00001001000 t
18
1"Z
b00000011101 "[
b00001001000 :
1|
b0000011100 ~
#276
0""
0a
0"#
0")
0-
0N
0"1
0r
0s
08
0"Z
0|
0]
0_
#281
1""
1"#
1")
b00001001 ",
b00001001000 K
1N
b000000000000011100 O
1"1
b0000011011 "7
b111111111010110010 Y
1]
1_
b00001001000 "A
b00001001000 `
1a
b0000011101 c
b111111111010110010 d
1-
b000000000000011101 "O
b0011100 .
b00000011101 0
1r
1s
b00001000111 t
18
1"Z
b00000011110 "[
b00001000111 :
1|
b0000011101 ~
#286
0""
0a
0"#
0")
0-
0N
0"1
0r
0s
08
0"Z
0|
0]
0_
#291
1""
1"#
1")
b00001010 ",
b00001000111 K
1N
b000000000000011101 O
1"1
b0000011100 "7
b111111111011001110 Y
1]
1_
b00001000111 "A
b00001000111 `
1a
b0000011110 c
b111111111011001110 d
1-
b000000000000011110 "O
b0011101 .
b00000011110 0
1r
1s
b00001000110 t
18
1"Z
b00000011111 "[
b00001000110 :
1|
b0000011110 ~
#296
0""
0a
0"#
0")
0-
0N
0"1
0r
0s
08
0"Z
0|
0]
0_
#301
1""
1"#
1")
b00001011 ",
b00001000110 K
1N
b000000000000011110 O
1"1
b0000011101 "7
b111111111011101110 Y
1]
1_
b00001000110 "A
b00001000110 `
1a
b0000011111 c
b111111111011101110 d
1-
b000000000000011111 "O
b0011110 .
b00000011111 0
1r
1s
b00001000101 t
18
1"Z
b00000100000 "[
b00001000101 :
1|
b0000011111 ~
#306
0""
0a
0"#
0")
0-
0N
0"1
0r
0s
08
0"Z
0|
0]
0_
#311
1""
1"#
1")
b00001100 ",
b00001000101 K
1N
b000000000000011111 O
1"1
b0000011110 "7
b111111111100010000 Y
1]
1_
b00001000101 "A
b00001000101 `
1a
b0000100000 c
b111111111100010000 d
1-
b000000000000100000 "O
b0011111 .
b00000100000 0
1r
1s
b00001000100 t
18
1"Z
b00000100001 "[
b00001000100 :
1|
b0000100000 ~
#316
0""
0a
0"#
0")
0-
0N
0"1
0r
0s
08
0"Z
0|
0]
0_
#321
1""
1"#
1")
b00001101 ",
b00001000100 K
1N
b000000000000100000 O
1"1
b0000011111 "7
b111111111100110100 Y
1]
1_
b00001000100 "A
b00001000100 `
1a
b0000100001 c
b111111111100110100 d
1-
b000000000000100001 "O
b0100000 .
b00000100001 0
1r
1s
b00001000011 t
18
1"Z
b00000100010 "[
b00001000011 :
1|
b0000100001 ~
#326
0""
0a
0"#
0")
0-
0N
0"1
0r
0s
08
0"Z
0|
0]
0_
#331
1""
1"#
1")
b00001110 ",
b00001000011 K
1N
b000000000000100001 O
1"1
b0000100000 "7
b111111111101011001 Y
1]
1_
b00001000011 "A
b00001000011 `
1a
b0000100010 c
b111111111101011001 d
1-
b000000000000100010 "O
b0100001 .
b00000100010 0
1r
1s
b00001000010 t
18
1"Z
b00000100011 "[
b00001000010 :
1|
b0000100010 ~
#336
0""
0a
0"#
0")
0-
0N
0"1
0r
0s
08
0"Z
0|
0]
0_
