test_run_dir/test_should_pass/DSP.vcd
$date
2022-06-07T11:36+0000
$end
$version
0.2
$end
$comment

$end
$timescale 1ns  $end
$scope module DSP $end
 $var wire 1 # io_In $end
 $var wire 1 - clock $end
 $var wire 1 2 reset $end
 $var wire 1 > IOC $end
 $var wire 1 ? io_Out $end
  $scope module IOC.ADC $end
  $upscope $end
  $scope module IOC $end
   $var wire 1 $ io_Out_DAC $end
   $var wire 1 4 io_In_ADC $end
   $var wire 1 6 reset $end
   $var wire 1 : ADC $end
   $var wire 1 = clock $end
   $var wire 16 @ io_Out_ADC $end
   $var wire 1 A DAC $end
   $var wire 16 C io_In_DAC $end
    $scope module DAC $end
     $var wire 3 ! cntReg $end
     $var wire 16 " io_InFIR $end
     $var wire 1 % tick $end
     $var wire 16 ( Diff $end
     $var wire 16 * ZIn $end
     $var wire 16 , io_OutFIR $end
     $var wire 16 1 DDC $end
     $var wire 1 3 reset $end
     $var wire 1 7 clock $end
     $var wire 1 9 io_OutPWM $end
     $var wire 16 < ZReg $end
     $var wire 16 B io_In $end
    $upscope $end
    $scope module ADC $end
     $var wire 1 & io_In $end
     $var wire 1 ' tick $end
     $var wire 1 ) clock $end
     $var wire 16 + sample $end
     $var wire 16 . io_Out $end
     $var wire 16 / outReg $end
     $var wire 1 0 reset $end
     $var wire 16 5 io_In_FIR $end
     $var wire 3 8 cntReg $end
     $var wire 16 ; io_Out_FIR $end
    $upscope $end
  $upscope $end
  $scope module IOC.DAC $end
  $upscope $end
$upscope $end
$enddefinitions $end
$dumpvars
00
02
03
04
06
b0000000000000000 "
07
b0000000000000000 (
09
0:
b0000000000000000 ,
0=
b0000000000000000 +
0>
b0000000000000000 *
0?
b0000000000000000 1
0A
b0000000000000000 /
b0000000000000000 .
b000 8
b0000000000000000 5
b0000000000000000 <
b0000000000000000 ;
b0000000000000000 @
b0000000000000000 C
b0000000000000000 B
0#
0$
0%
0&
0'
0)
b000 !
0-
$end
#0
10
12
13
1%
16
1'
#1
17
1)
1-
1=
#6
00
02
03
06
07
0)
0-
0=
#11
b001 !
0%
0'
17
b001 8
1)
1-
1=
#16
1#
14
1&
07
0)
0-
0=
#21
b010 !
17
b010 8
1)
1-
1=
b1000000000000000 /
#26
0#
04
0&
07
0)
0-
0=
#31
b011 !
17
b011 8
1)
1-
1=
b0100000000000000 /
#36
1#
14
1&
07
0)
0-
0=
#41
b100 !
17
b100 8
1)
1-
1=
b1010000000000000 /
#46
0#
04
0&
07
0)
0-
0=
#51
b0101000000000000 @
b101 !
b0101000000000000 B
b0101000000000000 C
1'
1)
b1010000000000000 +
1-
b0101000000000000 .
b0101000000000000 /
b0101000000000000 5
17
b000 8
b0101000000000000 ;
1=
#56
07
0)
0-
0=
#61
b1010000000000000 @
b000 !
b1010000000000000 "
b1010000000000000 B
b1010000000000000 C
1%
0'
b1010000000000000 (
1)
b1010000000000000 *
b1010000000000000 ,
1-
b1010000000000000 .
b0010100000000000 /
b1010000000000000 5
17
b001 8
b1010000000000000 ;
1=
#66
07
0)
0-
0=
#71
b001 !
b0000000000000000 "
1$
0%
b0000000000000001 (
1)
b1010000000000001 *
b0000000000000000 ,
1-
b0001010000000000 /
b1111111111111111 1
17
b010 8
19
b1010000000000000 <
1=
1?
#76
1#
14
1&
07
0)
0-
0=
#81
b010 !
17
b011 8
1)
b1010000000000010 *
b1010000000000001 <
1-
1=
b1000101000000000 /
#86
07
0)
0-
0=
#91
b011 !
17
b100 8
1)
b1010000000000011 *
b1010000000000010 <
1-
1=
b1100010100000000 /
#96
0#
04
0&
07
0)
0-
0=
#101
b0110001010000000 @
b100 !
b0110001010000000 B
b0110001010000000 C
1'
1)
b1010000000000100 *
b1100010100000000 +
1-
b0110001010000000 .
b0110001010000000 /
b0110001010000000 5
17
b000 8
b0110001010000000 ;
b1010000000000011 <
1=
#106
07
0)
0-
0=
#111
b1100010100000000 @
b101 !
b1100010100000000 B
b1100010100000000 C
0'
1)
b1010000000000101 *
1-
b1100010100000000 .
b0011000101000000 /
b1100010100000000 5
17
b001 8
b1100010100000000 ;
b1010000000000100 <
1=
#116
07
0)
0-
0=
#121
b000 !
b1100010100000000 "
1%
b1100010100000001 (
1)
b0110010100000110 *
b1100010100000000 ,
1-
b0001100010100000 /
17
b010 8
b1010000000000101 <
1=
#126
07
0)
0-
0=
#131
b001 !
b0000000000000000 "
0$
0%
b0000000000000000 (
1)
b0000000000000000 ,
1-
b0000110001010000 /
b0000000000000000 1
17
b011 8
09
b0110010100000110 <
1=
0?
#136
07
0)
0-
0=
#141
b010 !
17
b100 8
1)
1-
1=
b0000011000101000 /
#146
1#
14
1&
07
0)
0-
0=
#151
b1000001100010100 @
b011 !
b1000001100010100 B
b1000001100010100 C
1'
1)
b0000011000101000 +
1-
b1000001100010100 .
b1000001100010100 /
b1000001100010100 5
17
b000 8
b1000001100010100 ;
1=
#156
07
0)
0-
0=
#161
b0000011000101000 @
b100 !
b0000011000101000 B
b0000011000101000 C
0'
1)
1-
b0000011000101000 .
b1100000110001010 /
b0000011000101000 5
17
b001 8
b0000011000101000 ;
1=
#166
07
0)
0-
0=
#171
b101 !
17
b010 8
1)
1-
1=
b1110000011000101 /
#176
0#
04
0&
07
0)
0-
0=
#181
b000 !
b0000011000101000 "
1%
b0000011000101000 (
1)
b0110101100101110 *
b0000011000101000 ,
1-
b0111000001100010 /
17
b011 8
1=
#186
07
0)
0-
0=
#191
b001 !
b0000000000000000 "
0%
b0000000000000000 (
1)
b0000000000000000 ,
1-
b0011100000110001 /
17
b100 8
b0110101100101110 <
1=
#196
07
0)
0-
0=
#201
b0001110000011000 @
b010 !
b0001110000011000 B
b0001110000011000 C
1'
1)
b0011100000110001 +
1-
b0001110000011000 .
b0001110000011000 /
b0001110000011000 5
17
b000 8
b0001110000011000 ;
1=
#206
07
0)
0-
0=
#211
b0011100000110001 @
b011 !
b0011100000110001 B
b0011100000110001 C
0'
1)
1-
b0011100000110001 .
b0000111000001100 /
b0011100000110001 5
17
b001 8
b0011100000110001 ;
1=
#216
07
0)
0-
0=
#221
b100 !
17
b010 8
1)
1-
1=
b0000011100000110 /
#226
07
0)
0-
0=
#231
b101 !
17
b011 8
1)
1-
1=
b0000001110000011 /
#236
1#
14
1&
07
0)
0-
0=
#241
b000 !
b0011100000110001 "
1%
b0011100000110001 (
1)
b1010001101011111 *
b0011100000110001 ,
1-
b1000000111000001 /
17
b100 8
1=
#246
07
0)
0-
0=
#251
b1100000011100000 @
b1100000011100000 B
b1100000011100000 C
b001 !
b0000000000000000 "
1$
0%
1'
b0000000000000001 (
1)
b1010001101100000 *
b1000000111000001 +
b0000000000000000 ,
1-
b1100000011100000 .
b1100000011100000 /
b1111111111111111 1
b1100000011100000 5
17
b000 8
19
b1100000011100000 ;
b1010001101011111 <
1=
1?
#256
07
0)
0-
0=
#261
b1000000111000001 @
b010 !
b1000000111000001 B
b1000000111000001 C
0'
1)
b1010001101100001 *
1-
b1000000111000001 .
b1110000001110000 /
b1000000111000001 5
17
b001 8
b1000000111000001 ;
b1010001101100000 <
1=
#266
07
0)
0-
0=
#271
b011 !
17
b010 8
1)
b1010001101100010 *
b1010001101100001 <
1-
1=
b1111000000111000 /
#276
07
0)
0-
0=
#281
b100 !
17
b011 8
1)
b1010001101100011 *
b1010001101100010 <
1-
1=
b1111100000011100 /
#286
0#
04
0&
07
0)
0-
0=
#291
b101 !
17
b100 8
1)
b1010001101100100 *
b1010001101100011 <
1-
1=
b0111110000001110 /
#296
1#
14
1&
07
0)
0-
0=
#301
b1011111000000111 @
b000 !
b1011111000000111 "
b1011111000000111 B
b1011111000000111 C
1%
1'
b1011111000001000 (
1)
b0110000101101100 *
b0111110000001110 +
b1011111000000111 ,
1-
b1011111000000111 .
b1011111000000111 /
b1011111000000111 5
17
b000 8
b1011111000000111 ;
b1010001101100100 <
1=
#306
0#
04
0&
07
0)
0-
0=
#311
b0111110000001110 @
b001 !
b0000000000000000 "
b0111110000001110 B
b0111110000001110 C
0$
0%
0'
b0000000000000000 (
1)
b0000000000000000 ,
1-
b0111110000001110 .
b0101111100000011 /
b0000000000000000 1
b0111110000001110 5
17
b001 8
09
b0111110000001110 ;
b0110000101101100 <
1=
0?
#316
1#
14
1&
07
0)
0-
0=
#321
b010 !
17
b010 8
1)
1-
1=
b1010111110000001 /
#326
0#
04
0&
07
0)
0-
0=
#331
b011 !
17
b011 8
1)
1-
1=
b0101011111000000 /
#336
07
0)
0-
0=
#341
b100 !
17
b100 8
1)
1-
1=
b0010101111100000 /
#346
07
0)
0-
0=
#351
b0001010111110000 @
b101 !
b0001010111110000 B
b0001010111110000 C
1'
1)
b0010101111100000 +
1-
b0001010111110000 .
b0001010111110000 /
b0001010111110000 5
17
b000 8
b0001010111110000 ;
1=
#356
07
0)
0-
0=
#361
b0010101111100000 @
b000 !
b0010101111100000 "
b0010101111100000 B
b0010101111100000 C
1%
0'
b0010101111100000 (
1)
b1000110101001100 *
b0010101111100000 ,
1-
b0010101111100000 .
b0000101011111000 /
b0010101111100000 5
17
b001 8
b0010101111100000 ;
1=
#366
07
0)
0-
0=
#371
b001 !
b0000000000000000 "
1$
0%
b0000000000000001 (
1)
b1000110101001101 *
b0000000000000000 ,
1-
b0000010101111100 /
b1111111111111111 1
17
b010 8
19
b1000110101001100 <
1=
1?
#376
07
0)
0-
0=
#381
b010 !
17
b011 8
1)
b1000110101001110 *
b1000110101001101 <
1-
1=
b0000001010111110 /
#386
07
0)
0-
0=
#391
b011 !
17
b100 8
1)
b1000110101001111 *
b1000110101001110 <
1-
1=
b0000000101011111 /
#396
07
0)
0-
0=
#401
b0000000010101111 @
b100 !
b0000000010101111 B
b0000000010101111 C
1'
1)
b1000110101010000 *
b0000000101011111 +
1-
b0000000010101111 .
b0000000010101111 /
b0000000010101111 5
17
b000 8
b0000000010101111 ;
b1000110101001111 <
1=
#406
07
0)
0-
0=
#411
b0000000101011111 @
b101 !
b0000000101011111 B
b0000000101011111 C
0'
1)
b1000110101010001 *
1-
b0000000101011111 .
b0000000001010111 /
b0000000101011111 5
17
b001 8
b0000000101011111 ;
b1000110101010000 <
1=
#416
07
0)
0-
0=
#421
b000 !
b0000000101011111 "
1%
b0000000101100000 (
1)
b1000111010110001 *
b0000000101011111 ,
1-
b0000000000101011 /
17
b010 8
b1000110101010001 <
1=
#426
07
0)
0-
0=
#431
b001 !
b0000000000000000 "
0%
b0000000000000001 (
1)
b1000111010110010 *
b0000000000000000 ,
1-
b0000000000010101 /
17
b011 8
b1000111010110001 <
1=
#436
07
0)
0-
0=
#441
b010 !
17
b100 8
1)
b1000111010110011 *
b1000111010110010 <
1-
1=
b0000000000001010 /
#446
07
0)
0-
0=
#451
b0000000000000101 @
b011 !
b0000000000000101 B
b0000000000000101 C
1'
1)
b1000111010110100 *
b0000000000001010 +
1-
b0000000000000101 .
b0000000000000101 /
b0000000000000101 5
17
b000 8
b0000000000000101 ;
b1000111010110011 <
1=
#456
07
0)
0-
0=
#461
b0000000000001010 @
b100 !
b0000000000001010 B
b0000000000001010 C
0'
1)
b1000111010110101 *
1-
b0000000000001010 .
b0000000000000010 /
b0000000000001010 5
17
b001 8
b0000000000001010 ;
b1000111010110100 <
1=
#466
07
0)
0-
0=
#471
b101 !
17
b010 8
1)
b1000111010110110 *
b1000111010110101 <
1-
1=
b0000000000000001 /
#476
07
0)
0-
0=
#481
b000 !
b0000000000001010 "
1%
b0000000000001011 (
1)
b1000111011000001 *
b0000000000001010 ,
1-
b0000000000000000 /
17
b011 8
b1000111010110110 <
1=
#486
07
0)
0-
0=
#491
b001 !
b0000000000000000 "
0%
b0000000000000001 (
1)
b1000111011000010 *
b0000000000000000 ,
1-
17
b100 8
b1000111011000001 <
1=
#496
07
0)
0-
0=
#501
b0000000000000000 @
b010 !
b0000000000000000 B
b0000000000000000 C
1'
1)
b1000111011000011 *
b0000000000000000 +
1-
b0000000000000000 .
b0000000000000000 5
17
b000 8
b0000000000000000 ;
b1000111011000010 <
1=
#506
07
0)
0-
0=
#511
b011 !
0'
17
b001 8
1)
b1000111011000100 *
b1000111011000011 <
1-
1=
#516
07
0)
0-
0=
#521
b100 !
17
b010 8
1)
b1000111011000101 *
b1000111011000100 <
1-
1=
#526
07
0)
0-
0=
#531
b101 !
17
b011 8
1)
b1000111011000110 *
b1000111011000101 <
1-
1=
#536
07
0)
0-
0=
#541
b000 !
1%
17
b100 8
1)
b1000111011000111 *
b1000111011000110 <
1-
1=
#546
07
0)
0-
0=
#551
b001 !
0%
1'
17
b000 8
1)
b1000111011001000 *
b1000111011000111 <
1-
1=
#556
07
0)
0-
0=
#561
b010 !
0'
17
b001 8
1)
b1000111011001001 *
b1000111011001000 <
1-
1=
#566
07
0)
0-
0=
#571
b011 !
17
b010 8
1)
b1000111011001010 *
b1000111011001001 <
1-
1=
#576
07
0)
0-
0=
#581
b100 !
17
b011 8
1)
b1000111011001011 *
b1000111011001010 <
1-
1=
#586
07
0)
0-
0=
#591
b101 !
17
b100 8
1)
b1000111011001100 *
b1000111011001011 <
1-
1=
#596
07
0)
0-
0=
#601
b000 !
1%
1'
17
b000 8
1)
b1000111011001101 *
b1000111011001100 <
1-
1=
#606
07
0)
0-
0=
#611
b001 !
0%
0'
17
b001 8
1)
b1000111011001110 *
b1000111011001101 <
1-
1=
#616
07
0)
0-
0=
#621
b010 !
17
b010 8
1)
b1000111011001111 *
b1000111011001110 <
1-
1=
#626
07
0)
0-
0=
#631
b011 !
17
b011 8
1)
b1000111011010000 *
b1000111011001111 <
1-
1=
#636
07
0)
0-
0=
#641
b100 !
17
b100 8
1)
b1000111011010001 *
b1000111011010000 <
1-
1=
#646
07
0)
0-
0=
#651
b101 !
1'
17
b000 8
1)
b1000111011010010 *
b1000111011010001 <
1-
1=
#656
1#
14
1&
07
0)
0-
0=
#661
b000 !
1%
0'
17
b001 8
1)
b1000111011010011 *
b1000111011010010 <
1-
1=
b1000000000000000 /
#666
0#
04
0&
07
0)
0-
0=
#671
b001 !
0%
17
b010 8
1)
b1000111011010100 *
b1000111011010011 <
1-
1=
b0100000000000000 /
#676
1#
14
1&
07
0)
0-
0=
#681
b010 !
17
b011 8
1)
b1000111011010101 *
b1000111011010100 <
1-
1=
b1010000000000000 /
#686
0#
04
0&
07
0)
0-
0=
#691
b011 !
17
b100 8
1)
b1000111011010110 *
b1000111011010101 <
1-
1=
b0101000000000000 /
#696
07
0)
0-
0=
#701
b0010100000000000 @
b100 !
b0010100000000000 B
b0010100000000000 C
1'
1)
b1000111011010111 *
b0101000000000000 +
1-
b0010100000000000 .
b0010100000000000 /
b0010100000000000 5
17
b000 8
b0010100000000000 ;
b1000111011010110 <
1=
#706
07
0)
0-
0=
#711
b0101000000000000 @
b101 !
b0101000000000000 B
b0101000000000000 C
0'
1)
b1000111011011000 *
1-
b0101000000000000 .
b0001010000000000 /
b0101000000000000 5
17
b001 8
b0101000000000000 ;
b1000111011010111 <
1=
#716
1#
14
1&
07
0)
0-
0=
#721
b000 !
b0101000000000000 "
1%
b0101000000000001 (
1)
b1101111011011001 *
b0101000000000000 ,
1-
b1000101000000000 /
17
b010 8
b1000111011011000 <
1=
#726
07
0)
0-
0=
#731
b001 !
b0000000000000000 "
0%
b0000000000000001 (
1)
b1101111011011010 *
b0000000000000000 ,
1-
b1100010100000000 /
17
b011 8
b1101111011011001 <
1=
#736
0#
04
0&
07
0)
0-
0=
#741
b010 !
17
b100 8
1)
b1101111011011011 *
b1101111011011010 <
1-
1=
b0110001010000000 /
#746
07
0)
0-
0=
#751
b0011000101000000 @
b011 !
b0011000101000000 B
b0011000101000000 C
1'
1)
b1101111011011100 *
b0110001010000000 +
1-
b0011000101000000 .
b0011000101000000 /
b0011000101000000 5
17
b000 8
b0011000101000000 ;
b1101111011011011 <
1=
#756
07
0)
0-
0=
#761
b0110001010000000 @
b100 !
b0110001010000000 B
b0110001010000000 C
0'
1)
b1101111011011101 *
1-
b0110001010000000 .
b0001100010100000 /
b0110001010000000 5
17
b001 8
b0110001010000000 ;
b1101111011011100 <
1=
#766
07
0)
0-
0=
#771
b101 !
17
b010 8
1)
b1101111011011110 *
b1101111011011101 <
1-
1=
b0000110001010000 /
#776
07
0)
0-
0=
#781
b000 !
b0110001010000000 "
1%
b0110001010000001 (
1)
b0100000101011111 *
b0110001010000000 ,
1-
b0000011000101000 /
17
b011 8
b1101111011011110 <
1=
#786
1#
14
1&
07
0)
0-
0=
#791
b001 !
b0000000000000000 "
0$
0%
b0000000000000000 (
1)
b0000000000000000 ,
1-
b1000001100010100 /
b0000000000000000 1
17
b100 8
09
b0100000101011111 <
1=
0?
#796
07
0)
0-
0=
#801
b1100000110001010 @
b010 !
b1100000110001010 B
b1100000110001010 C
1'
1)
b1000001100010100 +
1-
b1100000110001010 .
b1100000110001010 /
b1100000110001010 5
17
b000 8
b1100000110001010 ;
1=
#806
07
0)
0-
0=
#811
b1000001100010100 @
b011 !
b1000001100010100 B
b1000001100010100 C
0'
1)
1-
b1000001100010100 .
b1110000011000101 /
b1000001100010100 5
17
b001 8
b1000001100010100 ;
1=
#816
0#
04
0&
07
0)
0-
0=
#821
b100 !
17
b010 8
1)
1-
1=
b0111000001100010 /
#826
07
0)
0-
0=
#831
b101 !
17
b011 8
1)
1-
1=
b0011100000110001 /
#836
07
0)
0-
0=
#841
b000 !
b1000001100010100 "
1%
b1000001100010100 (
1)
b1100010001110011 *
b1000001100010100 ,
1-
b0001110000011000 /
17
b100 8
1=
#846
07
0)
0-
0=
#851
b0000111000001100 @
b0000111000001100 B
b0000111000001100 C
b001 !
b0000000000000000 "
1$
0%
1'
b0000000000000001 (
1)
b1100010001110100 *
b0001110000011000 +
b0000000000000000 ,
1-
b0000111000001100 .
b0000111000001100 /
b1111111111111111 1
b0000111000001100 5
17
b000 8
19
b0000111000001100 ;
b1100010001110011 <
1=
1?
#856
07
0)
0-
0=
#861
b0001110000011000 @
b010 !
b0001110000011000 B
b0001110000011000 C
0'
1)
b1100010001110101 *
1-
b0001110000011000 .
b0000011100000110 /
b0001110000011000 5
17
b001 8
b0001110000011000 ;
b1100010001110100 <
1=
#866
07
0)
0-
0=
#871
b011 !
17
b010 8
1)
b1100010001110110 *
b1100010001110101 <
1-
1=
b0000001110000011 /
#876
1#
14
1&
07
0)
0-
0=
#881
b100 !
17
b011 8
1)
b1100010001110111 *
b1100010001110110 <
1-
1=
b1000000111000001 /
#886
07
0)
0-
0=
#891
b101 !
17
b100 8
1)
b1100010001111000 *
b1100010001110111 <
1-
1=
b1100000011100000 /
#896
07
0)
0-
0=
#901
b1110000001110000 @
b000 !
b1110000001110000 "
b1110000001110000 B
b1110000001110000 C
1%
1'
b1110000001110001 (
1)
b1010010011101001 *
b1100000011100000 +
b1110000001110000 ,
1-
b1110000001110000 .
b1110000001110000 /
b1110000001110000 5
17
b000 8
b1110000001110000 ;
b1100010001111000 <
1=
#906
07
0)
0-
0=
#911
b1100000011100000 @
b001 !
b0000000000000000 "
b1100000011100000 B
b1100000011100000 C
0%
0'
b0000000000000001 (
1)
b1010010011101010 *
b0000000000000000 ,
1-
b1100000011100000 .
b1111000000111000 /
b1100000011100000 5
17
b001 8
b1100000011100000 ;
b1010010011101001 <
1=
#916
07
0)
0-
0=
#921
b010 !
17
b010 8
1)
b1010010011101011 *
b1010010011101010 <
1-
1=
b1111100000011100 /
#926
0#
04
0&
07
0)
0-
0=
#931
b011 !
17
b011 8
1)
b1010010011101100 *
b1010010011101011 <
1-
1=
b0111110000001110 /
#936
1#
14
1&
07
0)
0-
0=
#941
b100 !
17
b100 8
1)
b1010010011101101 *
b1010010011101100 <
1-
1=
b1011111000000111 /
#946
0#
04
0&
07
0)
0-
0=
#951
b0101111100000011 @
b101 !
b0101111100000011 B
b0101111100000011 C
1'
1)
b1010010011101110 *
b1011111000000111 +
1-
b0101111100000011 .
b0101111100000011 /
b0101111100000011 5
17
b000 8
b0101111100000011 ;
b1010010011101101 <
1=
#956
1#
14
1&
07
0)
0-
0=
#961
b1011111000000111 @
b000 !
b1011111000000111 "
b1011111000000111 B
b1011111000000111 C
1%
0'
b1011111000001000 (
1)
b0110001011110110 *
b1011111000000111 ,
1-
b1011111000000111 .
b1010111110000001 /
b1011111000000111 5
17
b001 8
b1011111000000111 ;
b1010010011101110 <
1=
#966
0#
04
0&
07
0)
0-
0=
#971
b001 !
b0000000000000000 "
0$
0%
b0000000000000000 (
1)
b0000000000000000 ,
1-
b0101011111000000 /
b0000000000000000 1
17
b010 8
09
b0110001011110110 <
1=
0?
#976
07
0)
0-
0=
#981
b010 !
17
b011 8
1)
1-
1=
b0010101111100000 /
#986
07
0)
0-
0=
#991
b011 !
17
b100 8
1)
1-
1=
b0001010111110000 /
#996
07
0)
0-
0=
#1001
b0000101011111000 @
b100 !
b0000101011111000 B
b0000101011111000 C
1'
1)
b0001010111110000 +
1-
b0000101011111000 .
b0000101011111000 /
b0000101011111000 5
17
b000 8
b0000101011111000 ;
1=
#1006
07
0)
0-
0=
#1011
b0001010111110000 @
b101 !
b0001010111110000 B
b0001010111110000 C
0'
1)
1-
b0001010111110000 .
b0000010101111100 /
b0001010111110000 5
17
b001 8
b0001010111110000 ;
1=
#1016
07
0)
0-
0=
#1021
b000 !
b0001010111110000 "
1%
b0001010111110000 (
1)
b0111100011100110 *
b0001010111110000 ,
1-
b0000001010111110 /
17
b010 8
1=
#1026
07
0)
0-
0=
#1031
b001 !
b0000000000000000 "
0%
b0000000000000000 (
1)
b0000000000000000 ,
1-
b0000000101011111 /
17
b011 8
b0111100011100110 <
1=
#1036
07
0)
0-
0=
#1041
b010 !
17
b100 8
1)
1-
1=
b0000000010101111 /
#1046
07
0)
0-
0=
#1051
b0000000001010111 @
b011 !
b0000000001010111 B
b0000000001010111 C
1'
1)
b0000000010101111 +
1-
b0000000001010111 .
b0000000001010111 /
b0000000001010111 5
17
b000 8
b0000000001010111 ;
1=
#1056
07
0)
0-
0=
#1061
b0000000010101111 @
b100 !
b0000000010101111 B
b0000000010101111 C
0'
1)
1-
b0000000010101111 .
b0000000000101011 /
b0000000010101111 5
17
b001 8
b0000000010101111 ;
1=
#1066
07
0)
0-
0=
#1071
b101 !
17
b010 8
1)
1-
1=
b0000000000010101 /
#1076
07
0)
0-
0=
#1081
b000 !
b0000000010101111 "
1%
b0000000010101111 (
1)
b0111100110010101 *
b0000000010101111 ,
1-
b0000000000001010 /
17
b011 8
1=
#1086
07
0)
0-
0=
#1091
b001 !
b0000000000000000 "
0%
b0000000000000000 (
1)
b0000000000000000 ,
1-
b0000000000000101 /
17
b100 8
b0111100110010101 <
1=
#1096
07
0)
0-
0=
#1101
b0000000000000010 @
b010 !
b0000000000000010 B
b0000000000000010 C
1'
1)
b0000000000000101 +
1-
b0000000000000010 .
b0000000000000010 /
b0000000000000010 5
17
b000 8
b0000000000000010 ;
1=
#1106
07
0)
0-
0=
#1111
b0000000000000101 @
b011 !
b0000000000000101 B
b0000000000000101 C
0'
1)
1-
b0000000000000101 .
b0000000000000001 /
b0000000000000101 5
17
b001 8
b0000000000000101 ;
1=
#1116
07
0)
0-
0=
#1121
b100 !
17
b010 8
1)
1-
1=
b0000000000000000 /
#1126
07
0)
0-
0=
#1131
b101 !
17
b011 8
1)
1-
1=
#1136
07
0)
0-
0=
#1141
b000 !
b0000000000000101 "
1%
17
b0000000000000101 (
b100 8
1)
b0111100110011010 *
b0000000000000101 ,
1-
1=
#1146
07
0)
0-
0=
#1151
b0000000000000000 @
b001 !
b0000000000000000 "
b0000000000000000 B
b0000000000000000 C
0%
1'
b0000000000000000 (
1)
b0000000000000000 +
b0000000000000000 ,
1-
b0000000000000000 .
b0000000000000000 5
17
b000 8
b0000000000000000 ;
b0111100110011010 <
1=
#1156
07
0)
0-
0=
#1161
b010 !
0'
17
b001 8
1)
1-
1=
#1166
07
0)
0-
0=
#1171
b011 !
17
b010 8
1)
1-
1=
#1176
07
0)
0-
0=
#1181
b100 !
17
b011 8
1)
1-
1=
#1186
07
0)
0-
0=
#1191
b101 !
17
b100 8
1)
1-
1=
#1196
07
0)
0-
0=
#1201
b000 !
1%
1'
17
b000 8
1)
1-
1=
#1206
07
0)
0-
0=
#1211
b001 !
0%
0'
17
b001 8
1)
1-
1=
#1216
07
0)
0-
0=
#1221
b010 !
17
b010 8
1)
1-
1=
#1226
07
0)
0-
0=
#1231
b011 !
17
b011 8
1)
1-
1=
#1236
07
0)
0-
0=
#1241
b100 !
17
b100 8
1)
1-
1=
#1246
07
0)
0-
0=
#1251
b101 !
1'
17
b000 8
1)
1-
1=
#1256
07
0)
0-
0=
#1261
b000 !
1%
0'
17
b001 8
1)
1-
1=
#1266
07
0)
0-
0=
#1271
b001 !
0%
17
b010 8
1)
1-
1=
#1276
07
0)
0-
0=
#1281
b010 !
17
b011 8
1)
1-
1=
#1286
07
0)
0-
0=
#1291
b011 !
17
b100 8
1)
1-
1=
#1296
1#
14
1&
07
0)
0-
0=
#1301
b1000000000000000 @
b100 !
b1000000000000000 B
b1000000000000000 C
1'
1)
1-
b1000000000000000 .
b1000000000000000 /
b1000000000000000 5
17
b000 8
b1000000000000000 ;
1=
#1306
0#
04
0&
07
0)
0-
0=
#1311
b0000000000000000 @
b101 !
b0000000000000000 B
b0000000000000000 C
0'
1)
1-
b0000000000000000 .
b0100000000000000 /
b0000000000000000 5
17
b001 8
b0000000000000000 ;
1=
#1316
1#
14
1&
07
0)
0-
0=
#1321
b000 !
1%
17
b010 8
1)
1-
1=
b1010000000000000 /
#1326
0#
04
0&
07
0)
0-
0=
#1331
b001 !
0%
17
b011 8
1)
1-
1=
b0101000000000000 /
#1336
07
0)
0-
0=
#1341
b010 !
17
b100 8
1)
1-
1=
b0010100000000000 /
#1346
07
0)
0-
0=
#1351
b0001010000000000 @
b011 !
b0001010000000000 B
b0001010000000000 C
1'
1)
b0010100000000000 +
1-
b0001010000000000 .
b0001010000000000 /
b0001010000000000 5
17
b000 8
b0001010000000000 ;
1=
#1356
1#
14
1&
07
0)
0-
0=
#1361
b0010100000000000 @
b100 !
b0010100000000000 B
b0010100000000000 C
0'
1)
1-
b0010100000000000 .
b1000101000000000 /
b0010100000000000 5
17
b001 8
b0010100000000000 ;
1=
#1366
07
0)
0-
0=
#1371
b101 !
17
b010 8
1)
1-
1=
b1100010100000000 /
#1376
0#
04
0&
07
0)
0-
0=
#1381
b000 !
b0010100000000000 "
1%
b0010100000000000 (
1)
b1010000110011010 *
b0010100000000000 ,
1-
b0110001010000000 /
17
b011 8
1=
#1386
07
0)
0-
0=
#1391
b001 !
b0000000000000000 "
1$
0%
b0000000000000001 (
1)
b1010000110011011 *
b0000000000000000 ,
1-
b0011000101000000 /
b1111111111111111 1
17
b100 8
19
b1010000110011010 <
1=
1?
#1396
07
0)
0-
0=
#1401
b0001100010100000 @
b010 !
b0001100010100000 B
b0001100010100000 C
1'
1)
b1010000110011100 *
b0011000101000000 +
1-
b0001100010100000 .
b0001100010100000 /
b0001100010100000 5
17
b000 8
b0001100010100000 ;
b1010000110011011 <
1=
#1406
07
0)
0-
0=
#1411
b0011000101000000 @
b011 !
b0011000101000000 B
b0011000101000000 C
0'
1)
b1010000110011101 *
1-
b0011000101000000 .
b0000110001010000 /
b0011000101000000 5
17
b001 8
b0011000101000000 ;
b1010000110011100 <
1=
#1416
07
0)
0-
0=
#1421
b100 !
17
b010 8
1)
b1010000110011110 *
b1010000110011101 <
1-
1=
b0000011000101000 /
#1426
1#
14
1&
07
0)
0-
0=
#1431
b101 !
17
b011 8
1)
b1010000110011111 *
b1010000110011110 <
1-
1=
b1000001100010100 /
#1436
07
0)
0-
0=
#1441
b000 !
b0011000101000000 "
1%
b0011000101000001 (
1)
b1101001011100000 *
b0011000101000000 ,
1-
b1100000110001010 /
17
b100 8
b1010000110011111 <
1=
#1446
07
0)
0-
0=
#1451
b1110000011000101 @
b001 !
b0000000000000000 "
b1110000011000101 B
b1110000011000101 C
0%
1'
b0000000000000001 (
1)
b1101001011100001 *
b1100000110001010 +
b0000000000000000 ,
1-
b1110000011000101 .
b1110000011000101 /
b1110000011000101 5
17
b000 8
b1110000011000101 ;
b1101001011100000 <
1=
#1456
0#
04
0&
07
0)
0-
0=
#1461
b1100000110001010 @
b010 !
b1100000110001010 B
b1100000110001010 C
0'
1)
b1101001011100010 *
1-
b1100000110001010 .
b0111000001100010 /
b1100000110001010 5
17
b001 8
b1100000110001010 ;
b1101001011100001 <
1=
#1466
07
0)
0-
0=
#1471
b011 !
17
b010 8
1)
b1101001011100011 *
b1101001011100010 <
1-
1=
b0011100000110001 /
#1476
07
0)
0-
0=
#1481
b100 !
17
b011 8
1)
b1101001011100100 *
b1101001011100011 <
1-
1=
b0001110000011000 /
#1486
07
0)
0-
0=
#1491
b101 !
17
b100 8
1)
b1101001011100101 *
b1101001011100100 <
1-
1=
b0000111000001100 /
#1496
07
0)
0-
0=
#1501
b0000011100000110 @
b000 !
b0000011100000110 "
b0000011100000110 B
b0000011100000110 C
1%
1'
b0000011100000111 (
1)
b1101100111101100 *
b0000111000001100 +
b0000011100000110 ,
1-
b0000011100000110 .
b0000011100000110 /
b0000011100000110 5
17
b000 8
b0000011100000110 ;
b1101001011100101 <
1=
#1506
07
0)
0-
0=
#1511
b0000111000001100 @
b001 !
b0000000000000000 "
b0000111000001100 B
b0000111000001100 C
0%
0'
b0000000000000001 (
1)
b1101100111101101 *
b0000000000000000 ,
1-
b0000111000001100 .
b0000001110000011 /
b0000111000001100 5
17
b001 8
b0000111000001100 ;
b1101100111101100 <
1=
#1516
1#
14
1&
07
0)
0-
0=
#1521
b010 !
17
b010 8
1)
b1101100111101110 *
b1101100111101101 <
1-
1=
b1000000111000001 /
