test_run_dir/test_should_pass/DSP.vcd
$date
2022-05-18T17:38+0000
$end
$version
0.2
$end
$comment

$end
$timescale 1ns  $end
$scope module DSP $end
 $var wire 1 ( SPI_Drive $end
 $var wire 1 ) SPI_SI_3 $end
 $var wire 1 * SPI_SI_2 $end
 $var wire 1 + SPI_SI_1 $end
 $var wire 1 , SPI_SI_0 $end
 $var wire 16 N io_In $end
 $var wire 1 #F SPI_SCLK $end
 $var wire 1 #L clock $end
 $var wire 16 #N io_Out $end
 $var wire 1 #U SPI_SO_3 $end
 $var wire 1 #V SPI_SO_2 $end
 $var wire 1 #W SPI_SO_1 $end
 $var wire 1 #X SPI_SO_0 $end
 $var wire 1 #| reset $end
 $var wire 1 $; SubDSP $end
 $var wire 1 %$ SPI_CE $end
  $scope module SubDSP.Core.ExecuteStage.ALU $end
  $upscope $end
  $scope module SubDSP $end
   $var wire 1 6 Core $end
   $var wire 1 ? FirEngine $end
   $var wire 1 _ SPI_SI_0 $end
   $var wire 1 a SPI_SI_2 $end
   $var wire 1 b SPI_SI_1 $end
   $var wire 1 c SPI_SI_3 $end
   $var wire 1 n SPI_CE $end
   $var wire 16 | io_In $end
   $var wire 1 #2 clock $end
   $var wire 1 #7 reset $end
   $var wire 1 #I DataMemory $end
   $var wire 16 $o io_Out $end
   $var wire 1 ${ SPI_SCLK $end
   $var wire 1 %& SPI_Drive $end
   $var wire 1 %0 SPI_SO_0 $end
   $var wire 1 %2 SPI_SO_2 $end
   $var wire 1 %3 SPI_SO_1 $end
   $var wire 1 %4 SPI_SO_3 $end
    $scope module Core $end
     $var wire 1 4 io_MemPort_Completed $end
     $var wire 16 T io_WaveOut $end
     $var wire 18 ` io_MemPort_ReadData $end
     $var wire 1 h FetchStage $end
     $var wire 1 "6 io_MemPort_Enable $end
     $var wire 18 "< x_15 $end
     $var wire 18 "= x_14 $end
     $var wire 18 "> x_11 $end
     $var wire 18 "@ x_10 $end
     $var wire 18 "A x_13 $end
     $var wire 18 "B x_12 $end
     $var wire 1 "C io_MemPort_WriteEn $end
     $var wire 18 "N io_MemPort_WriteData $end
     $var wire 18 "\ x_8 $end
     $var wire 18 "] x_7 $end
     $var wire 18 "^ x_6 $end
     $var wire 18 "_ x_5 $end
     $var wire 18 "` x_4 $end
     $var wire 18 "a x_3 $end
     $var wire 18 "b x_2 $end
     $var wire 18 "c x_1 $end
     $var wire 18 "d x_0 $end
     $var wire 18 "g x_9 $end
     $var wire 1 #G reset $end
     $var wire 18 #^ io_MemPort_Address $end
     $var wire 1 $$ clock $end
     $var wire 1 $V ExecuteStage $end
     $var wire 16 $r io_WaveIn $end
     $var wire 1 %% DecodeStage $end
      $scope module DecodeStage $end
       $var wire 4 ' rs1Reg $end
       $var wire 4 A AOperationReg $end
       $var wire 11 K Out_ASImmediate $end
       $var wire 18 d In_Instruction $end
       $var wire 2 "1 Out_COperation $end
       $var wire 11 "? AImmediateReg $end
       $var wire 1 "J reset $end
       $var wire 4 "K rs2Reg $end
       $var wire 4 "P rdReg $end
       $var wire 4 "S Out_rs1 $end
       $var wire 1 "U clock $end
       $var wire 4 "[ Out_rs2 $end
       $var wire 1 #" InstDec $end
       $var wire 2 #6 Out_Type $end
       $var wire 2 #b TypeReg $end
       $var wire 6 $/ Out_COffset $end
       $var wire 4 $l Out_rd $end
       $var wire 1 $n Out_MemOp $end
       $var wire 1 $w io_Clear $end
       $var wire 11 $y Out_MemAddress $end
       $var wire 11 %! MemAddressReg $end
       $var wire 4 %# Out_AOperation $end
       $var wire 2 %) COperationReg $end
       $var wire 1 %1 io_Stall $end
       $var wire 6 %: COffsetReg $end
       $var wire 1 %H MemOpReg $end
       $var wire 11 %J ASImmediateReg $end
       $var wire 11 %N Out_AImmediate $end
        $scope module InstDec $end
         $var wire 11 ! io_ASImmidiate $end
         $var wire 4 & io_rd $end
         $var wire 11 1 io_AImmidiate $end
         $var wire 4 C io_AOperation $end
         $var wire 6 J io_COffset $end
         $var wire 2 g io_COperation $end
         $var wire 11 l io_MemAdress $end
         $var wire 2 { io_MemOp $end
         $var wire 2 "F io_Type $end
         $var wire 4 "Q io_rs1 $end
         $var wire 4 "R io_rs2 $end
         $var wire 18 #5 io_Instruction $end
        $upscope $end
      $upscope $end
      $scope module ExecuteStage $end
       $var wire 4 " In_rd $end
       $var wire 4 # In_rs2 $end
       $var wire 4 $ In_rs1 $end
       $var wire 9 < upper $end
       $var wire 11 @ In_ASImmediate $end
       $var wire 1 P In_MemOp $end
       $var wire 11 W In_AImmediate $end
       $var wire 2 Z In_Type $end
       $var wire 1 [ io_MemPort_Enable $end
       $var wire 2 j In_COperation $end
       $var wire 4 m WritebackMode $end
       $var wire 1 ~ reset $end
       $var wire 18 "$ rs1 $end
       $var wire 18 "& rs2 $end
       $var wire 4 "0 In_AOperation $end
       $var wire 1 "; clock $end
       $var wire 9 "H lower $end
       $var wire 4 "L WritebackRegister $end
       $var wire 18 "O rd $end
       $var wire 4 "T Out_WritebackMode $end
       $var wire 1 "z io_Stall $end
       $var wire 18 #< io_x_6 $end
       $var wire 18 #= io_x_5 $end
       $var wire 18 #> io_x_8 $end
       $var wire 18 #? io_x_7 $end
       $var wire 18 #@ io_x_9 $end
       $var wire 18 #A io_x_0 $end
       $var wire 18 #B io_x_2 $end
       $var wire 18 #C io_x_1 $end
       $var wire 18 #D io_x_4 $end
       $var wire 18 #E io_x_3 $end
       $var wire 1 #H ALU $end
       $var wire 18 #S io_MemPort_WriteData $end
       $var wire 4 #[ DataHazard $end
       $var wire 18 $8 ALUOutReg $end
       $var wire 1 $9 io_MemPort_Completed $end
       $var wire 1 $: io_MemPort_WriteEn $end
       $var wire 18 $] Out_ALUOut $end
       $var wire 4 $q Out_WritebackRegister $end
       $var wire 1 $s io_Clear $end
       $var wire 11 $x In_MemAddress $end
       $var wire 6 $} In_COffset $end
       $var wire 18 %" io_MemPort_ReadData $end
       $var wire 18 %7 io_MemPort_Address $end
       $var wire 18 %A io_x_14 $end
       $var wire 18 %B io_x_15 $end
       $var wire 1 %C BranchComp $end
       $var wire 18 %D io_x_12 $end
       $var wire 18 %E io_x_13 $end
       $var wire 18 %F io_x_10 $end
       $var wire 18 %G io_x_11 $end
       $var wire 18 %I cat $end
       $var wire 6 %K COffsetReg $end
       $var wire 18 %L Out_JumpValue $end
        $scope module BranchComp $end
         $var wire 1 . CondCheck $end
         $var wire 18 V io_Out $end
         $var wire 2 Y io_Operation $end
         $var wire 11 "7 io_Offset $end
         $var wire 18 $# io_PC $end
         $var wire 1 $t io_CondCheck $end
         $var wire 18 %> io_rs2 $end
         $var wire 18 %? io_rs1 $end
        $upscope $end
        $scope module ALU $end
         $var wire 8 w io_Operation $end
         $var wire 18 $K io_rs2 $end
         $var wire 18 $L io_rs1 $end
         $var wire 18 %= io_Out $end
        $upscope $end
      $upscope $end
      $scope module FetchStage $end
       $var wire 1 0 ClearDelay $end
       $var wire 1 ". clock $end
       $var wire 1 "8 InstructionMem $end
       $var wire 18 "f Out_Instruction $end
       $var wire 1 #3 io_Clear $end
       $var wire 18 %6 In_PC $end
        $scope module InstructionMem $end
         $var wire 1 B io_MemWrite $end
         $var wire 10 I io_Address $end
         $var wire 18 ] io_DataIn $end
         $var wire 10 u InstructionMemory_io_Instruction_MPORT_addr_pipe_0 $end
         $var wire 1 y InstructionMemory_io_Instruction_MPORT_en_pipe_0 $end
         $var wire 18 "5 io_Instruction $end
         $var wire 18 ": InstructionMemory $end
         $var wire 1 #4 clock $end
          $scope module InstructionMemory $end
           $var wire 18 "G MPORT $end
            $scope module io_Instruction_MPORT $end
             $var wire 1 : clk $end
             $var wire 18 #9 data $end
             $var wire 1 #: en $end
             $var wire 10 $| addr $end
            $upscope $end
            $scope module MPORT $end
             $var wire 1 M pipeline_valid_0 $end
             $var wire 1 S en $end
             $var wire 18 ^ data $end
             $var wire 10 "9 addr $end
             $var wire 10 "V pipeline_addr_0 $end
             $var wire 1 #Y mask $end
             $var wire 1 #p clk $end
             $var wire 18 $p pipeline_data_0 $end
             $var wire 1 %. valid $end
            $upscope $end
          $upscope $end
        $upscope $end
      $upscope $end
    $upscope $end
    $scope module DataMemory $end
     $var wire 1 - SPI_Drive $end
     $var wire 18 / io_MemPort_0_WriteData $end
     $var wire 1 2 io_MemPort_1_Completed $end
     $var wire 1 3 io_Registers_Enable $end
     $var wire 18 5 io_MemPort_1_WriteData $end
     $var wire 1 = ExternalMemory $end
     $var wire 1 D SPI_SO_1 $end
     $var wire 1 E SPI_SO_0 $end
     $var wire 1 F SPI_SO_3 $end
     $var wire 1 G SPI_SO_2 $end
     $var wire 1 H io_Registers_WriteEn $end
     $var wire 1 L SPI_SCLK $end
     $var wire 18 U io_MemPort_1_Address $end
     $var wire 1 X Memory_ReadWritePort_r_en_pipe_0 $end
     $var wire 1 v io_MemPort_0_Completed $end
     $var wire 2 } ProducerReg $end
     $var wire 1 "! io_MemPort_0_WriteEn $end
     $var wire 1 "/ io_MemPort_0_Enable $end
     $var wire 18 "3 io_Registers_Address $end
     $var wire 1 "s io_MemPort_1_WriteEn $end
     $var wire 18 #% io_MemPort_0_Address $end
     $var wire 11 #M Memory_ReadWritePort_r_addr_pipe_0 $end
     $var wire 1 #O SPI_SI_2 $end
     $var wire 1 #P SPI_SI_3 $end
     $var wire 1 #Q SPI_SI_0 $end
     $var wire 1 #R SPI_SI_1 $end
     $var wire 18 #a io_Registers_WriteData $end
     $var wire 18 $c Memory $end
     $var wire 1 $u io_MemPort_1_Enable $end
     $var wire 18 $v io_Registers_ReadData $end
     $var wire 2 $~ Producer $end
     $var wire 18 %( io_MemPort_0_ReadData $end
     $var wire 1 %* reset $end
     $var wire 1 %, SPI_CE $end
     $var wire 1 %- clock $end
     $var wire 1 %@ Taken $end
      $scope module ExternalMemory $end
       $var wire 24 % io_Address $end
       $var wire 1 9 reset $end
       $var wire 1 ; io_WriteEnable $end
       $var wire 1 \ clock $end
       $var wire 1 i RisingEdge $end
       $var wire 14 o CntReg $end
       $var wire 1 q ClockEn $end
       $var wire 1 r ClkRegDelay $end
       $var wire 24 s AddressReg $end
       $var wire 3 x SubStateReg $end
       $var wire 2 "2 DataReg_hi $end
       $var wire 1 "4 io_Ready $end
       $var wire 8 "E ClkCounter $end
       $var wire 2 "I DataReg_lo $end
       $var wire 1 "M io_Completed $end
       $var wire 1 "W SPI_SO_1 $end
       $var wire 1 "X SPI_SO_0 $end
       $var wire 1 "Y SPI_SO_3 $end
       $var wire 1 "Z SPI_SO_2 $end
       $var wire 16 "v WriteDataReg $end
       $var wire 1 #8 SPI_Drive $end
       $var wire 1 #; SPI_SCLK $end
       $var wire 18 #J io_WriteData $end
       $var wire 4 #Z StateReg $end
       $var wire 1 #_ ClkReg $end
       $var wire 1 #` io_ReadEnable $end
       $var wire 1 $< SPI_CE $end
       $var wire 16 $= DataReg $end
       $var wire 1 $m ClockReset $end
       $var wire 18 $z io_ReadData $end
       $var wire 1 %+ NextStateInv $end
       $var wire 1 %8 SPI_SI_1 $end
       $var wire 1 %9 SPI_SI_0 $end
       $var wire 1 %; SPI_SI_3 $end
       $var wire 1 %< SPI_SI_2 $end
       $var wire 1 %M SPI_mode $end
      $upscope $end
      $scope module Memory $end
       $var wire 18 #\ ReadWritePort_w $end
        $scope module ReadWritePort_w $end
         $var wire 18 8 data $end
         $var wire 11 O pipeline_addr_0 $end
         $var wire 1 t pipeline_valid_0 $end
         $var wire 11 z addr $end
         $var wire 1 "D valid $end
         $var wire 1 "e en $end
         $var wire 18 #c pipeline_data_0 $end
         $var wire 1 #d clk $end
         $var wire 1 %/ mask $end
        $upscope $end
        $scope module ReadWritePort_r $end
         $var wire 18 e data $end
         $var wire 11 #/ addr $end
         $var wire 1 %' en $end
         $var wire 1 %5 clk $end
        $upscope $end
      $upscope $end
    $upscope $end
    $scope module FirEngine $end
     $var wire 1 7 io_Registers_Enable $end
     $var wire 1 > io_MemPort_WriteEn $end
     $var wire 1 Q clock $end
     $var wire 18 R io_MemPort_WriteData $end
     $var wire 18 f io_MemPort_Address $end
     $var wire 18 k io_Registers_WriteData $end
     $var wire 18 p io_Registers_Address $end
     $var wire 18 "" DataReg_7 $end
     $var wire 18 "# DataReg_8 $end
     $var wire 18 "% DataReg_9 $end
     $var wire 18 "' DataReg_3 $end
     $var wire 18 "( DataReg_4 $end
     $var wire 18 ") DataReg_5 $end
     $var wire 18 "* DataReg_6 $end
     $var wire 18 "+ DataReg_0 $end
     $var wire 18 ", DataReg_1 $end
     $var wire 18 "- DataReg_2 $end
     $var wire 18 "h DataReg_68 $end
     $var wire 18 "i DataReg_67 $end
     $var wire 18 "j DataReg_69 $end
     $var wire 18 "k DataReg_71 $end
     $var wire 18 "l DataReg_70 $end
     $var wire 18 "m DataReg_73 $end
     $var wire 18 "n DataReg_72 $end
     $var wire 18 "o DataReg_75 $end
     $var wire 18 "p DataReg_74 $end
     $var wire 18 "q DataReg_77 $end
     $var wire 18 "r DataReg_76 $end
     $var wire 18 "t DataReg_79 $end
     $var wire 18 "u DataReg_78 $end
     $var wire 18 "w DataReg_82 $end
     $var wire 18 "x DataReg_81 $end
     $var wire 18 "y DataReg_84 $end
     $var wire 18 "{ DataReg_83 $end
     $var wire 18 "| DataReg_86 $end
     $var wire 18 "} DataReg_85 $end
     $var wire 18 "~ DataReg_88 $end
     $var wire 18 #! DataReg_87 $end
     $var wire 1 ## io_MemPort_Enable $end
     $var wire 18 #$ DataReg_80 $end
     $var wire 18 #& DataReg_89 $end
     $var wire 18 #' DataReg_93 $end
     $var wire 18 #( DataReg_92 $end
     $var wire 18 #) DataReg_95 $end
     $var wire 18 #* DataReg_94 $end
     $var wire 18 #+ DataReg_97 $end
     $var wire 18 #, DataReg_96 $end
     $var wire 18 #- DataReg_99 $end
     $var wire 18 #. DataReg_98 $end
     $var wire 18 #0 DataReg_91 $end
     $var wire 18 #1 DataReg_90 $end
     $var wire 18 #K io_Registers_ReadData $end
     $var wire 1 #T io_Registers_WriteEn $end
     $var wire 18 #] io_WaveOut $end
     $var wire 18 #e DataReg_24 $end
     $var wire 18 #f DataReg_23 $end
     $var wire 18 #g DataReg_26 $end
     $var wire 18 #h DataReg_25 $end
     $var wire 18 #i DataReg_28 $end
     $var wire 18 #j DataReg_27 $end
     $var wire 18 #k DataReg_29 $end
     $var wire 18 #l DataReg_31 $end
     $var wire 18 #m DataReg_30 $end
     $var wire 18 #n DataReg_33 $end
     $var wire 18 #o DataReg_32 $end
     $var wire 18 #q DataReg_35 $end
     $var wire 18 #r DataReg_34 $end
     $var wire 18 #s DataReg_37 $end
     $var wire 18 #t DataReg_36 $end
     $var wire 18 #u DataReg_39 $end
     $var wire 18 #v DataReg_38 $end
     $var wire 18 #w DataReg_40 $end
     $var wire 18 #x DataReg_42 $end
     $var wire 18 #y DataReg_41 $end
     $var wire 18 #z DataReg_44 $end
     $var wire 18 #{ DataReg_43 $end
     $var wire 18 #} DataReg_46 $end
     $var wire 18 #~ DataReg_45 $end
     $var wire 18 $! DataReg_48 $end
     $var wire 18 $" DataReg_47 $end
     $var wire 18 $% DataReg_49 $end
     $var wire 18 $& DataReg_51 $end
     $var wire 18 $' DataReg_50 $end
     $var wire 18 $( DataReg_53 $end
     $var wire 18 $) DataReg_52 $end
     $var wire 18 $* DataReg_55 $end
     $var wire 18 $+ DataReg_54 $end
     $var wire 18 $, DataReg_57 $end
     $var wire 18 $- DataReg_56 $end
     $var wire 18 $. DataReg_59 $end
     $var wire 18 $0 DataReg_58 $end
     $var wire 18 $1 DataReg_60 $end
     $var wire 18 $2 DataReg_62 $end
     $var wire 18 $3 DataReg_61 $end
     $var wire 18 $4 DataReg_64 $end
     $var wire 18 $5 DataReg_63 $end
     $var wire 18 $6 DataReg_66 $end
     $var wire 18 $7 DataReg_65 $end
     $var wire 18 $> DataReg_11 $end
     $var wire 18 $? DataReg_10 $end
     $var wire 18 $@ DataReg_13 $end
     $var wire 18 $A DataReg_12 $end
     $var wire 18 $B DataReg_15 $end
     $var wire 18 $C DataReg_14 $end
     $var wire 18 $D DataReg_17 $end
     $var wire 18 $E DataReg_16 $end
     $var wire 18 $F DataReg_19 $end
     $var wire 18 $G DataReg_18 $end
     $var wire 18 $H DataReg_20 $end
     $var wire 18 $I DataReg_22 $end
     $var wire 18 $J DataReg_21 $end
     $var wire 18 $M DataReg_113 $end
     $var wire 18 $N DataReg_114 $end
     $var wire 18 $O DataReg_115 $end
     $var wire 18 $P DataReg_116 $end
     $var wire 18 $Q DataReg_110 $end
     $var wire 18 $R DataReg_111 $end
     $var wire 18 $S DataReg_112 $end
     $var wire 18 $T DataReg_117 $end
     $var wire 18 $U DataReg_118 $end
     $var wire 18 $W DataReg_119 $end
     $var wire 18 $X DataReg_102 $end
     $var wire 18 $Y DataReg_103 $end
     $var wire 18 $Z DataReg_104 $end
     $var wire 18 $[ DataReg_105 $end
     $var wire 18 $\ DataReg_100 $end
     $var wire 18 $^ DataReg_101 $end
     $var wire 18 $_ DataReg_106 $end
     $var wire 18 $` DataReg_107 $end
     $var wire 18 $a DataReg_108 $end
     $var wire 18 $b DataReg_109 $end
     $var wire 18 $d DataReg_124 $end
     $var wire 18 $e DataReg_125 $end
     $var wire 18 $f DataReg_126 $end
     $var wire 18 $g DataReg_127 $end
     $var wire 18 $h DataReg_120 $end
     $var wire 18 $i DataReg_121 $end
     $var wire 18 $j DataReg_122 $end
     $var wire 18 $k DataReg_123 $end
    $upscope $end
  $upscope $end
  $scope module SubDSP.DataMemory $end
  $upscope $end
  $scope module SubDSP.Core.DecodeStage $end
  $upscope $end
  $scope module SubDSP.DataMemory.ExternalMemory $end
  $upscope $end
  $scope module SubDSP.Core $end
  $upscope $end
  $scope module SubDSP.Core.FetchStage.InstructionMem $end
  $upscope $end
  $scope module SubDSP.Core.ExecuteStage $end
  $upscope $end
  $scope module SubDSP.Core.ExecuteStage.BranchComp $end
  $upscope $end
  $scope module SubDSP.Core.FetchStage $end
  $upscope $end
  $scope module SubDSP.Core.DecodeStage.InstDec $end
  $upscope $end
  $scope module SubDSP.FirEngine $end
  $upscope $end
$upscope $end
$enddefinitions $end
$dumpvars
0"!
0".
0"/
0"4
0"6
0"8
1#Y
0";
0#"
0##
0"C
0"D
0"J
0"M
0#2
0#3
0#4
0"U
0#7
0"W
0#8
0"X
0"Y
0#:
0"Z
0#;
0$$
0"e
0#F
0#G
0#H
b000000 J
0#I
0#L
0#O
0#P
0#Q
0#R
0"s
0#T
0#U
0#V
0#W
b00 }
0#X
0$9
0$:
b00 {
0$;
0"z
0$<
0#_
0#`
0%$
0%%
0#d
0%&
0%'
b00 g
0%*
0%+
0%,
b00 j
0%-
0%.
0%/
0%0
0%1
0#p
0%2
0%3
0%4
0%5
b00 Y
0$V
0%8
0%9
0%;
0%<
b00 Z
0#|
0%@
0%C
0%H
0%M
0$m
0$n
0$s
0$t
0$u
0$w
0${
b00000000000 W
b00000000000 l
b000000000000000000000000 s
b0000000000 "9
b00000000000 z
b0000000000 "V
b000000000 "H
b00000000000 !
b0000000000 u
b00000000000 $y
b00000000000 $x
b00000000000 1
b00000000000 %J
b00000000000 @
b00000000000 %N
b0000000000 I
b00000000000 K
b00000000000 O
b010101000000000110 ":
b00000000000 %!
b0000000000 $|
b00000000000 #M
b00000000000 #/
b0000 "0
b00000000000 "7
b00000000000 "?
b0000000000000000 |
b0000 "K
b0000 "L
b0000 "Q
b0000 "P
b0000 "S
b0000 "R
b0000 "T
b0000000000000000 N
b0000000000000000 T
b0000 "[
0(
0)
0*
0+
0,
0-
0.
00
02
03
04
06
07
09
0:
0;
0=
0>
0?
0B
0D
b0000 #Z
b00000000 w
b000000000000000000 U
0E
b000000000000000000 R
0F
0G
b0000 #[
0H
b000000000000000000 V
0L
b000000000000000000 ]
0M
b0000 %#
b0000 $
b000000000000000000 `
0P
0Q
b0000 "
b000000000000000000 ^
b0000 #
0S
b000000000000000000 d
b000000000000000000 e
0X
b000000000000000000 f
0[
0\
b00 $~
b0000 &
b0000 '
b000000000000000000 k
0_
b000000 $}
b000000000000000000 p
0a
0b
0c
0h
0i
b000000 %K
0n
0q
0r
0t
0v
b0000 $l
0y
b0000 $q
b000000 %:
0~
b00 %)
b00 #b
b000000 $/
b00 #6
b00 "I
b000 x
b00 "F
b00 "1
b00 "2
b000000000000000000000000 %
b00000000000000 o
b000000000000000000 /
b000000000000000000 5
b000000000000000000 8
b000000000000000000 $v
b000000000000000000 $z
b000000000000000000 $i
b000000000000000000 $h
b000000000000000000 %I
b000000000000000000 $g
b000000000000000000 $f
b000000000000000000 %G
b000000000000000000 $k
b000000000000000000 %L
b000000000000000000 $j
b000000000000000000 $p
b000000000 <
b000000000000000000 "w
b000000000000000000 $8
b000000000000000000 "u
b000000000000000000 $7
b000000000000000000 "t
b000000000000000000 $6
b000000000000000000 "{
b000000000000000000 #\
b000000000000000000 "y
b000000000000000000 "x
b000000000000000000 $A
b000000000000000000 %"
b000000000000000000 "~
b000000000000000000 $@
b000000000000000000 "}
b000000000000000000 #^
b000000000000000000 $?
b000000000000000000 "|
b000000000000000000 #]
b000000000000000000 $>
b000000000000000000 $E
b000000000000000000 #c
b000000000000000000 $D
b000000000000000000 $C
b000000000000000000 #a
b000000000000000000 $B
b000000000000000000 "g
b000000000000000000 $)
b000000000000000000 "f
b000000000000000000 $(
b000000000000000000 $'
b000000000000000000 "d
b000000000000000000 #E
b000000000000000000 $&
b000000000000000000 "k
b000000000000000000 $-
b000000000000000000 "j
b000000000000000000 #K
b000000000000000000 $,
b000000000000000000 "i
b000000000000000000 #J
b000000000000000000 $+
b000000000000000000 "h
b000000000000000000 $*
b000000000000000000 "o
b000000000000000000 $1
b000000000000000000 "n
b000000000000000000 $0
b000000000000000000 "m
b000000000000000000 "l
b000000000000000000 $.
b000000000000000000 $5
b000000000000000000 "r
b000000000000000000 #S
b000000000000000000 $4
b000000000000000000 "q
b000000000000000000 $3
b000000000000000000 "p
b000000000000000000 $2
b000000000000000000 #x
b000000000000000000 $Y
b000000000000000000 #w
b000000000000000000 $X
b000000000000000000 #v
b000000000000000000 $W
b00000000 "E
b000000000000000000 #u
b000000000000000000 %7
b000000000000000000 $]
b000000000000000000 %>
b000000000000000000 #{
b000000000000000000 $\
b000000000000000000 %=
b000000000000000000 #z
b000000000000000000 $[
b000000000000000000 #y
b000000000000000000 $Z
b000000000000000000 $a
b000000000000000000 %B
b000000000000000000 $`
b000000000000000000 %A
b000000000000000000 #~
b000000000000000000 $_
b000000000000000000 #}
b000000000000000000 $^
b000000000000000000 %?
b000000000000000000 $e
b000000000000000000 %F
b000000000000000000 $d
b000000000000000000 %E
b000000000000000000 $c
b000000000000000000 %D
b000000000000000000 $b
b000000000000000000 #h
b000000000000000000 $I
b000000000000000000 #g
b000000000000000000 $H
b000000000000000000 #f
b000000000000000000 $G
b000000000000000000 %(
b000000000000000000 #e
b000000000000000000 $F
b000000000000000000 #l
b000000000000000000 $M
b000000000000000000 #k
b000000000000000000 $L
b000000000000000000 #j
b000000000000000000 $K
b000000000000000000 #i
b000000000000000000 $J
b000000000000000000 $Q
b000000000000000000 #o
b000000000000000000 $P
b000000000000000000 #n
b000000000000000000 $O
b000000000000000000 #m
b000000000000000000 $N
b000000000000000000 #t
b000000000000000000 $U
b000000000000000000 %6
b000000000000000000 #s
b000000000000000000 $T
b000000000000000000 #r
b000000000000000000 $S
b000000000000000000 #q
b000000000000000000 $R
b000000000000000000 "5
b0000000000000000 "v
b0000000000000000 $=
b000000000000000000 ">
b000000000000000000 "=
b000000000000000000 "<
b000000000000000000 #$
b000000000000000000 "B
b000000000000000000 "A
b000000000000000000 "@
b000000000000000000 #!
b000000000000000000 "'
b000000000000000000 "&
b000000000000000000 "%
b000000000000000000 "$
b000000000000000000 "+
b000000000000000000 "*
b000000000000000000 ")
b000000000000000000 "(
b0000000000000000 #N
b000000000000000000 "-
b000000000000000000 ",
b000000000000000000 "3
b000000000000000000 #5
b000000000000000000 #<
b000000000000000000 #9
b000000000000000000 "_
b000000000000000000 #@
b000000000000000000 $!
b000000000000000000 "^
b000000000000000000 #?
b000000000000000000 "]
b000000000000000000 #>
b000000000000000000 "\
b000000000000000000 #=
b000000000000000000 "c
b000000000000000000 #D
b000000000000000000 $%
b000000000000000000 "b
b000000000000000000 #C
b000000000000000000 "a
b000000000000000000 #B
b000000000000000000 $#
b000000000000000000 "`
b000000000000000000 #A
b000000000000000000 $"
b000000000000000000 "G
b000000000000000000 #(
b000000000000000000 #'
b000000000000000000 #&
b000000000000000000 #%
b000000000000000000 #,
b000000000000000000 #+
b000000000000000000 #*
b000000000000000000 #)
b000000000000000000 "O
b000000000000000000 #0
b000000000000000000 "N
b000000000000000000 #.
b000000000000000000 #-
b000000000000000000 #1
b0000 C
b0000 A
b0000000000000000 $o
b0000000000000000 $r
b0000 m
b000000000000000000 "#
b000000000000000000 ""
$end
#0
b00000000110 !
b0001 C
b010101000000000110 d
b01 "F
1#G
b010101000000000110 "f
1%*
b0100 &
1%,
1"J
1.
1n
1$t
b00000000110 1
b010101000000000110 #5
b010101000000000110 "5
1#7
b010101000000000110 #9
1$<
19
1#|
1~
1%$
#1
1$$
b000000000000000001 #C
b000000000000000001 "c
1#d
1%-
1%M
b0000000001 I
1#L
1".
1#p
1#2
1%5
1Q
1#4
b000000000000000001 %6
1"U
b0000000001 "9
1#:
1y
1";
1:
1\
#6
0$$
0#d
0#G
0%*
0"J
0%-
0#L
0".
0#p
0#2
0%5
0Q
0#4
0"U
0#7
09
0";
0#|
0:
0\
0~
#11
1$$
b000000000000000010 #C
b000000000000000010 "c
b000010001100100100 "f
1#L
0$<
b0001 %#
b01 #b
0%$
b00000000000 !
1#d
b0100 "
b0011 &
0%,
1%-
b000000000000000110 $L
1#p
1%5
b00000000000 1
b000000000000000010 %6
b000000000000000110 %=
1:
b000000110 <
b00000000110 @
b0001 A
b0010 C
b000000110000000000 %I
b00000000110 %J
b0100 $l
b0000000010 I
b00000000110 %N
1$m
b00000000110 K
1".
b0001 "0
1Q
b000010001100100100 "5
b00000000110 W
b0000000010 "9
b0000000001 $|
1";
b01 Z
1\
b00000000110 "?
b00000001 "E
b000010001100100100 d
b00 "F
b0001 m
0n
b0100 "P
b00000000000001 o
1#2
b0010 "Q
b0100 "R
1#4
b0001 "T
b000010001100100100 #5
1"U
b01 #6
b0000000001 "V
b0000000001 u
b000010001100100100 #9
#16
0$$
0#d
0%-
0#L
0".
0#p
0#2
0%5
0Q
0#4
0"U
0";
0:
0\
#21
1$$
b000000000000000011 #C
b000000000000000011 "c
b010100010000000000 "f
1#L
b000000000000000110 $8
b0001 #Z
b0100 #[
b0010 %#
b00 #b
1%&
1#d
b0011 "
b0100 #
b0010 $
b0001 &
b0010 '
b000000000000000110 $K
1(
1%-
b000000000000000000 $L
1-
1#p
1%5
b000000000000000011 %6
b000000000000000000 %=
b000000000000000110 $]
1:
b000000000 <
b00000000000 @
b0010 A
b0001 C
b000000000000000110 "&
b000000000000000000 %I
b00000000000 %J
b0011 $l
b0000000011 I
b00000000000 %N
0$m
b00000000000 K
1".
b0100 $q
b0010 "0
1Q
b010100010000000000 "5
b00000000000 W
b0000000011 "9
b0000000010 $|
1";
b00 Z
1\
b00000000000 "?
b00000000 "E
b010100010000000000 d
b01 "F
b0100 "K
b0100 "L
b0011 "P
b00000000000000 o
1#2
b0000 "Q
b0000 "R
1q
b0010 "S
1#4
b010100010000000000 #5
1"U
b00 #6
b0000000010 "V
b0000000010 u
1#8
b010100010000000000 #9
b00000010 w
b0100 "[
#26
0$$
0#d
0%-
0#L
0".
0#p
0#2
0%5
0Q
0#4
0"U
0";
0:
0\
#31
1$$
b000000000000000100 #C
b000000000000000100 "c
b000000000000000110 #D
1#L
b000000000000000000 $8
b0011 #[
b0001 %#
b01 #b
1#d
b0001 "
b0000 #
b0000 $
b0000 '
b000000000000000000 $K
1%-
1#p
1%5
b000000000000000100 %6
b000000000000000000 $]
1:
b0001 A
b000000000000000000 "&
b000000000000000100 %I
b0001 $l
b0000000100 I
1".
b0011 $q
b0001 "0
1Q
b0000000100 "9
b0000000011 $|
1";
b01 Z
1\
b00000001 "E
b000000100 "H
b0000 "K
b0011 "L
b000000000000000100 "O
b0001 "P
1#2
b0000 "S
1#4
1"U
b01 #6
b0000000011 "V
b0000000011 u
b00000000 w
b0000 "[
b000000000000000110 "`
#36
0$$
0#d
0%-
0#L
0".
0#p
0#2
0%5
0Q
0#4
0"U
0";
0:
0\
#41
1$$
b000000000000000101 #C
b000000000000000101 "c
1#F
b000000000000000000 "f
1#L
b0001 #[
1#_
b0000 %#
1#d
b0000 "
b0000 &
1%-
1#p
1%5
b000000000000000101 %6
1:
b0000 C
b000000000000000000 %I
b0000 $l
b0000000101 I
1L
1".
b0001 $q
b0000 "0
1$s
1Q
1$w
b0000000101 "9
1${
b0000000100 $|
1";
b00 Z
1\
b00000000 "E
b000000000000000000 d
b00 "F
b000000000 "H
1i
b0001 "L
b000000000000000000 "O
1#2
1#3
1#4
b000000000000000000 #5
1"U
b00 #6
b0000000100 "V
b0000000100 u
1#;
#46
0$$
0#d
0%-
0#L
0".
0#p
0#2
0%5
0Q
0#4
0"U
0";
0:
0\
#51
1$$
b000000000000000000 #C
b0000 A
b000000000000000000 "c
b0000000000 I
1#L
1".
b0000 $q
0$s
1Q
0$w
b0000000000 "9
b0000 #[
b0000000101 $|
1";
1\
b00 #b
1#d
b00000001 "E
1%+
1%-
0i
b0000 "L
1#p
b0000 "P
1#2
10
0#3
1%5
1#4
b000000000000000000 %6
1r
1"U
b0000000101 "V
b0000000101 u
1:
