test_run_dir/test_should_pass/DSP.vcd
$date
2022-06-15T11:33+0000
$end
$version
0.2
$end
$comment

$end
$timescale 1ns  $end
$scope module DSP $end
 $var wire 1 N clock $end
 $var wire 1 W io_Out $end
 $var wire 1 "( io_In $end
 $var wire 1 ". reset $end
 $var wire 1 "C IOC $end
  $scope module IOC.Filter $end
  $upscope $end
  $scope module IOC.ADC $end
  $upscope $end
  $scope module IOC $end
   $var wire 18 & DACHold $end
   $var wire 18 , io_Out_ADC $end
   $var wire 1 1 reset $end
   $var wire 1 2 clock $end
   $var wire 1 4 lastSampleType $end
   $var wire 18 7 ADCReg $end
   $var wire 18 C DACReg $end
   $var wire 1 D check2 $end
   $var wire 1 E check1 $end
   $var wire 1 F sampleType $end
   $var wire 1 L beginSample $end
   $var wire 1 S io_In_ADC $end
   $var wire 1 T DACEn $end
   $var wire 1 X DAC $end
   $var wire 1 [ Filter $end
   $var wire 1 f isLoading $end
   $var wire 1 } ADC $end
   $var wire 18 "! ADCHold $end
   $var wire 18 "& io_In_DAC $end
   $var wire 10 ") cntReg $end
   $var wire 1 "7 ADCEn $end
   $var wire 1 "8 io_Out_DAC $end
    $scope module Filter $end
     $var wire 1 $ OutputSampleMemory_ReadOutputSample_MPORT_en_pipe_0 $end
     $var wire 11 + SampleCount $end
     $var wire 11 / InputSamplePointer $end
     $var wire 18 0 io_WaveOut $end
     $var wire 7 3 maxcountwire $end
     $var wire 1 6 InputSampleMemory_ReadInputSample_MPORT_en_pipe_0 $end
     $var wire 1 8 io_ADCEnable $end
     $var wire 11 ; InputSampleMemory_ReadInputSample_MPORT_addr_pipe_0 $end
     $var wire 11 = OutputSampleMemory_ReadOutputSample_MPORT_addr_pipe_0 $end
     $var wire 11 @ OutputSamplePointer $end
     $var wire 1 G io_SampleType $end
     $var wire 18 H CoeffWire $end
     $var wire 18 I OutputSampleMemory $end
     $var wire 18 J MAccReg $end
     $var wire 10 Q CoeffMemory_CoeffWire_MPORT_addr_pipe_0 $end
     $var wire 36 \ Fircomputation36 $end
     $var wire 18 ^ ReadInputSample $end
     $var wire 18 b Fircomputation18 $end
     $var wire 11 g SampleAdress $end
     $var wire 1 h clock $end
     $var wire 18 u OutputReg $end
     $var wire 1 z io_DACEnable $end
     $var wire 6 "- Halfcountwire $end
     $var wire 18 "/ FIRInput $end
     $var wire 18 "0 io_DACWaveIn $end
     $var wire 18 "5 CoeffMemory $end
     $var wire 18 ": io_ADCWaveIn $end
     $var wire 1 "@ CoeffMemory_CoeffWire_MPORT_en_pipe_0 $end
     $var wire 18 "B InputSampleMemory $end
     $var wire 18 "D ReadOutputSample $end
     $var wire 1 "F io_Completed $end
     $var wire 11 "G CoeffCount $end
      $scope module OutputSampleMemory $end
       $var wire 18 "# MPORT $end
       $var wire 18 "1 MPORT_1 $end
        $scope module MPORT $end
         $var wire 11 ! pipeline_addr_0 $end
         $var wire 18 - pipeline_data_0 $end
         $var wire 1 A en $end
         $var wire 1 P pipeline_valid_0 $end
         $var wire 1 e valid $end
         $var wire 1 o clk $end
         $var wire 11 x addr $end
         $var wire 18 "' data $end
         $var wire 1 "> mask $end
        $upscope $end
        $scope module MPORT_1 $end
         $var wire 1 ' pipeline_valid_0 $end
         $var wire 11 M pipeline_addr_0 $end
         $var wire 1 Y en $end
         $var wire 18 ` pipeline_data_0 $end
         $var wire 1 l valid $end
         $var wire 1 n clk $end
         $var wire 11 y addr $end
         $var wire 18 "6 data $end
         $var wire 1 "? mask $end
        $upscope $end
        $scope module ReadOutputSample_MPORT $end
         $var wire 18 d data $end
         $var wire 1 r clk $end
         $var wire 1 "2 en $end
         $var wire 11 "4 addr $end
        $upscope $end
      $upscope $end
      $scope module InputSampleMemory $end
       $var wire 18 v MPORT_2 $end
       $var wire 18 w MPORT_3 $end
        $scope module MPORT_3 $end
         $var wire 18 % pipeline_data_0 $end
         $var wire 11 . pipeline_addr_0 $end
         $var wire 1 ? mask $end
         $var wire 1 O en $end
         $var wire 11 a addr $end
         $var wire 18 i data $end
         $var wire 1 m valid $end
         $var wire 1 "+ clk $end
         $var wire 1 "A pipeline_valid_0 $end
        $upscope $end
        $scope module MPORT_2 $end
         $var wire 1 5 valid $end
         $var wire 11 : addr $end
         $var wire 1 Z mask $end
         $var wire 1 ] en $end
         $var wire 11 c pipeline_addr_0 $end
         $var wire 1 j pipeline_valid_0 $end
         $var wire 1 t clk $end
         $var wire 18 { data $end
         $var wire 18 ~ pipeline_data_0 $end
        $upscope $end
        $scope module ReadInputSample_MPORT $end
         $var wire 1 "" en $end
         $var wire 1 "$ clk $end
         $var wire 11 "= addr $end
         $var wire 18 "E data $end
        $upscope $end
      $upscope $end
      $scope module CoeffMemory $end
        $scope module CoeffWire_MPORT $end
         $var wire 18 R data $end
         $var wire 1 U en $end
         $var wire 10 k addr $end
         $var wire 1 q clk $end
        $upscope $end
      $upscope $end
    $upscope $end
    $scope module DAC $end
     $var wire 4 " cntReg $end
     $var wire 18 # io_InFIR $end
     $var wire 18 ( DDC $end
     $var wire 1 ) reset $end
     $var wire 1 * clock $end
     $var wire 1 9 tick $end
     $var wire 18 B ZReg $end
     $var wire 1 V io_OutPWM $end
     $var wire 18 _ io_OutFIR $end
     $var wire 18 "% io_In $end
     $var wire 16 "; Diff $end
     $var wire 16 "< ZIn $end
    $upscope $end
    $scope module ADC $end
     $var wire 1 < io_In $end
     $var wire 18 > io_OutFIR $end
     $var wire 1 K clock $end
     $var wire 18 p sample $end
     $var wire 18 s io_Out $end
     $var wire 8 | cntReg $end
     $var wire 1 "* tick $end
     $var wire 1 ", reset $end
     $var wire 18 "3 inReg $end
     $var wire 18 "9 io_InFIR $end
    $upscope $end
  $upscope $end
  $scope module IOC.DAC $end
  $upscope $end
$upscope $end
$enddefinitions $end
$dumpvars
01
b000000000000000000 >
02
04
05
b000000000000000000 B
06
b000000000000000000 C
b000000000000000000 H
08
b000000000000000000 I
09
b0000000000 ")
0<
b000000000000000000 J
0A
b00000000 |
0D
0E
b000000000000000000 R
0F
b00001100011 y
0G
b00000000000 c
0K
0L
0N
b00000000000 g
0O
b000000000000000000 `
0P
b0000 "
b000000000000000000 ^
b000000000000000000 _
0S
b000000000000000000 d
0T
0U
b000000000000000000 b
0V
0W
0X
b000000000000000000 i
0Y
0[
b00000000000 x
0]
1?
b000000000000000000 p
b000000000000000000 u
0e
0f
b000000000000000000 s
0h
b000000000000000000 v
0j
b000000000000000000 w
0l
0m
0n
b000000000000000000 {
b00001100011 a
0o
0q
b000000000000000000 ~
0r
0t
b00000000000 !
b0000000000000000 ";
b0000000000000000 "<
1Z
0z
0}
1">
1"?
b000000000100110100 "5
b00000000000 +
b00000000000 .
b00000000000 /
b0000000000 k
b00000000000 =
b00000000000 :
b00000000000 ;
b00000000000 @
b0000000000 Q
0""
b00000000000 M
0"$
0"(
0"*
0"+
0",
0".
0"2
b000000000000000000 "6
b000000000000000000 ":
0"7
b000000000000000000 "9
0"8
b000000000000000000 "B
0"@
0"A
b000000000000000000 "'
b000000000000000000 "&
0"C
b000000000000000000 "%
0"F
b000000000000000000 "/
b000000000000000000 "3
b000000000000000000 "1
b000000000000000000 "0
b000000 "-
b000000000000000000 "E
b000000000000000000 "D
b00000000000 "G
b00000000000 "4
b000000000000000000000000000000000000 \
b0000000 3
b00000000000 "=
b000000000000000000 %
b000000000000000000 #
b000000000000000000 (
b000000000000000000 &
b000000000000000000 ,
b000000000000000000 "#
b000000000000000000 -
b000000000000000000 "!
b000000000000000000 0
0$
0'
0)
0*
b000000000000000000 7
$end
#0
1"F
b00000000001 "G
b111111111111111111 (
b000000000100110100 H
1)
1",
b110001 "-
1".
11
b000000000100110100 R
b1100011 3
1V
1"8
1W
b11111111111 x
19
b0000000000000001 ";
b11111111111 :
b0000000000000001 "<
#1
1""
1"$
b000000000000010000 "%
b000000000000010000 "&
1F
1G
b111111111111010111 H
1"+
1K
b00001100011 M
1N
1"2
b0000000001 Q
b111111111111010111 R
1T
1U
1Y
1"@
b000000000000010000 _
b11111111111 !
b11111111111 c
1$
0"F
b00000000010 "G
b00000000001 g
1h
1*
b00000000001 +
b0000000001 k
b000000000000010000 ,
1l
b00001100011 .
1n
1o
b000000000000010000 p
1q
12
1r
b000000000000010000 s
1t
16
1z
#6
0"$
0h
0)
0"+
0*
0",
0K
0".
0N
0n
0o
01
0q
02
0r
0t
#11
b00001100011 @
1A
b000000000000000001 B
1"$
b000000000000010000 C
b000000000000010000 "'
b111111111111010011 H
1"+
1K
1N
b000000000000010000 "0
b0000000010 Q
b111111111111010011 R
b00000000001 "4
b000000000000010000 "6
0Y
b0000000000000010 "<
b00000000001 "=
b000000000000000000 _
b0001 "
1e
b00000000011 "G
1f
1'
1h
1*
b00000000010 +
b0000000010 k
0l
1n
1o
1q
12
1r
1t
b00001100010 x
09
b00000000001 ;
b00000001 |
b00000000001 =
#16
0"$
1"(
0h
0"+
0*
0K
0N
0n
0o
0q
02
0r
1S
0t
1<
#21
b00001100010 @
b000000000000000010 B
1"$
b000000000000000000 C
b000000000000000000 "'
b0000000001 ")
b111111111111001011 H
1"+
1K
1N
b000000000000000000 "0
1P
b0000000011 Q
b100000000000000000 "3
b111111111111001011 R
b000000000000000000 "6
b0000000000000011 "<
b000000000000010000 `
b00001100010 !
b0010 "
b00000000100 "G
0'
1h
1*
b00000000011 +
b0000000011 k
b000000000000010000 -
1n
1o
1q
12
1r
1t
b00001100001 x
b00000010 |
b100000000000000000 >
#26
0"$
0"(
0h
0"+
0*
0K
0N
0n
0o
0q
02
0r
0S
0t
0<
#31
b00001100001 @
b000000000000000011 B
1"$
b0000000010 ")
b111111111110111111 H
1"+
1K
1N
b0000000100 Q
b010000000000000000 "3
b111111111110111111 R
b100000000000000000 ":
b0000000000000100 "<
b000000000000000000 `
b00001100001 !
b0011 "
b00000000101 "G
1h
b100000000000000000 i
1*
b00000000100 +
b0000000100 k
b000000000000000000 -
1n
1o
1q
12
1r
1t
b100000000000000000 7
b00001100000 x
b100000000000000000 {
b00000011 |
b110000000000000000 >
#36
0"$
1"(
0h
0"+
0*
0K
0N
0n
0o
0q
02
0r
1S
0t
1<
#41
b00001100000 @
b000000000000000100 B
1"$
b0000000011 ")
b111111111110110000 H
1"+
1K
1N
b0000000101 Q
b101000000000000000 "3
b111111111110110000 R
b110000000000000000 ":
b0000000000000101 "<
b00001100000 !
b0100 "
b100000000000000000 %
b00000000110 "G
1h
b110000000000000000 i
1*
b00000000101 +
b0000000101 k
1n
1o
1q
12
1r
1t
b110000000000000000 7
b00001011111 x
b110000000000000000 {
b00000100 |
b011000000000000000 >
b100000000000000000 ~
#46
0"$
0"(
0h
0"+
0*
0K
0N
0n
0o
0q
02
0r
0S
0t
0<
#51
b00001011111 @
b000000000000000101 B
1"$
b0000000100 ")
b111111111110011111 H
1"+
1K
1N
b0000000110 Q
b010100000000000000 "3
b111111111110011111 R
b011000000000000000 ":
b0000000000000110 "<
b00001011111 !
b0101 "
b110000000000000000 %
b00000000111 "G
1h
b011000000000000000 i
1*
b00000000110 +
b0000000110 k
1n
1o
1q
12
1r
1t
b011000000000000000 7
b00001011110 x
b011000000000000000 {
b00000101 |
b101100000000000000 >
b110000000000000000 ~
#56
0"$
0h
0"+
0*
0K
0N
0n
0o
0q
02
0r
0t
#61
b00001011110 @
b000000000000000110 B
1"$
b0000000101 ")
b111111111110001010 H
1"+
1K
1N
b0000000111 Q
b001010000000000000 "3
b111111111110001010 R
b101100000000000000 ":
b0000000000000111 "<
b00001011110 !
b0110 "
b011000000000000000 %
b00000001000 "G
1h
b101100000000000000 i
1*
b00000000111 +
b0000000111 k
1n
1o
1q
12
1r
1t
b101100000000000000 7
b00001011101 x
b101100000000000000 {
b00000110 |
b110110000000000000 >
b011000000000000000 ~
#66
0"$
0h
0"+
0*
0K
0N
0n
0o
0q
02
0r
0t
#71
b00001011101 @
b000000000000000111 B
1"$
b0000000110 ")
b111111111101110100 H
1"+
1K
1N
b0000001000 Q
b000101000000000000 "3
b111111111101110100 R
b110110000000000000 ":
b0000000000001000 "<
b00001011101 !
b0111 "
b101100000000000000 %
b00000001001 "G
1h
b110110000000000000 i
1*
b00000001000 +
b0000001000 k
1n
1o
1q
12
1r
1t
b110110000000000000 7
b00001011100 x
b110110000000000000 {
b00000111 |
b111011000000000000 >
b101100000000000000 ~
#76
0"$
1"(
0h
0"+
0*
0K
0N
0n
0o
0q
02
0r
1S
0t
1<
#81
b00001011100 @
b000000000000001000 B
1"$
b0000000111 ")
b111111111101011100 H
1"+
1K
1N
b0000001001 Q
b100010100000000000 "3
b111111111101011100 R
b111011000000000000 ":
b0000000000001001 "<
b00001011100 !
b1000 "
b110110000000000000 %
b00000001010 "G
1h
b111011000000000000 i
1*
b00000001001 +
b0000001001 k
1n
1o
1q
12
1r
1t
b111011000000000000 7
b00001011011 x
b111011000000000000 {
b00001000 |
b011101100000000000 >
b110110000000000000 ~
#86
0"$
0h
0"+
0*
0K
0N
0n
0o
0q
02
0r
0t
#91
b00001011011 @
b000000000000001001 B
1"$
b0000001000 ")
b111111111101000010 H
1"+
1K
1N
b0000001010 Q
b110001010000000000 "3
b111111111101000010 R
b011101100000000000 ":
b0000000000001010 "<
b00001011011 !
b1001 "
b111011000000000000 %
b00000001011 "G
1h
b011101100000000000 i
1*
b00000001010 +
b0000001010 k
1n
1o
1q
12
1r
1t
b011101100000000000 7
b00001011010 x
b011101100000000000 {
b00001001 |
b001110110000000000 >
b111011000000000000 ~
#96
0"$
0"(
0h
0"+
0*
0K
0N
0n
0o
0q
02
0r
0S
0t
0<
#101
b00001011010 @
b000000000000001010 B
1"$
b0000001001 ")
b111111111100101000 H
1"+
1K
1N
b0000001011 Q
b011000101000000000 "3
b111111111100101000 R
b001110110000000000 ":
b0000000000001011 "<
b00001011010 !
b1010 "
b011101100000000000 %
b00000001100 "G
1h
b001110110000000000 i
1*
b00000001011 +
b0000001011 k
1n
1o
1q
12
1r
1t
b001110110000000000 7
b00001011001 x
b001110110000000000 {
b00001010 |
b100111011000000000 >
b011101100000000000 ~
#106
0"$
0h
0"+
0*
0K
0N
0n
0o
0q
02
0r
0t
#111
b00001011001 @
b000000000000001011 B
1"$
b0000001010 ")
b111111111100001101 H
1"+
1K
1N
b0000001100 Q
b001100010100000000 "3
b111111111100001101 R
b100111011000000000 ":
b0000000000001100 "<
b00001011001 !
b1011 "
b001110110000000000 %
b00000001101 "G
1h
b100111011000000000 i
1*
b00000001100 +
b0000001100 k
1n
1o
1q
12
1r
1t
b100111011000000000 7
b00001011000 x
b100111011000000000 {
b00001011 |
b110011101100000000 >
b001110110000000000 ~
#116
0"$
0h
0"+
0*
0K
0N
0n
0o
0q
02
0r
0t
#121
b00001011000 @
b000000000000001100 B
1"$
b0000001011 ")
b111111111011110011 H
1"+
1K
1N
b0000001101 Q
b000110001010000000 "3
b111111111011110011 R
b110011101100000000 ":
b0000000000001101 "<
b00001011000 !
b1100 "
b100111011000000000 %
b00000001110 "G
1h
b110011101100000000 i
1*
b00000001101 +
b0000001101 k
1n
1o
1q
12
1r
1t
b110011101100000000 7
b00001010111 x
b110011101100000000 {
b00001100 |
b111001110110000000 >
b100111011000000000 ~
#126
0"$
0h
0"+
0*
0K
0N
0n
0o
0q
02
0r
0t
#131
b00001010111 @
b000000000000001101 B
1"$
b0000001100 ")
b111111111011011001 H
1"+
1K
1N
b0000001110 Q
b000011000101000000 "3
b111111111011011001 R
b111001110110000000 ":
b0000000000001110 "<
b00001010111 !
b1101 "
b110011101100000000 %
b00000001111 "G
1h
b111001110110000000 i
1*
b00000001110 +
b0000001110 k
1n
1o
1q
12
1r
1t
b111001110110000000 7
b00001010110 x
b111001110110000000 {
b00001101 |
b111100111011000000 >
b110011101100000000 ~
#136
0"$
0h
0"+
0*
0K
0N
0n
0o
0q
02
0r
0t
#141
b00001010110 @
b000000000000001110 B
1"$
b0000001101 ")
b111111111011000000 H
1"+
1K
1N
b0000001111 Q
b000001100010100000 "3
b111111111011000000 R
b111100111011000000 ":
b0000000000001111 "<
b00001010110 !
b1110 "
b111001110110000000 %
b00000010000 "G
1h
b111100111011000000 i
1*
b00000001111 +
b0000001111 k
1n
1o
1q
12
1r
1t
b111100111011000000 7
b00001010101 x
b111100111011000000 {
b00001110 |
b111110011101100000 >
b111001110110000000 ~
#146
0"$
1"(
0h
0"+
0*
0K
0N
0n
0o
0q
02
0r
1S
0t
1<
#151
b00001010101 @
b000000000000001111 B
1"$
b0000001110 ")
b111111111010101001 H
1"+
1K
1N
b0000010000 Q
b100000110001010000 "3
b111111111010101001 R
b111110011101100000 ":
b0000000000010000 "<
b00001010101 !
b1111 "
b111100111011000000 %
b00000010001 "G
1h
b111110011101100000 i
1*
b00000010000 +
b0000010000 k
1n
1o
1q
12
1r
1t
b111110011101100000 7
b00001010100 x
b111110011101100000 {
b00001111 |
b011111001110110000 >
b111100111011000000 ~
#156
0"$
0h
0"+
0*
0K
0N
0n
0o
0q
02
0r
0t
#161
b00001010100 @
b000000000000010000 B
1"$
b0000001111 ")
b111111111010010100 H
1"+
1K
1N
b0000010001 Q
b110000011000101000 "3
b111111111010010100 R
b011111001110110000 ":
b0000000000010001 "<
b000000000000010000 _
b00001010100 !
b0000 "
b111110011101100000 %
b00000010010 "G
1h
b011111001110110000 i
1*
b00000010001 +
b0000010001 k
1n
1o
1q
12
1r
1t
b011111001110110000 7
b00001010011 x
19
b011111001110110000 {
b00010000 |
b001111100111011000 >
b111110011101100000 ~
#166
0"$
0h
0"+
0*
0K
0N
0n
0o
0q
02
0r
0t
#171
b00001010011 @
b000000000000010001 B
1"$
b000000000000010000 C
b000000000000010000 "'
b0000010000 ")
b111111111010000001 H
1"+
1K
1N
b000000000000010000 "0
b0000010010 Q
b111000001100010100 "3
b111111111010000001 R
b000000000000010000 "6
b001111100111011000 ":
b0000000000010010 "<
b000000000000000000 _
b00001010011 !
b0001 "
b011111001110110000 %
b00000010011 "G
1h
b001111100111011000 i
1*
b00000010010 +
b0000010010 k
1n
1o
1q
12
1r
1t
b001111100111011000 7
b00001010010 x
09
b001111100111011000 {
b00010001 |
b000111110011101100 >
b011111001110110000 ~
#176
0"$
0"(
0h
0"+
0*
0K
0N
0n
0o
0q
02
0r
0S
0t
0<
#181
b00001010010 @
b000000000000010010 B
1"$
b000000000000000000 C
b000000000000000000 "'
b0000010001 ")
b111111111001110010 H
1"*
1"+
1K
1N
b000000000000000000 "0
b0000010011 Q
b011100000110001010 "3
b111111111001110010 R
b000000000000000000 "6
b000111110011101100 ":
b0000000000010011 "<
b000000000000010000 `
b00001010010 !
b0010 "
b001111100111011000 %
b00000010100 "G
1h
b000111110011101100 i
1*
b00000010011 +
b0000010011 k
b000000000000010000 -
1n
1o
1q
12
1r
1t
b000111110011101100 7
b00001010001 x
b000111110011101100 {
b00010010 |
b100011111001110110 >
b001111100111011000 ~
#186
0"$
0h
0"+
0*
0K
0N
0n
0o
0q
02
0r
0t
#191
b00001010001 @
b000000000000010011 B
1"$
b000000000000000000 "%
b000000000000000000 "&
b0000010010 ")
b111111111001100101 H
0"*
1"+
1K
1N
b0000010100 Q
b001110000011000101 "3
b111111111001100101 R
b100011111001110110 ":
b0000000000010100 "<
b000000000000000000 `
b00001010001 !
b0011 "
b000111110011101100 %
b00000010101 "G
1h
b100011111001110110 i
1*
b00000010100 +
b0000010100 k
b000000000000000000 ,
b000000000000000000 -
1n
1o
b000000000000000000 p
1q
12
1r
b000000000000000000 s
1t
b100011111001110110 7
b00001010000 x
b100011111001110110 {
b00000000 |
b110001111100111011 >
b000111110011101100 ~
#196
0"$
0h
0"+
0*
0K
0N
0n
0o
0q
02
0r
0t
#201
b00001010000 @
b000000000000010100 B
1"$
b0000010011 ")
b111111111001011101 H
1"+
1K
1N
b0000010101 Q
b000111000001100010 "3
b111111111001011101 R
b110001111100111011 ":
b0000000000010101 "<
b00001010000 !
b0100 "
b100011111001110110 %
b00000010110 "G
1h
b110001111100111011 i
1*
b00000010101 +
b0000010101 k
1n
1o
1q
12
1r
1t
b110001111100111011 7
b00001001111 x
b110001111100111011 {
b00000001 |
b111000111110011110 >
b100011111001110110 ~
#206
0"$
0h
0"+
0*
0K
0N
0n
0o
0q
02
0r
0t
#211
b00001001111 @
b000000000000010101 B
1"$
b0000010100 ")
b111111111001011000 H
1"+
1K
1N
b0000010110 Q
b000011100000110001 "3
b111111111001011000 R
b111000111110011110 ":
b0000000000010110 "<
b00001001111 !
b0101 "
b110001111100111011 %
b00000010111 "G
1h
b111000111110011110 i
1*
b00000010110 +
b0000010110 k
1n
1o
1q
12
1r
1t
b111000111110011110 7
b00001001110 x
b111000111110011110 {
b00000010 |
b111100011111001111 >
b110001111100111011 ~
#216
0"$
0h
0"+
0*
0K
0N
0n
0o
0q
02
0r
0t
#221
b00001001110 @
b000000000000010110 B
1"$
b0000010101 ")
1"+
1K
1N
b0000010111 Q
b000001110000011000 "3
b111100011111001111 ":
b0000000000010111 "<
b00001001110 !
b0110 "
b111000111110011110 %
b00000011000 "G
1h
b111100011111001111 i
1*
b00000010111 +
b0000010111 k
1n
1o
1q
12
1r
1t
b111100011111001111 7
b00001001101 x
b111100011111001111 {
b00000011 |
b111110001111101000 >
b111000111110011110 ~
#226
0"$
0h
0"+
0*
0K
0N
0n
0o
0q
02
0r
0t
#231
b00001001101 @
b000000000000010111 B
1"$
b0000010110 ")
b111111111001011100 H
1"+
1K
1N
b0000011000 Q
b000000111000001100 "3
b111111111001011100 R
b111110001111101000 ":
b0000000000011000 "<
b00001001101 !
b0111 "
b111100011111001111 %
b00000011001 "G
1h
b111110001111101000 i
1*
b00000011000 +
b0000011000 k
1n
1o
1q
12
1r
1t
b111110001111101000 7
b00001001100 x
b111110001111101000 {
b00000100 |
b111111000111110100 >
b111100011111001111 ~
#236
0"$
1"(
0h
0"+
0*
0K
0N
0n
0o
0q
02
0r
1S
0t
1<
#241
b00001001100 @
b000000000000011000 B
1"$
b0000010111 ")
b111111111001100101 H
1"+
1K
1N
b0000011001 Q
b100000011100000110 "3
b111111111001100101 R
b111111000111110100 ":
b0000000000011001 "<
b00001001100 !
b1000 "
b111110001111101000 %
b00000011010 "G
1h
b111111000111110100 i
1*
b00000011001 +
b0000011001 k
1n
1o
1q
12
1r
1t
b111111000111110100 7
b00001001011 x
b111111000111110100 {
b00000101 |
b011111100011111010 >
b111110001111101000 ~
#246
0"$
0h
0"+
0*
0K
0N
0n
0o
0q
02
0r
0t
#251
b00001001011 @
b000000000000011001 B
1"$
b0000011000 ")
b111111111001110010 H
1"+
1K
1N
b0000011010 Q
b110000001110000011 "3
b111111111001110010 R
b011111100011111010 ":
b0000000000011010 "<
b00001001011 !
b1001 "
b111111000111110100 %
b00000011011 "G
1h
b011111100011111010 i
1*
b00000011010 +
b0000011010 k
1n
1o
1q
12
1r
1t
b011111100011111010 7
b00001001010 x
b011111100011111010 {
b00000110 |
b001111110001111101 >
b111111000111110100 ~
#256
0"$
0h
0"+
0*
0K
0N
0n
0o
0q
02
0r
0t
#261
b00001001010 @
b000000000000011010 B
1"$
b0000011001 ")
b111111111010000011 H
1"+
1K
1N
b0000011011 Q
b111000000111000001 "3
b111111111010000011 R
b001111110001111101 ":
b0000000000011011 "<
b00001001010 !
b1010 "
b011111100011111010 %
b00000011100 "G
1h
b001111110001111101 i
1*
b00000011011 +
b0000011011 k
1n
1o
1q
12
1r
1t
b001111110001111101 7
b00001001001 x
b001111110001111101 {
b00000111 |
b000111111000111111 >
b011111100011111010 ~
#266
0"$
0h
0"+
0*
0K
0N
0n
0o
0q
02
0r
0t
#271
b00001001001 @
b000000000000011011 B
1"$
b0000011010 ")
b111111111010011001 H
1"+
1K
1N
b0000011100 Q
b111100000011100000 "3
b111111111010011001 R
b000111111000111111 ":
b0000000000011100 "<
b00001001001 !
b1011 "
b001111110001111101 %
b00000011101 "G
1h
b000111111000111111 i
1*
b00000011100 +
b0000011100 k
1n
1o
1q
12
1r
1t
b000111111000111111 7
b00001001000 x
b000111111000111111 {
b00001000 |
b000011111100100000 >
b001111110001111101 ~
#276
0"$
0h
0"+
0*
0K
0N
0n
0o
0q
02
0r
0t
#281
b00001001000 @
b000000000000011100 B
1"$
b0000011011 ")
b111111111010110010 H
1"+
1K
1N
b0000011101 Q
b111110000001110000 "3
b111111111010110010 R
b000011111100100000 ":
b0000000000011101 "<
b00001001000 !
b1100 "
b000111111000111111 %
b00000011110 "G
1h
b000011111100100000 i
1*
b00000011101 +
b0000011101 k
1n
1o
1q
12
1r
1t
b000011111100100000 7
b00001000111 x
b000011111100100000 {
b00001001 |
b000001111110010000 >
b000111111000111111 ~
#286
0"$
0"(
0h
0"+
0*
0K
0N
0n
0o
0q
02
0r
0S
0t
0<
#291
b00001000111 @
b000000000000011101 B
1"$
b0000011100 ")
b111111111011001110 H
1"+
1K
1N
b0000011110 Q
b011111000000111000 "3
b111111111011001110 R
b000001111110010000 ":
b0000000000011110 "<
b00001000111 !
b1101 "
b000011111100100000 %
b00000011111 "G
1h
b000001111110010000 i
1*
b00000011110 +
b0000011110 k
1n
1o
1q
12
1r
1t
b000001111110010000 7
b00001000110 x
b000001111110010000 {
b00001010 |
b100000111111001000 >
b000011111100100000 ~
#296
0"$
1"(
0h
0"+
0*
0K
0N
0n
0o
0q
02
0r
1S
0t
1<
#301
b00001000110 @
b000000000000011110 B
1"$
b0000011101 ")
b111111111011101110 H
1"+
1K
1N
b0000011111 Q
b101111100000011100 "3
b111111111011101110 R
b100000111111001000 ":
b0000000000011111 "<
b00001000110 !
b1110 "
b000001111110010000 %
b00000100000 "G
1h
b100000111111001000 i
1*
b00000011111 +
b0000011111 k
1n
1o
1q
12
1r
1t
b100000111111001000 7
b00001000101 x
b100000111111001000 {
b00001011 |
b010000011111100100 >
b000001111110010000 ~
#306
0"$
0"(
0h
0"+
0*
0K
0N
0n
0o
0q
02
0r
0S
0t
0<
#311
b00001000101 @
b000000000000011111 B
1"$
b0000011110 ")
b111111111100010000 H
1"+
1K
1N
b0000100000 Q
b010111110000001110 "3
b111111111100010000 R
b010000011111100100 ":
b0000000000100000 "<
b00001000101 !
b1111 "
b100000111111001000 %
b00000100001 "G
1h
b010000011111100100 i
1*
b00000100000 +
b0000100000 k
1n
1o
1q
12
1r
1t
b010000011111100100 7
b00001000100 x
b010000011111100100 {
b00001100 |
b101000001111110010 >
b100000111111001000 ~
#316
0"$
1"(
0h
0"+
0*
0K
0N
0n
0o
0q
02
0r
1S
0t
1<
#321
b00001000100 @
b000000000000100000 B
1"$
b0000011111 ")
b111111111100110100 H
1"+
1K
1N
b0000100001 Q
b101011111000000111 "3
b111111111100110100 R
b101000001111110010 ":
b0000000000100001 "<
b00001000100 !
b0000 "
b010000011111100100 %
b00000100010 "G
1h
b101000001111110010 i
1*
b00000100001 +
b0000100001 k
1n
1o
1q
12
1r
1t
b101000001111110010 7
b00001000011 x
19
b101000001111110010 {
b00001101 |
b010100000111111001 >
b010000011111100100 ~
#326
0"$
0"(
0h
0"+
0*
0K
0N
0n
0o
0q
02
0r
0S
0t
0<
#331
b00001000011 @
b000000000000100001 B
1"$
b0000100000 ")
b111111111101011001 H
1"+
1K
1N
b0000100010 Q
b010101111100000011 "3
b111111111101011001 R
b010100000111111001 ":
b0000000000100010 "<
b00001000011 !
b0001 "
b101000001111110010 %
b00000100011 "G
1h
b010100000111111001 i
1*
b00000100010 +
b0000100010 k
1n
1o
1q
12
1r
1t
b010100000111111001 7
b00001000010 x
09
b010100000111111001 {
b00001110 |
b101010000011111101 >
b101000001111110010 ~
#336
0"$
0h
0"+
0*
0K
0N
0n
0o
0q
02
0r
0t
#341
b00001000010 @
b000000000000100010 B
1"$
b0000100001 ")
b111111111101111111 H
1"+
1K
1N
b0000100011 Q
b001010111110000001 "3
b111111111101111111 R
b101010000011111101 ":
b0000000000100011 "<
b00001000010 !
b0010 "
b010100000111111001 %
b00000100100 "G
1h
b101010000011111101 i
1*
b00000100011 +
b0000100011 k
1n
1o
1q
12
1r
1t
b101010000011111101 7
b00001000001 x
b101010000011111101 {
b00001111 |
b110101000001111111 >
b010100000111111001 ~
#346
0"$
0h
0"+
0*
0K
0N
0n
0o
0q
02
0r
0t
#351
b00001000001 @
b000000000000100011 B
1"$
b0000100010 ")
b111111111110100101 H
1"+
1K
1N
b0000100100 Q
b000101011111000000 "3
b111111111110100101 R
b110101000001111111 ":
b0000000000100100 "<
b00001000001 !
b0011 "
b101010000011111101 %
b00000100101 "G
1h
b110101000001111111 i
1*
b00000100100 +
b0000100100 k
1n
1o
1q
12
1r
1t
b110101000001111111 7
b00001000000 x
b110101000001111111 {
b00010000 |
b111010100001000000 >
b101010000011111101 ~
#356
0"$
0h
0"+
0*
0K
0N
0n
0o
0q
02
0r
0t
#361
b00001000000 @
b000000000000100100 B
1"$
b0000100011 ")
b111111111111001010 H
1"+
1K
1N
b0000100101 Q
b000010101111100000 "3
b111111111111001010 R
b111010100001000000 ":
b0000000000100101 "<
b00001000000 !
b0100 "
b110101000001111111 %
b00000100110 "G
1h
b111010100001000000 i
1*
b00000100101 +
b0000100101 k
1n
1o
1q
12
1r
1t
b111010100001000000 7
b00000111111 x
b111010100001000000 {
b00010001 |
b111101010000100000 >
b110101000001111111 ~
#366
0"$
0h
0"+
0*
0K
0N
0n
0o
0q
02
0r
0t
