test_run_dir/test_should_pass/DSP.vcd
$date
2022-06-13T13:59+0000
$end
$version
0.2
$end
$comment

$end
$timescale 1ns  $end
$scope module DSP $end
 $var wire 1 L clock $end
 $var wire 1 U io_Out $end
 $var wire 1 "% io_In $end
 $var wire 1 "* reset $end
 $var wire 1 "? IOC $end
  $scope module IOC.Filter $end
  $upscope $end
  $scope module IOC.ADC $end
  $upscope $end
  $scope module IOC $end
   $var wire 16 + io_Out_ADC $end
   $var wire 1 0 reset $end
   $var wire 1 1 clock $end
   $var wire 1 3 lastSampleType $end
   $var wire 18 6 ADCReg $end
   $var wire 18 B DACReg $end
   $var wire 1 C check2 $end
   $var wire 1 D check1 $end
   $var wire 1 E sampleType $end
   $var wire 1 Q io_In_ADC $end
   $var wire 1 R DACEn $end
   $var wire 1 V DAC $end
   $var wire 1 Y Filter $end
   $var wire 1 d isLoading $end
   $var wire 1 { ADC $end
   $var wire 16 "# io_In_DAC $end
   $var wire 10 "& cntReg $end
   $var wire 1 "3 ADCEn $end
   $var wire 1 "4 io_Out_DAC $end
    $scope module Filter $end
     $var wire 1 $ OutputSampleMemory_ReadOutputSample_MPORT_en_pipe_0 $end
     $var wire 11 * SampleCount $end
     $var wire 11 . InputSamplePointer $end
     $var wire 18 / io_WaveOut $end
     $var wire 7 2 maxcountwire $end
     $var wire 1 5 InputSampleMemory_ReadInputSample_MPORT_en_pipe_0 $end
     $var wire 1 7 io_ADCEnable $end
     $var wire 11 : InputSampleMemory_ReadInputSample_MPORT_addr_pipe_0 $end
     $var wire 11 < OutputSampleMemory_ReadOutputSample_MPORT_addr_pipe_0 $end
     $var wire 11 ? OutputSamplePointer $end
     $var wire 1 F io_SampleType $end
     $var wire 18 G CoeffWire $end
     $var wire 18 H OutputSampleMemory $end
     $var wire 18 I MAccReg $end
     $var wire 10 O CoeffMemory_CoeffWire_MPORT_addr_pipe_0 $end
     $var wire 36 Z Fircomputation36 $end
     $var wire 18 \ ReadInputSample $end
     $var wire 18 ` Fircomputation18 $end
     $var wire 11 e SampleAdress $end
     $var wire 1 f clock $end
     $var wire 18 s OutputReg $end
     $var wire 1 x io_DACEnable $end
     $var wire 6 ") Halfcountwire $end
     $var wire 18 "+ FIRInput $end
     $var wire 18 ", io_DACWaveIn $end
     $var wire 18 "1 CoeffMemory $end
     $var wire 18 "6 io_ADCWaveIn $end
     $var wire 1 "< CoeffMemory_CoeffWire_MPORT_en_pipe_0 $end
     $var wire 18 "> InputSampleMemory $end
     $var wire 18 "@ ReadOutputSample $end
     $var wire 1 "B io_Completed $end
     $var wire 11 "C CoeffCount $end
      $scope module OutputSampleMemory $end
       $var wire 18 ~ MPORT $end
       $var wire 18 "- MPORT_1 $end
        $scope module MPORT $end
         $var wire 11 ! pipeline_addr_0 $end
         $var wire 18 , pipeline_data_0 $end
         $var wire 1 @ en $end
         $var wire 1 N pipeline_valid_0 $end
         $var wire 1 c valid $end
         $var wire 1 m clk $end
         $var wire 11 v addr $end
         $var wire 18 "$ data $end
         $var wire 1 ": mask $end
        $upscope $end
        $scope module MPORT_1 $end
         $var wire 1 & pipeline_valid_0 $end
         $var wire 11 K pipeline_addr_0 $end
         $var wire 1 W en $end
         $var wire 18 ^ pipeline_data_0 $end
         $var wire 1 j valid $end
         $var wire 1 l clk $end
         $var wire 11 w addr $end
         $var wire 18 "2 data $end
         $var wire 1 "; mask $end
        $upscope $end
        $scope module ReadOutputSample_MPORT $end
         $var wire 18 b data $end
         $var wire 1 p clk $end
         $var wire 1 ". en $end
         $var wire 11 "0 addr $end
        $upscope $end
      $upscope $end
      $scope module InputSampleMemory $end
       $var wire 18 t MPORT_2 $end
       $var wire 18 u MPORT_3 $end
        $scope module MPORT_3 $end
         $var wire 18 % pipeline_data_0 $end
         $var wire 11 - pipeline_addr_0 $end
         $var wire 1 > mask $end
         $var wire 1 M en $end
         $var wire 11 _ addr $end
         $var wire 18 g data $end
         $var wire 1 k valid $end
         $var wire 1 "' clk $end
         $var wire 1 "= pipeline_valid_0 $end
        $upscope $end
        $scope module MPORT_2 $end
         $var wire 1 4 valid $end
         $var wire 11 9 addr $end
         $var wire 1 X mask $end
         $var wire 1 [ en $end
         $var wire 11 a pipeline_addr_0 $end
         $var wire 1 h pipeline_valid_0 $end
         $var wire 1 r clk $end
         $var wire 18 y data $end
         $var wire 18 | pipeline_data_0 $end
        $upscope $end
        $scope module ReadInputSample_MPORT $end
         $var wire 1 } en $end
         $var wire 1 "! clk $end
         $var wire 11 "9 addr $end
         $var wire 18 "A data $end
        $upscope $end
      $upscope $end
      $scope module CoeffMemory $end
        $scope module CoeffWire_MPORT $end
         $var wire 18 P data $end
         $var wire 1 S en $end
         $var wire 10 i addr $end
         $var wire 1 o clk $end
        $upscope $end
      $upscope $end
    $upscope $end
    $scope module DAC $end
     $var wire 4 " cntReg $end
     $var wire 16 # io_InFIR $end
     $var wire 18 ' DDC $end
     $var wire 1 ( reset $end
     $var wire 1 ) clock $end
     $var wire 1 8 tick $end
     $var wire 18 A ZReg $end
     $var wire 1 T io_OutPWM $end
     $var wire 16 ] io_OutFIR $end
     $var wire 16 "" io_In $end
     $var wire 16 "7 Diff $end
     $var wire 16 "8 ZIn $end
    $upscope $end
    $scope module ADC $end
     $var wire 1 ; io_In $end
     $var wire 18 = io_OutFIR $end
     $var wire 1 J clock $end
     $var wire 18 n sample $end
     $var wire 18 q io_Out $end
     $var wire 3 z cntReg $end
     $var wire 1 "( reset $end
     $var wire 18 "/ inReg $end
     $var wire 18 "5 io_InFIR $end
    $upscope $end
  $upscope $end
  $scope module IOC.DAC $end
  $upscope $end
$upscope $end
$enddefinitions $end
$dumpvars
00
b000000000000000000 A
01
03
04
b00000000000 a
05
b0000000000000000 #
b000000000000000000 B
07
b000000000000000000 H
08
b000000000000000000 I
b000000000000000000 G
b0000000000 "&
0;
b0000000000000000 +
b000000000000000000 P
0@
0C
0D
b00001100011 w
0E
0F
b00000000000 e
0J
b000000000000000000 \
0L
0M
0N
b000000000000000000 `
0Q
b0000 "
b000000000000000000 ^
0R
0S
0T
0U
b000000000000000000 b
0V
0W
0Y
b000000000000000000 g
0[
1>
b00000000000 v
b0000000000000000 ""
b0000000000000000 "#
b000000000000000000 q
b000000000000000000 n
0c
b000000000000000000 t
0d
b000000000000000000 u
0f
b000000000000000000 s
0h
b000000000000000000 y
0j
0k
b000000000000000000 |
0l
b00001100011 _
0m
0o
0p
b000000000000000000 ~
0r
b0000000000000000 "7
b0000000000000000 "8
b00000000000 !
1X
0x
1":
1";
b000000000100110100 "1
0{
0}
b00000000000 -
b0000000000 i
b00000000000 *
b00000000000 .
b00000000000 <
b00000000000 :
b00000000000 ?
b0000000000 O
b00000000000 9
0"!
b00000000000 K
0"%
0"'
0"(
0"*
0".
b000000000000000000 "6
0"3
b000000000000000000 "5
0"4
b000000000000000000 ">
0"<
0"=
0"?
b000000000000000000 "A
b000000000000000000 "@
0"B
b000000000000000000 "$
b000000000000000000 "+
b000000000000000000 "/
b000000000000000000 "-
b000000000000000000 ",
b000 z
b000000000000000000 "2
b000000 ")
b00000000000 "C
b00000000000 "0
b0000000 2
b000000000000000000000000000000000000 Z
b00000000000 "9
b000000000000000000 %
b000000000000000000 '
b000000000000000000 ,
b000000000000000000 /
0$
0&
0(
0)
b000000000000000000 6
b0000000000000000 ]
b000000000000000000 =
$end
#0
1"B
b00000000001 "C
1"(
b111111111111111111 '
b000000000100110100 G
b110001 ")
1(
1"*
10
b000000000100110100 P
b1100011 2
1"4
1T
1U
b0000000000000001 "7
b11111111111 v
b0000000000000001 "8
18
b11111111111 9
#1
1"'
b111111111111010111 G
1J
b00001100011 K
1L
1".
b0000000001 O
b111111111111010111 P
1R
1S
1"<
0"B
b11111111111 !
b11111111111 a
b00000000010 "C
1$
b00000000001 e
1f
1)
b0000000001 i
b00000000001 *
1l
b00001100011 -
1m
1o
1p
11
1r
15
1x
1}
1"!
#6
0"'
0f
0"(
0(
0"*
0)
0J
0L
0l
0m
0o
00
0p
01
0r
0"!
#11
b000000000000000001 A
1"'
b111111111111010011 G
1J
1L
b00000000001 "0
b0000000010 O
b111111111111010011 P
b0000000000000010 "8
b00000000001 "9
b00000000011 "C
b0001 "
1d
b00000000010 e
1f
1)
b0000000010 i
b00000000010 *
1l
1m
1o
1p
11
1r
08
b00000000001 :
b001 z
b00000000001 <
1"!
#16
1"%
0"'
0f
0)
0J
0L
0l
0m
0o
0p
01
1Q
0r
1;
0"!
#21
b000000000000000010 A
b0000000001 "&
1"'
b111111111111001011 G
1J
1L
b100000000000000000 "/
b00000000010 "0
b0000000011 O
b111111111111001011 P
b0000000000000011 "8
b00000000010 "9
b00000000100 "C
b0010 "
b00000000011 e
1f
1)
b0000000011 i
b00000000011 *
1l
1m
1o
1p
11
1r
b00000000010 :
b010 z
b00000000010 <
b100000000000000000 =
1"!
#26
0"%
0"'
0f
0)
0J
0L
0l
0m
0o
0p
01
0Q
0r
0;
0"!
#31
b000000000000000011 A
b0000000010 "&
1"'
b111111111110111111 G
1J
1L
b010000000000000000 "/
b00000000011 "0
b0000000100 O
b111111111110111111 P
b100000000000000000 "6
b0000000000000100 "8
b00000000011 "9
b00000000101 "C
b0011 "
b00000000100 e
1f
b100000000000000000 g
1)
b0000000100 i
b00000000100 *
1l
1m
1o
1p
11
1r
b100000000000000000 6
b100000000000000000 y
b00000000011 :
b011 z
b00000000011 <
b110000000000000000 =
1"!
#36
1"%
0"'
0f
0)
0J
0L
0l
0m
0o
0p
01
1Q
0r
1;
0"!
#41
b000000000000000100 A
b0000000011 "&
1"'
b111111111110110000 G
1J
1L
b101000000000000000 "/
b00000000100 "0
b0000000101 O
b111111111110110000 P
b110000000000000000 "6
b0000000000000101 "8
b00000000100 "9
b00000000110 "C
b0100 "
b100000000000000000 %
b00000000101 e
1f
b110000000000000000 g
1)
b0000000101 i
b00000000101 *
1l
1m
1o
1p
11
1r
b110000000000000000 6
b110000000000000000 y
b00000000100 :
b100 z
b00000000100 <
b100000000000000000 |
b011000000000000000 =
1"!
#46
0"%
0"'
0f
0)
0J
0L
0l
0m
0o
0p
01
0Q
0r
0;
0"!
#51
b000000000000000101 A
b0000000100 "&
1"'
b111111111110011111 G
1J
1L
b010100000000000000 "/
b00000000101 "0
b0000000110 O
b111111111110011111 P
b011000000000000000 "6
b0000000000000110 "8
b00000000101 "9
b00000000111 "C
b0101 "
b110000000000000000 %
b00000000110 e
1f
b011000000000000000 g
1)
b0000000110 i
b00000000110 *
1l
1m
1o
1p
11
1r
b011000000000000000 6
b011000000000000000 y
b00000000101 :
b101 z
b00000000101 <
b110000000000000000 |
b101100000000000000 =
1"!
#56
0"'
0f
0)
0J
0L
0l
0m
0o
0p
01
0r
0"!
#61
b000000000000000110 A
b0000000101 "&
1"'
b111111111110001010 G
1J
1L
b001010000000000000 "/
b00000000110 "0
b0000000111 O
b111111111110001010 P
b101100000000000000 "6
b0000000000000111 "8
b00000000110 "9
b00000001000 "C
b0110 "
b011000000000000000 %
b00000000111 e
1f
b101100000000000000 g
1)
b0000000111 i
b00000000111 *
1l
1m
1o
1p
11
1r
b101100000000000000 6
b101100000000000000 y
b00000000110 :
b110 z
b00000000110 <
b011000000000000000 |
b110110000000000000 =
1"!
#66
0"'
0f
0)
0J
0L
0l
0m
0o
0p
01
0r
0"!
#71
b000000000000000111 A
b0000000110 "&
1"'
b111111111101110100 G
1J
1L
b000101000000000000 "/
b00000000111 "0
b0000001000 O
b111111111101110100 P
b110110000000000000 "6
b0000000000001000 "8
b00000000111 "9
b00000001001 "C
b0111 "
b101100000000000000 %
b00000001000 e
1f
b110110000000000000 g
1)
b0000001000 i
b00000001000 *
1l
1m
1o
1p
11
1r
b110110000000000000 6
b110110000000000000 y
b00000000111 :
b111 z
b00000000111 <
b101100000000000000 |
b111011000000000000 =
1"!
#76
1"%
0"'
0f
0)
0J
0L
0l
0m
0o
0p
01
1Q
0r
1;
0"!
#81
b000000000000001000 A
b0000000111 "&
1"'
b111111111101011100 G
1J
1L
b100010100000000000 "/
b00000001000 "0
b0000001001 O
b111111111101011100 P
b111011000000000000 "6
b0000000000001001 "8
b00000001000 "9
b00000001010 "C
b1000 "
b110110000000000000 %
b00000001001 e
1f
b111011000000000000 g
1)
b0000001001 i
b00000001001 *
1l
1m
1o
1p
11
1r
b111011000000000000 6
b111011000000000000 y
b00000001000 :
b000 z
b00000001000 <
b110110000000000000 |
b011101100000000000 =
1"!
#86
0"'
0f
0)
0J
0L
0l
0m
0o
0p
01
0r
0"!
#91
b000000000000001001 A
b0000001000 "&
1"'
b111111111101000010 G
1J
1L
b110001010000000000 "/
b00000001001 "0
b0000001010 O
b111111111101000010 P
b011101100000000000 "6
b0000000000001010 "8
b00000001001 "9
b00000001011 "C
b1001 "
b111011000000000000 %
b00000001010 e
1f
b011101100000000000 g
1)
b0000001010 i
b00000001010 *
1l
1m
1o
1p
11
1r
b011101100000000000 6
b011101100000000000 y
b00000001001 :
b001 z
b00000001001 <
b111011000000000000 |
b001110110000000000 =
1"!
#96
0"%
0"'
0f
0)
0J
0L
0l
0m
0o
0p
01
0Q
0r
0;
0"!
#101
b000000000000001010 A
b0000001001 "&
1"'
b111111111100101000 G
1J
1L
b011000101000000000 "/
b00000001010 "0
b0000001011 O
b111111111100101000 P
b001110110000000000 "6
b0000000000001011 "8
b00000001010 "9
b00000001100 "C
b1010 "
b011101100000000000 %
b00000001011 e
1f
b001110110000000000 g
1)
b0000001011 i
b00000001011 *
1l
1m
1o
1p
11
1r
b001110110000000000 6
b001110110000000000 y
b00000001010 :
b010 z
b00000001010 <
b011101100000000000 |
b100111011000000000 =
1"!
#106
0"'
0f
0)
0J
0L
0l
0m
0o
0p
01
0r
0"!
#111
b000000000000001011 A
b0000001010 "&
1"'
b111111111100001101 G
1J
1L
b001100010100000000 "/
b00000001011 "0
b0000001100 O
b111111111100001101 P
b100111011000000000 "6
b0000000000001100 "8
b00000001011 "9
b00000001101 "C
b1011 "
b001110110000000000 %
b00000001100 e
1f
b100111011000000000 g
1)
b0000001100 i
b00000001100 *
1l
1m
1o
1p
11
1r
b100111011000000000 6
b100111011000000000 y
b00000001011 :
b011 z
b00000001011 <
b001110110000000000 |
b110011101100000000 =
1"!
#116
0"'
0f
0)
0J
0L
0l
0m
0o
0p
01
0r
0"!
#121
b000000000000001100 A
b0000001011 "&
1"'
b111111111011110011 G
1J
1L
b000110001010000000 "/
b00000001100 "0
b0000001101 O
b111111111011110011 P
b110011101100000000 "6
b0000000000001101 "8
b00000001100 "9
b00000001110 "C
b1100 "
b100111011000000000 %
b00000001101 e
1f
b110011101100000000 g
1)
b0000001101 i
b00000001101 *
1l
1m
1o
1p
11
1r
b110011101100000000 6
b110011101100000000 y
b00000001100 :
b100 z
b00000001100 <
b100111011000000000 |
b111001110110000000 =
1"!
#126
0"'
0f
0)
0J
0L
0l
0m
0o
0p
01
0r
0"!
#131
b000000000000001101 A
b0000001100 "&
1"'
b111111111011011001 G
1J
1L
b000011000101000000 "/
b00000001101 "0
b0000001110 O
b111111111011011001 P
b111001110110000000 "6
b0000000000001110 "8
b00000001101 "9
b00000001111 "C
b1101 "
b110011101100000000 %
b00000001110 e
1f
b111001110110000000 g
1)
b0000001110 i
b00000001110 *
1l
1m
1o
1p
11
1r
b111001110110000000 6
b111001110110000000 y
b00000001101 :
b101 z
b00000001101 <
b110011101100000000 |
b111100111011000000 =
1"!
#136
0"'
0f
0)
0J
0L
0l
0m
0o
0p
01
0r
0"!
#141
b000000000000001110 A
b0000001101 "&
1"'
b111111111011000000 G
1J
1L
b000001100010100000 "/
b00000001110 "0
b0000001111 O
b111111111011000000 P
b111100111011000000 "6
b0000000000001111 "8
b00000001110 "9
b00000010000 "C
b1110 "
b111001110110000000 %
b00000001111 e
1f
b111100111011000000 g
1)
b0000001111 i
b00000001111 *
1l
1m
1o
1p
11
1r
b111100111011000000 6
b111100111011000000 y
b00000001110 :
b110 z
b00000001110 <
b111001110110000000 |
b111110011101100000 =
1"!
#146
1"%
0"'
0f
0)
0J
0L
0l
0m
0o
0p
01
1Q
0r
1;
0"!
#151
b000000000000001111 A
b0000001110 "&
1"'
b111111111010101001 G
1J
1L
b100000110001010000 "/
b00000001111 "0
b0000010000 O
b111111111010101001 P
b111110011101100000 "6
b0000000000010000 "8
b00000001111 "9
b00000010001 "C
b1111 "
b111100111011000000 %
b00000010000 e
1f
b111110011101100000 g
1)
b0000010000 i
b00000010000 *
1l
1m
1o
1p
11
1r
b111110011101100000 6
b111110011101100000 y
b00000001111 :
b111 z
b00000001111 <
b111100111011000000 |
b011111001110110000 =
1"!
#156
0"'
0f
0)
0J
0L
0l
0m
0o
0p
01
0r
0"!
#161
b000000000000010000 A
b0000001111 "&
1"'
b111111111010010100 G
1J
1L
b110000011000101000 "/
b00000010000 "0
b0000010001 O
b111111111010010100 P
b011111001110110000 "6
b0000000000010001 "8
b00000010000 "9
b00000010010 "C
b0000 "
b111110011101100000 %
b00000010001 e
1f
b011111001110110000 g
1)
b0000010001 i
b00000010001 *
1l
1m
1o
1p
11
1r
b011111001110110000 6
18
b011111001110110000 y
b00000010000 :
b000 z
b00000010000 <
b111110011101100000 |
b001111100111011000 =
1"!
#166
0"'
0f
0)
0J
0L
0l
0m
0o
0p
01
0r
0"!
#171
b000000000000010001 A
b0000010000 "&
1"'
b111111111010000001 G
1J
1L
b111000001100010100 "/
b00000010001 "0
b0000010010 O
b111111111010000001 P
b001111100111011000 "6
b0000000000010010 "8
b00000010001 "9
b00000010011 "C
b0001 "
b011111001110110000 %
b00000010010 e
1f
b001111100111011000 g
1)
b0000010010 i
b00000010010 *
1l
1m
1o
1p
11
1r
b001111100111011000 6
08
b001111100111011000 y
b00000010001 :
b001 z
b00000010001 <
b011111001110110000 |
b000111110011101100 =
1"!
#176
0"%
0"'
0f
0)
0J
0L
0l
0m
0o
0p
01
0Q
0r
0;
0"!
#181
b000000000000010010 A
b0000010001 "&
1"'
b111111111001110010 G
1J
1L
b011100000110001010 "/
b00000010010 "0
b0000010011 O
b111111111001110010 P
b000111110011101100 "6
b0000000000010011 "8
b00000010010 "9
b00000010100 "C
b0010 "
b001111100111011000 %
b00000010011 e
1f
b000111110011101100 g
1)
b0000010011 i
b00000010011 *
1l
1m
1o
1p
11
1r
b000111110011101100 6
b000111110011101100 y
b00000010010 :
b010 z
b00000010010 <
b001111100111011000 |
b100011111001110110 =
1"!
#186
0"'
0f
0)
0J
0L
0l
0m
0o
0p
01
0r
0"!
#191
b000000000000010011 A
b0000010010 "&
1"'
b111111111001100101 G
1J
1L
b001110000011000101 "/
b00000010011 "0
b0000010100 O
b111111111001100101 P
b100011111001110110 "6
b0000000000010100 "8
b00000010011 "9
b00000010101 "C
b0011 "
b000111110011101100 %
b00000010100 e
1f
b100011111001110110 g
1)
b0000010100 i
b00000010100 *
1l
1m
1o
1p
11
1r
b100011111001110110 6
b100011111001110110 y
b00000010011 :
b011 z
b00000010011 <
b000111110011101100 |
b110001111100111011 =
1"!
#196
0"'
0f
0)
0J
0L
0l
0m
0o
0p
01
0r
0"!
#201
b000000000000010100 A
b0000010011 "&
1"'
b111111111001011101 G
1J
1L
b000111000001100010 "/
b00000010100 "0
b0000010101 O
b111111111001011101 P
b110001111100111011 "6
b0000000000010101 "8
b00000010100 "9
b00000010110 "C
b0100 "
b100011111001110110 %
b00000010101 e
1f
b110001111100111011 g
1)
b0000010101 i
b00000010101 *
1l
1m
1o
1p
11
1r
b110001111100111011 6
b110001111100111011 y
b00000010100 :
b100 z
b00000010100 <
b100011111001110110 |
b111000111110011110 =
1"!
#206
0"'
0f
0)
0J
0L
0l
0m
0o
0p
01
0r
0"!
#211
b000000000000010101 A
b0000010100 "&
1"'
b111111111001011000 G
1J
1L
b000011100000110001 "/
b00000010101 "0
b0000010110 O
b111111111001011000 P
b111000111110011110 "6
b0000000000010110 "8
b00000010101 "9
b00000010111 "C
b0101 "
b110001111100111011 %
b00000010110 e
1f
b111000111110011110 g
1)
b0000010110 i
b00000010110 *
1l
1m
1o
1p
11
1r
b111000111110011110 6
b111000111110011110 y
b00000010101 :
b101 z
b00000010101 <
b110001111100111011 |
b111100011111001111 =
1"!
#216
0"'
0f
0)
0J
0L
0l
0m
0o
0p
01
0r
0"!
#221
b000000000000010110 A
b0000010101 "&
1"'
1J
1L
b000001110000011000 "/
b00000010110 "0
b0000010111 O
b111100011111001111 "6
b0000000000010111 "8
b00000010110 "9
b00000011000 "C
b0110 "
b111000111110011110 %
b00000010111 e
1f
b111100011111001111 g
1)
b0000010111 i
b00000010111 *
1l
1m
1o
1p
11
1r
b111100011111001111 6
b111100011111001111 y
b00000010110 :
b110 z
b00000010110 <
b111000111110011110 |
b111110001111101000 =
1"!
#226
0"'
0f
0)
0J
0L
0l
0m
0o
0p
01
0r
0"!
#231
b000000000000010111 A
b0000010110 "&
1"'
b111111111001011100 G
1J
1L
b000000111000001100 "/
b00000010111 "0
b0000011000 O
b111111111001011100 P
b111110001111101000 "6
b0000000000011000 "8
b00000010111 "9
b00000011001 "C
b0111 "
b111100011111001111 %
b00000011000 e
1f
b111110001111101000 g
1)
b0000011000 i
b00000011000 *
1l
1m
1o
1p
11
1r
b111110001111101000 6
b111110001111101000 y
b00000010111 :
b111 z
b00000010111 <
b111100011111001111 |
b111111000111110100 =
1"!
#236
1"%
0"'
0f
0)
0J
0L
0l
0m
0o
0p
01
1Q
0r
1;
0"!
#241
b000000000000011000 A
b0000010111 "&
1"'
b111111111001100101 G
1J
1L
b100000011100000110 "/
b00000011000 "0
b0000011001 O
b111111111001100101 P
b111111000111110100 "6
b0000000000011001 "8
b00000011000 "9
b00000011010 "C
b1000 "
b111110001111101000 %
b00000011001 e
1f
b111111000111110100 g
1)
b0000011001 i
b00000011001 *
1l
1m
1o
1p
11
1r
b111111000111110100 6
b111111000111110100 y
b00000011000 :
b000 z
b00000011000 <
b111110001111101000 |
b011111100011111010 =
1"!
#246
0"'
0f
0)
0J
0L
0l
0m
0o
0p
01
0r
0"!
#251
b000000000000011001 A
b0000011000 "&
1"'
b111111111001110010 G
1J
1L
b110000001110000011 "/
b00000011001 "0
b0000011010 O
b111111111001110010 P
b011111100011111010 "6
b0000000000011010 "8
b00000011001 "9
b00000011011 "C
b1001 "
b111111000111110100 %
b00000011010 e
1f
b011111100011111010 g
1)
b0000011010 i
b00000011010 *
1l
1m
1o
1p
11
1r
b011111100011111010 6
b011111100011111010 y
b00000011001 :
b001 z
b00000011001 <
b111111000111110100 |
b001111110001111101 =
1"!
#256
0"'
0f
0)
0J
0L
0l
0m
0o
0p
01
0r
0"!
#261
b000000000000011010 A
b0000011001 "&
1"'
b111111111010000011 G
1J
1L
b111000000111000001 "/
b00000011010 "0
b0000011011 O
b111111111010000011 P
b001111110001111101 "6
b0000000000011011 "8
b00000011010 "9
b00000011100 "C
b1010 "
b011111100011111010 %
b00000011011 e
1f
b001111110001111101 g
1)
b0000011011 i
b00000011011 *
1l
1m
1o
1p
11
1r
b001111110001111101 6
b001111110001111101 y
b00000011010 :
b010 z
b00000011010 <
b011111100011111010 |
b000111111000111111 =
1"!
#266
0"'
0f
0)
0J
0L
0l
0m
0o
0p
01
0r
0"!
#271
b000000000000011011 A
b0000011010 "&
1"'
b111111111010011001 G
1J
1L
b111100000011100000 "/
b00000011011 "0
b0000011100 O
b111111111010011001 P
b000111111000111111 "6
b0000000000011100 "8
b00000011011 "9
b00000011101 "C
b1011 "
b001111110001111101 %
b00000011100 e
1f
b000111111000111111 g
1)
b0000011100 i
b00000011100 *
1l
1m
1o
1p
11
1r
b000111111000111111 6
b000111111000111111 y
b00000011011 :
b011 z
b00000011011 <
b001111110001111101 |
b000011111100100000 =
1"!
#276
0"'
0f
0)
0J
0L
0l
0m
0o
0p
01
0r
0"!
#281
b000000000000011100 A
b0000011011 "&
1"'
b111111111010110010 G
1J
1L
b111110000001110000 "/
b00000011100 "0
b0000011101 O
b111111111010110010 P
b000011111100100000 "6
b0000000000011101 "8
b00000011100 "9
b00000011110 "C
b1100 "
b000111111000111111 %
b00000011101 e
1f
b000011111100100000 g
1)
b0000011101 i
b00000011101 *
1l
1m
1o
1p
11
1r
b000011111100100000 6
b000011111100100000 y
b00000011100 :
b100 z
b00000011100 <
b000111111000111111 |
b000001111110010000 =
1"!
#286
0"%
0"'
0f
0)
0J
0L
0l
0m
0o
0p
01
0Q
0r
0;
0"!
#291
b000000000000011101 A
b0000011100 "&
1"'
b111111111011001110 G
1J
1L
b011111000000111000 "/
b00000011101 "0
b0000011110 O
b111111111011001110 P
b000001111110010000 "6
b0000000000011110 "8
b00000011101 "9
b00000011111 "C
b1101 "
b000011111100100000 %
b00000011110 e
1f
b000001111110010000 g
1)
b0000011110 i
b00000011110 *
1l
1m
1o
1p
11
1r
b000001111110010000 6
b000001111110010000 y
b00000011101 :
b101 z
b00000011101 <
b000011111100100000 |
b100000111111001000 =
1"!
#296
1"%
0"'
0f
0)
0J
0L
0l
0m
0o
0p
01
1Q
0r
1;
0"!
#301
b000000000000011110 A
b0000011101 "&
1"'
b111111111011101110 G
1J
1L
b101111100000011100 "/
b00000011110 "0
b0000011111 O
b111111111011101110 P
b100000111111001000 "6
b0000000000011111 "8
b00000011110 "9
b00000100000 "C
b1110 "
b000001111110010000 %
b00000011111 e
1f
b100000111111001000 g
1)
b0000011111 i
b00000011111 *
1l
1m
1o
1p
11
1r
b100000111111001000 6
b100000111111001000 y
b00000011110 :
b110 z
b00000011110 <
b000001111110010000 |
b010000011111100100 =
1"!
#306
0"%
0"'
0f
0)
0J
0L
0l
0m
0o
0p
01
0Q
0r
0;
0"!
#311
b000000000000011111 A
b0000011110 "&
1"'
b111111111100010000 G
1J
1L
b010111110000001110 "/
b00000011111 "0
b0000100000 O
b111111111100010000 P
b010000011111100100 "6
b0000000000100000 "8
b00000011111 "9
b00000100001 "C
b1111 "
b100000111111001000 %
b00000100000 e
1f
b010000011111100100 g
1)
b0000100000 i
b00000100000 *
1l
1m
1o
1p
11
1r
b010000011111100100 6
b010000011111100100 y
b00000011111 :
b111 z
b00000011111 <
b100000111111001000 |
b101000001111110010 =
1"!
#316
1"%
0"'
0f
0)
0J
0L
0l
0m
0o
0p
01
1Q
0r
1;
0"!
#321
b000000000000100000 A
b0000011111 "&
1"'
b111111111100110100 G
1J
1L
b101011111000000111 "/
b00000100000 "0
b0000100001 O
b111111111100110100 P
b101000001111110010 "6
b0000000000100001 "8
b00000100000 "9
b00000100010 "C
b0000 "
b010000011111100100 %
b00000100001 e
1f
b101000001111110010 g
1)
b0000100001 i
b00000100001 *
1l
1m
1o
1p
11
1r
b101000001111110010 6
18
b101000001111110010 y
b00000100000 :
b000 z
b00000100000 <
b010000011111100100 |
b010100000111111001 =
1"!
#326
0"%
0"'
0f
0)
0J
0L
0l
0m
0o
0p
01
0Q
0r
0;
0"!
#331
b000000000000100001 A
b0000100000 "&
1"'
b111111111101011001 G
1J
1L
b010101111100000011 "/
b00000100001 "0
b0000100010 O
b111111111101011001 P
b010100000111111001 "6
b0000000000100010 "8
b00000100001 "9
b00000100011 "C
b0001 "
b101000001111110010 %
b00000100010 e
1f
b010100000111111001 g
1)
b0000100010 i
b00000100010 *
1l
1m
1o
1p
11
1r
b010100000111111001 6
08
b010100000111111001 y
b00000100001 :
b001 z
b00000100001 <
b101000001111110010 |
b101010000011111101 =
1"!
#336
0"'
0f
0)
0J
0L
0l
0m
0o
0p
01
0r
0"!
#341
b000000000000100010 A
b0000100001 "&
1"'
b111111111101111111 G
1J
1L
b001010111110000001 "/
b00000100010 "0
b0000100011 O
b111111111101111111 P
b101010000011111101 "6
b0000000000100011 "8
b00000100010 "9
b00000100100 "C
b0010 "
b010100000111111001 %
b00000100011 e
1f
b101010000011111101 g
1)
b0000100011 i
b00000100011 *
1l
1m
1o
1p
11
1r
b101010000011111101 6
b101010000011111101 y
b00000100010 :
b010 z
b00000100010 <
b010100000111111001 |
b110101000001111111 =
1"!
#346
0"'
0f
0)
0J
0L
0l
0m
0o
0p
01
0r
0"!
#351
b000000000000100011 A
b0000100010 "&
1"'
b111111111110100101 G
1J
1L
b000101011111000000 "/
b00000100011 "0
b0000100100 O
b111111111110100101 P
b110101000001111111 "6
b0000000000100100 "8
b00000100011 "9
b00000100101 "C
b0011 "
b101010000011111101 %
b00000100100 e
1f
b110101000001111111 g
1)
b0000100100 i
b00000100100 *
1l
1m
1o
1p
11
1r
b110101000001111111 6
b110101000001111111 y
b00000100011 :
b011 z
b00000100011 <
b101010000011111101 |
b111010100001000000 =
1"!
#356
0"'
0f
0)
0J
0L
0l
0m
0o
0p
01
0r
0"!
#361
b000000000000100100 A
b0000100011 "&
1"'
b111111111111001010 G
1J
1L
b000010101111100000 "/
b00000100100 "0
b0000100101 O
b111111111111001010 P
b111010100001000000 "6
b0000000000100101 "8
b00000100100 "9
b00000100110 "C
b0100 "
b110101000001111111 %
b00000100101 e
1f
b111010100001000000 g
1)
b0000100101 i
b00000100101 *
1l
1m
1o
1p
11
1r
b111010100001000000 6
b111010100001000000 y
b00000100100 :
b100 z
b00000100100 <
b110101000001111111 |
b111101010000100000 =
1"!
#366
0"'
0f
0)
0J
0L
0l
0m
0o
0p
01
0r
0"!
